{
    "fileFormatVersion": "1",
    "parameterSets": {
        "New set 1": {
            "FirstLayer": "0.25",
            "Length": "200",
            "NbLayers": "2",
            "OtherLayers": "0.20000000000000001",
            "Width": "100"
        }
    }
}
