; generated by SuperSlicer 2.5.59.8 on 2024-05-01 at 12:15:46 UTC


;
; thumbnail begin 64x64 1816
; iVBORw0KGgoAAAANSUhEUgAAAEAAAABACAYAAACqaXHeAAAFGElEQVR4Ae2bzW8TVxTFPY4T58P5dE
; IAJ2FMXNKkJXVCipM2Ua1KSdVFNlVLu2oDOxJSdRVVlWi9oJWqUhahm6ptXKmUFQKJDR8br5DY8hf4
; T4H5jXSsCcTg2GN7xpkrXTkEbM+597x7z7vvEQoFFlhggQUWWGCNMsMwSq/RaDQUDodDR87a2tpCkU
; gk1NHREYrFYgY/KzAtbYAk4wDu7Oy0A9De3m4Hobu7u7XZQNYBCHCoPzF2wvx5ZzOfv/FTgYDwu5GR
; kXBLsgHwAOzr67Pp/tmnH288vHWz+Ozx7ec4Py+fn8vCht7eXqOnp6c12KBC19XVFYLip8ZOmtsXv8
; wJ+Mv+y/dbeTGEVwLiWyPrAgH406fGzYe3dovlwMsf/LdbXFp4L8t7YIsva4OAE4S3Js3k5jdf5N4E
; /GXnPYCnUCoYnjcVOWWfrP9z/WrhsOCdbOAztCwIhicLJA+lloZTxKrJejnfsj6LIPT39xt8DwH2jE
; nQkCH6eXJizNz8+nPXwMvzv/9YILgDAwMG3QS2NZ0NWudkhvY1kThuOtub2/7o/5vFzNy7WQJOIJqm
; GfhSgPMggB8/OWpe2biQqxfwV5aE9V1Sk7TYhnYJwJN5wPMA9c56OaelLs6ftdlAEFiCdTdFXQHYcr
; HQVeswj2fBh4eHw3UpkGSdKAv8pDluegG8fM8qkBRgLUme07XaQERpa6L8B5ZKq0TRNXxJWJrhw/fT
; WZ5VuqEmNhBBbVn5sDOTyWQjC121fm3ncl5ahNeqFKTaG+DpuWxdUWVeB19ig8XQ8+l3bDZIRlfUKZ
; xjKt6MDL1cB1HTKOfZSSIahSC8lg38paQsWae379Wg473iFEiwkFAKJfj2FUj+IPDat/s56wc5OoUt
; toYyeCkI2q/j5njC3PJBoavW/72RK6g7IKXtLgEt+CW9/VETFF3j2bBrj99gPbXBLnSvG1O1qoPZLo
; pk30uqrhFOS2epp1KpdlvsEIn52Zks200/AanGWQIrmfnswsJCz+rqarw0waEDHD82bF6/+l3BT4AO
; 4yjZqampjsXFxdjMzEw0kUi0ldqgho84KspPwCrJ+reXvsplMpnY+vr66MrKSj/Ff58ecAohdlRjJ4
; 6ZiAg/AT3IWe/n5mZPA35tbS1ummakrCLUBkhSmGXhV1GE+KHQJZPJCJRfXl7ui8fj4Yq2yRptq1ci
; Je/+9VvRL+DJ+vSZVDKdTneR9enp6eiht8awgBapKRCM8EO7hLEkDcpT6TlwrWlmSBBwHWOjorwInK
; xfscSN5oOuni1qKqS9NbN/LxVInoWBDaA1xHF9XK52qS/g9eKF9aYuCdobWScxOlqv+xki60lTWIJA
; gcw3gQ3MAJlUKSmuDkLfZGIDS0PLolHzwif3/rbPCnWrpObhZy2mIGjIwLHV0/v5uoF3Ho1R7HTtpq
; mmASqZGBoaMkZH4uYf13YKboP/YftSnoAPDg4aEmueOSrXMFV7CorRJx8tbbiy1q1Cp8sSsIxge+p4
; 3Gm6GMErFGXEtlfjBQk+Q71dbPO8acag+nDYyxJUeN6D9uAzdBbpKyMAKlTQl5ZV6SWps2+n7EtSYp
; Rvr8xRGwCiq3K8blv78nLgaW/8Ox1p+S7rB5k0A+Cl1JbOze7bTzCNRtGJ6k3t7fUyp3BibbMkuCZ7
; 589fbUXnvEnashenWcu6LC2qExSYoasuR+LWuPO6vIAfuf83oIELwTgSWQ8ssMACCyww79kLzuRdqq
; CO9gAAAAAASUVORK5CYII=
; thumbnail end
;

;
; thumbnail begin 400x300 20024
; iVBORw0KGgoAAAANSUhEUgAAAZAAAAEsCAYAAADtt+XCAAA6cUlEQVR4Ae2dh3dU5brGpyaZTDrpnf
; SekJAQEgglFJNACL33Lk2kBhBCEekdQaRzQBSpBxSkqYByFfCg6Fn33HOWZ51/5N79YMYbx9kz+9sz
; SaY8v7WedTw6O4SZPd+73+99v+fVaAjxIXQ6nSYjI8N4/fr1tU+fPj3R0NAQjX8ncn1jY2Pss2fPzl
; 25cmVV165dDVqtVkMIIcQHMJvNutGjRycvXLiwODU11SgSAPDasLAw44QJE9KampoSAwMDlUcfQggh
; no9er4dUpw6t12sIIYQQQggh5DdQr1Bbn3DmWlxnESGEEA8iICBAM2bMmKRt27bVFRUVBYgUyYFU49
; Bu2LChzzvvvNM7KChIKApgWysvL89/69atg6ZOnZpuNBo1hBBCPITQ0FAtOqS+++6705MnT04zGAyK
; r0UAKCkpCbxz587W27dvvysFgwCRTAJ/Vl1dXQy6tE6dOjUzJCSEaQghhHgKWPCDg4O1aWlp/tICLt
; wlhSCQnJzsl5SU5KemUO7n56dLTEw04s8WzX4IIYQQQgghhBBCiFeALSoUt6Ojo3Umk0mjhoiICG1U
; VJRO2m7SiIIiPa4VLbBbCAwMfP274+ewU4sQQjoQBI1169b1+vnnn2/MnTs3T6ROgQU7Ozvb7+rVq6
; s///zzzX379g0TKbLjtTU1NaEPHjzYc+vWrRZYmWgEQMBasGBBIX53dHohiBBCCOkgpEVXO2LEiMSN
; Gzf2a2xsjJcWZcWP8QggUgDSzps3L6+5ubmnVCj3t5UFxMdEpc6bPLLlxM51D62vR4F906ZN/RG8pG
; K9TiSLwOn37t27Ry5fvrwcPlwMIIQQ0sEg6zAajVq1XU7IJBB4bC3+3Yty+35+bv+vL7+48L8Q/hn/
; zvLf8WciiOFnqNmCwvU4H6L2ekIIIW6GJeuwBA5rbV4+75SGEEKIe4Mnc2fPUIg83SN4tM065GSdjb
; jiz7YFz48QQogKsPgWFBQELFq0qHjw4MGRoosptrcmTJiQ+uabbxZIBXN/e9c7yjrkhGvkfveMjAw/
; FMoHDhzYRc3v3tTUFDd//vz83NxcfwYSQggRAIsoityvXr269sEHH0xCy6zSa7GAx8TE6I4cOTIenU
; 6zZs3KluuyQvBAkVw0eFiEa/Ez2v5M/FnTp0/PxO+O3yEhIUEvko2gxRceXi9fvryEIKKmzZgQQnwW
; LLghISH6vLw8k7QAG0WfwlGglq4zSNlHQHBwsM0eXzVZh5ItLcvvnp+fb0pMTDSImim22rDo8bvHxs
; Zy4AghhKjBmTqCnJ262i0rJdmIkj9f5PcnhBDiJigtlLsqGyGEENIOYFsKtuvY81fztI1aQ1xcnE7J
; KfT2yjpEC+xqfndr8F7h8CGsWDhSlxDic2ABRXfVZ599tuncuXPzpMVQ6DQ3rEw2b95ci5kdsAPx9/
; eXfW17Zx32shHrArvld1+8eHExbFS2bNkywN7vbg3eo8jISN3x48en3rx5c0NdXV0UgwghxOdISUkx
; nDlzZg4sQfA0LRJAcIJ82LBhiRcuXFhYX18fL9dl1ZFZh9JsBL/7oEGDoo4dOzZ50qRJXaUMTKOU1u
; xDt2jRovITJ05MT0tL82OthBDik6BFFVtYas464MlbutbmNlBHb1k5knWB3fK7i5g4tkW6TovuLgYP
; QghxIdY+Vu4iFtgJIaQDQWai9Cnb3bIOpVtatnC2BZgQQjyakJAQLSw5GhsbYzGfXCNIYmKifvbs2T
; klJSWBjrZ6OqtQ3h7ZCP6upaWl5mnTpmWkpqaKnUKUwJCrN954IxL1FbUDrwghpNPA03O3bt1M3377
; 7YePHz8+kpeXFyDyRI39/WXLlnWHnQeKzeg8knutJ2QdSrMRiw0L/s4//fTT1fXr19eI1kng/fXNN9
; 8ce/r06YnevXuHskuLEOJRYCE0m83a8vJyc0VFRbD0z8JVcrS3Dho0qEtycnKArSI7sg7Yq3tSwLAl
; WwV2KfPwr62tjcB7qBFECr66jIyMQOl9NyMD4VYYIcTjsNixt4edR+OgmmmeFCQcyZaflrPvG118CS
; GkDZ5SKFcrDqwihPgEFksNZwq1KLQrnQnuaYVyV2Uj7fG+o6kBP4PbW4SQTiEpKcmwf//+EZ988snS
; ysrKIJHFCNsr9fX1UXfv3t0OSxJ78z68PeuQk612X7zH0dHRuu3bt9fDBkb0fcdry8rKAj/99NPlR4
; 8enSjVWgwMIoSQDic9Pd343nvvDcZC1K1bN7NItw+6rKqrq0NOnz49q6WlpW9oaKjNAOLswCdvyEas
; /bQiIyP1CLonT56cUVJSYhJ53xEsUlJSTPv27Ru+a9euoWlpacJtwoQQ4jStg4+0/v7+qqxI0J6KLS
; x4Q9n6776YdbxUkI3gfTeZTNouXbqoskLB9XjP2aFFCPE6fHXLypGs230JIYS0wVcK5WrVUX5azEwI
; IU6B7ZHCwkITbDHCw8N1oosKrm9oaIju379/uKN9emYdYrLnp4X6Et7zAQMGRIieQm+d567F51ZaWh
; qo1i2YEOLjoNvn3r17O2EnMm7cuGSRxQQ1kZqamtCHDx/u/eqrrw6g2CsXgJh1qJOtbATvcUVFRdDX
; X3996Msvv9xfVVUVLGohM2bMmCR85leuXFllrzuOEEJkwdNrfn6+aciQIXHJyckG0UK5lLVoa2tru5
; SVlQUHBASwUN5Oss5G8F736NEjpG/fvhGiJpatGYhRyjpjYGKJeS2EEKIaZ+xIcK2cjxWDh+tkXWCX
; e9+VwhoIIcQtcdeBT54uDqwihHQo2KaC1D5xoi4C11wl1zPr6Bg58tNCZmIymTRqbd7xWaNWQrNGQn
; wYLPzz58/PR7F04MCBUaJBBHMrDh48OPrcuXPzCgoKAuwtKCyUd6zkshEEjZycHL8PP/xwyuHDh8dG
; REQIfej4jAcMGNDl5s2bG+bNm5eHe4gQ4oPATG/lypU9vvjii21vvvlmoWjLJk5Cnz17du7Vq1dXl5
; aWBrPW4X6yLrAjgEjB3vT5559vPnHixPS4uDihNEK6R7STJk3KwT2zaNGiYhbZCfFRsOCjYycsLEwn
; bWkI70dYhkZJT7F6W9shvu5j5S7CZ9DWTwufFfy00KGlZusSQUS6VgcLGxbbCSEuh1mHewlbWhjCpS
; GEEHeFW1buLfppEUIUgzoFZmNj7oNGBZmZmX4okMs55raFhXLPkKN2X2xNYWZISkqKqlkhGRkZxqKi
; ogBpa5RbXIR4Kmi1XLJkScmPP/54GYOfsG+t9Fp88WNjY3UYFvXLL7/cHDt2rKyVCbMOz5QtPy3cMz
; Nnzsx69erVNXz2CQkJQr2+sIg/cuTIeNxzaNBAuzAhxANBkbxbt26mpqamuPLy8iBpcRB6HETAwMS7
; kSNHJkjBxN/W0ySzDs+W9cAq3DOJiYn+EydOTC0uLjaJdllJBXptenp60PDhw+MLCwsDeFaEEA8Gi7
; 4zBwVxrdwiwKzDe2SdjThjhYJ7jYGDEGITbll5p1hgJ8QHwdOe2rkNFlsKpdDHyrul1E/LmQOEuFed
; yYoJIS4AX8IePXoE79ixo2HNmjVVGAQk8qXEF3nOnDm5hw4dGlNXVxflyIqEWYfvSG5gFe4Z1DeOHz
; 8+FY0Von5a6Mxat25dL9yzmFXCrS5COgl8+WprayOeP39+/oMPPpgUHx+vFwkg+DI3Nzf3xMAneGLJ
; zexgodw3ZSsbgfMAPLAwrGrLli0DcA9pFIJ7U3q9fuvWrYO+//77s/X19VFqDR0JIS4AQQRWJJGRkc
; I9+5bxpXFxcXpb5zyYdVCQrYFVKSkpRgQTjSC45wIDA/URERE6jsslxAuQa8+ljxVlkXWBnfULQohN
; 4JnkSYsb1THiwCpCPAx0SKWnpxthSaLmqQ/dMrClCA0N1ToqWHLLilIiewOrcI+Fh4frME9dpLuv7f
; W412G9wy0uQpwAAQMnwb/99tsP7969uz05OVnoG4XggYLlo0ePDsPKRKqTyEYQFsopEdnKRnC/Sg8q
; ur179zY9e/bs3LZt2+pEgwisU+7fv7/ryZMnR/v16xfOrTJCVNL6hdSiQ2rhwoXF0pOZUMsKrocR4u
; rVqyt79uwZYeuJjlkH5YysC+wIGFVVVWG452CjI9qmazKZ9E1NTSloL09MTNSzzZcQJ8AXyDK3XC1y
; diQslFOukLWfFu43PKyozR4sB2OZfRDipjDroFwtucOHhJB2xFlbB5HruWVFtaeU+GlZDD7VQrNGQl
; pBjUOqbxTB3kF09gLIycnx27Vr19DBgwdHOhr6RB8rqiNkr90XjR2jRo1KhJVJXl5egEaQqKgow6pV
; qyrfeuutbpjpriHEV8GTFGYuXL16dfXt27ffra2tjRR5ssJTHHyJvv7660NnzpyZEx0drZc7FMisg+
; poWW9ptQ4p058/f37BN998cwyBRKRLC/d7aWlp8J07d7beu3dvZ35+vj/rJMSnQbEQo0PRootRoiLX
; Wpx04YElZTJ6uUI5sw6qs2SdjSAIoJswMTHRgAxCNABgYJWUhRjxneE5EULaEWYdlLvIVjZCCHFDkH
; XgtLAnLTCU94sDqwgRxHIYECm3yWRS5V4KWwfYQyh5PQvllDtLiZ9WZGSkXtR1wQIaSaQtXXxftOzU
; Ih4P6hMocGPmBoqGUp1D8bX4AvTt2zcMBfbLly+vyMrK8pNL/VkopzxJtvy0cG9nZGT4oakERfKamp
; pQka0uvLahoSEOs0pOnz49Ky4ujhGEeDYojI8fPz4NbboFBQVC1g74QqSlpRnRtjh79uxcFMrluqyY
; dVCeJutsBPd2RESEYebMmVnr16+vSUpKMogGkISEBFNLS0tf6fuSwzZf4hXgxjYYDFo1hUNcg60v+l
; hR3ipbfloBAcJHRH7/vnDeOiEOoI8V5U2y9tMixGfA044z9gqi1zLroLxVGGbm6P53JruwfFeZoRC3
; AFtLUuEuBvbVhYWFAbBqEAGpOqxMli9fXoFTuvZubG5ZUb4ge+2+UVFR+rlz5xahTiL6XcPWVmZmpt
; /SpUtLpe9stDN+XIS4hMDAQM2+ffuG//jjj5cRCERbdTG5DV1WsCOprq4OlbupWSinfEm22n3x3aiq
; qgp+/vz5eQydys3NVd7SqPnNh+vNN98s+Mc//vHFwYMHR6utsxDiMpAxBAUFabt27WpE/7poatzqD2
; TIysoKYKGcov4o6wI7znnk5OQEpKamCs/LxXdNCho6dHcFBwfruI1FvAa251KUbVkX2LnwE+IAZh0U
; 9UdxYBXxSLB3CmsEqb6hUQPqJGFhYa+vd/T0xC0ripKXvQJ763krTXR0tE5tfQPf1YiICC2dfolLQO
; EOhbcXL15cWLlyZQ/cYCJI9Q3dlStXVsFeYciQITHSjS0bQehjRVGOJeenhQOI9fX1UbBBOXv27Fx4
; 0GkEQAPM2rVrq588eXJ0wYIFhaJdXoT8CTyJjBw5MmHnzp1DZs2alSsVzIUOeyBgzJgxI+vQoUNjio
; uLQ+RmdjDroCgxWW9p4btVVFRkfv/998eNGTMmSWRYFZAChq6pqSn96NGjExsbG2PZ5ktcAm4kBALY
; kWhUgBsbTzMslFOUa2WdjeC7hsCh9lAvroN/HYMHcWuYdVCU68QCO+l0nLVIUAp9rCjK9cJ3Somflj
; Pfc2QobCMmv4MbAvOZhw4dGlNXVxclMq8D4GYqLy83T5gwIRVDoxy9nlkHRbWfHA2sysnJ8ZszZ06u
; VI80iQYCdHbV1tZGoCaKOT8cWEVe75fCV+fVq1fXUHwTnUEQGRmpO3DgwCh0aWFuh5yVCbesKKrjZG
; tgFeaDYC7PDz/8cPH48eNTY2JiFEcAy2RRFNixVmDNYJ2EvAY3BuwRMjIy/EVvCjyFIOh0797dHBYW
; ZmChnKLcQ7YK7BhY1adPnzAYl4pmENLrMS7XVFpaGsRhVcSlyAUOZh0U1bmyLrCzhkHcHmYdFOU+4s
; AqohqkqmazWYsCuZp9y9bUV6u0wM6sg6LcU47afQMDA7WwHVKTpbSeF3tth8ICu5eAG6Fnz57BV69e
; XX3q1KmZ8MkR+XBxEh0DaC5fvrxi8eLFxV26dJG9mFtWFOX+suWnZSmSw8Lk+vXra/G/og+bcXFxel
; ioXLp0aRnqLNwq8wLwIaakpBjPnz+/4PDhw2Mxt0M0gEyZMiUdN8XEiRPT5bys6GNFUZ4jW+2+6KAc
; O3ZsMrzrZs2alS1qqCgFIMOaNWuqz5w5MycrK8vEAOJFtNqJqLIowI2Am4sDnyjKu2S9pWU0GuGarW
; oLC9dgfYEYPIhDWCinKM+Xo8OHxAdwNuLjepGfwayDorxLHeWnxezEzYDTLYpWffv2DUO3lEYQdF0M
; Hz48Pj093YiT6fY+YGQdOOXqSV8MiqKUyd7AKmxN5eTk+Dc1NcWpGVgFl9/WdSqcp9jdiMLCwgAMbP
; rxxx8v48MRKZLjg5w3b17ezz//fOPjjz9+C75YcgGkcVDNNE/6MlAUJS5bW1pYE2B9cvHixSU//fTT
; 1SVLlpSIFNmxJtXU1IT97W9/+wRrVVFRUQAzETcBnVHShxPar1+/iPDwcOHQjt7v/v37h+fn5wexUE
; 5RFGTtp4W1ITs721RdXR1iNpuFD3pIuxu6vLy8QJiv2ptMSjoB0RqG0utZKKco35V1NtJe6wzxMph1
; UBRlEQdWeTgWOxK1xSfYC6DYrgQOfKIoylpK/LTQhKOmwA6wRYZreY7EheCNhP3ImjVrqk6fPj0LnV
; b4kESuR8EKp0N37NjREBsba3fvklkHRVH2JJeNoJtz//79I1BoLygoEIoiCB6o48JuaevWrYPUdJMS
; GeLi4nQHDx4cfeHChYVSsbuL9GYrfnORuZSWlgbCygQfbnJysj+t1ymKckbW7b6tlkl+WKfQzYlCuW
; A3qFZ60A356KOPFmGwXXh4OAOIKzGZTBrpTdXhjdYI0uqmq5OzKGChnKIoUdkqsKOjMyQkRKvGjRdr
; m3S9TmSHhXQizDooinJWLLB7CSKFJ2YdFEW5Skr9tJxtASY2QLqXkZHh16NHjyA16R+6FsrKygIrKi
; rM6NRy9HpmHRRFtYfsZSOYo47ZRKjJqlnjMIsIa1xmZqaRA6vaIC36GnRJwU5k6tSp6dhHFIm23bp1
; M927d2/ngwcP9uCUqJzFALesKIpqb9ny04JNPILH/fv3d0EosmsEwDRUzCX6+9//fuvYsWOTsWaSVr
; DgFxYWmkaOHJlYUFAQKHrWA73TDQ0NMcOGDUuUsxjgwCeKojpKtgrsUgaiGzp0aGxTU1O8aKEcGUdk
; ZGQAru3Vq1e40jNtRCH4gGyldcw6KIrqLFn7aXHryYNgoZyiqM4WB1a5AGxLOdPfjOuxD6hke4tZB0
; VR7iZH7b7ITrDGOZOlYI31uiwHf6FRo0YlXr58eUVjY2OsaI0jKChIu2/fvuE4oZmbm+tvLxDRx4qi
; KHcV1iZbflqoA8P+ZPfu3Y2bN2+uFX3YxvX19fVRKLCPHj060asGViGqvvPOO73v3Lmztbm5uSdOhS
; u9FrUNtK8dP3586uPHj4/U1tZGynVZMeugKMrdhS0tDKdru3ZhTYNN09OnT08cOXJkfGxsrFAEwAn2
; xYsXlz169OjwihUrKrzuNDsGqISGhuqQTYhGRwQR2JDAyoQDnyiK8gZZt/ui1TcsLEwneozBskbCCg
; VrJEbnaogyWCinKMpTxQJ7J8Gsg6Iob5HP+2nhMF9ycrIhPT3dqKaAExUVpSssLAxQkn4x66Aoytvk
; aGAVDg92797dLFJDtoA1OS4uzi8jI8OImrRb+WrhLzZnzpzcH3744eLRo0cnRkZG6kV+Qcz7QJH8b3
; /72ydLliwpsXfKklkHRVHeLFvZCOoib7/9dhnW2JMnT84QmReCtVhak1+vsS9fvrw0b968PLc7yZ6V
; leU3f/78/IEDB0ai4C1yLf4ylZWVQfiLST/HbCuD4ZYVRVG+IusCO9bEzMxMEx6wq6urQ+U6UeXAEL
; 6ampoEBCHsFGncEZz3UHuIBdfJzQKmjxVFUb4mW35azsxLd2Z99kiYdVAU5evymgI7Ih9SJ7VRDFtV
; SlMvFsopiqJ+k5J2X6zLztpFtUuGgsCRl5cXsGbNmqrFixcXo4Ajkkbhl2poaIjesWNHA6xMUBCy93
; pmHRRFUX+WXDaC7tU+ffp02b59e/3gwYMjRQIB1nIcYFywYEHhtm3b6nJzcwM0rgR/AH6pb7/99sNz
; 587NS01NNYoEEClgaNavX1/z5MmTo0uXLi0NCQnR2bqePlYURVH2ZWtgFU6gr1q1qhJrNIIAjlUoBc
; EmJibGcPbs2bkYdjVo0KBIl7f5YusJIxkjIyMNODKvEQTbV6j+yw18gjeMJ32IFEVRnSW5gVWZmZl+
; oh1aQAoiWqzNoaGhWo8yYmShnKIoSp2sB1b5FCyUUxRFOSe38NNC2gILYZxYVJPCYIsqMTHRoCQFYt
; ZBURTlWtlr90WdA2MxsEar2eLCFll0dLQOMcLm+l5UVBTw2WefbUIRBv8sUkTBD1y2bFl3HLPfu3dv
; k/SL6uW6AFgopyiKah/Z8tNqtTLRo0PrxYsXFxYtWlQs0qWF1xYXF5sePHiw5/r162urqqqC/xQf4u
; Pj9Tgmj6PuXbt29RNt0y0rKzNv3Lix39ChQxPlDBGZdVAURbW/rLMRHJ1oampKRKdWt27dzKJtvtLO
; knHMmDGpb731VreUlBSDzfjgzEES/EC5o/LcsqIoiupYWbf7WtZnj7JCYaGcoiiqc+RWA6tEiuvMOi
; iKotxDSvy0LGaN7QIGPqFQ/sYbb0Rivrm9NIhZB0VRlHvJXjaCIVMTJkxIRY0kJibGtVEEUQmB4+7d
; u9uvXr26uqCgwCQXQJh1UBRFua+ssxGs5fC/unnz5gZ0WknF8iQ1rb52MZvNmoyMDL/o6GgDBz5RFE
; V5rqwL7AgYWNsxkhzehR0KBz5RFEV5ljq9wM6sg6IoyrPlMj8tFMphC6ykEs9COUVRlHfIUTaCLS5Y
; odicBYV/0bNnz2AcU79x48a6kpISs1wQYdZBURTlnbLV7ovgUVhYaLp161YLCu1lZWWBfwoicXFx+l
; 27dg1tbm7uGRsb6yd3opw+VhRFUd4rrPFt/bQQC+Lj440YCohhVbJtvpinKzdTl1kHRVGU7whD/tru
; Uvn5+YkPm+KWFUVRlG/K1vhcoeDBQjlFUZTvSrjdl1kHRVEU1VZK/LR+Z8yQAQwgFEVR1OssRCiAgP
; ystL4PPj7iUX9RiqIoynVC8MjJSO2rUUN4aHDqjrWLH3rSX5iiKIpyTk+uHv9f4axDjl7lxdOe3jjl
; UW8ARVEUJS5kHQN6V7QoDhDo7zWZTJqgoCCt3NhCZiMURVHerQOblv8aEmROtRUDEBvCwsK0fn5+fx
; yNm5WV5Xfp0qVlx48fn1pcXBxob/YtC+wURVHeJUeFcsSE7Oxs/0OHDo3ZuHFjv4iIiP9PNpKSkgw4
; pv7hhx9OUTKRCq2+V47t+NWT3iCKoijqz7p0dNuvbe1L5IAvVkFBgbmhoSG6qakpbvDgwZGv/wPSEY
; uVib1xtdbwvAhFUZRnSrRQbpmbLmUf+qVLl5Y+ffr0hMZZ2O5LURTlWRIplCNoSLUPXffu3c2ogSCQ
; SPVy3bBhw5I1roAFdoqiKPcXso4tK+c/lCuUWwMTxZycnICtW7cO2rNnz7CKigozah+tu1bKtqtCQ0
; O1vXr1CunTp09EYGCg7EUssFMURbmnkHU0De7bolGIv7+/Vlrzw95///1xy5Yt6x4dHa3Dv5Pq5Lq0
; tDRjQkKCY3teRJv6+vqoV69eXcPQqdTUVIO9Li3ODaEoinIv2WvPtQUyjKioKD2yDgjBIzg4WDdkyJ
; CYO3fubH306NHhzz77bJOiHyZdqK2srAzC5EJkIEoK7VNHD2E2QlEU1YlSe6IcSQIyjaNHj0588eLF
; hXXr1vU6ePDg6C+++GLb5MmT03Jzc01r1qypEvqhIh1agAV2iqKozhG2rCpK8qcpWasthfKioiITyh
; UlJSUmHCzHHPTFixcXv/vuuwPReZWSkmJAO6+USOgaGxsTNe0NC+wURVEdJ2QdK+dPOaV0ywp1DRwg
; f++99wZfuXJl1V/+8pf5X3755f7du3c3duvWzST999dnQHAC3Ww2a/Pz803jx49PPXz48NjXP6B1ZC
; F+kMZefUMOXI+tLZPJJJui0E+LoiiqfSXqYyUFBpQnghEMsE2VmJhoiI+P95s6dWr6999/f3bXrl1D
; kYlYzoCglRcdWchKpNfqXy/+Xbt2Ne7bt2/4hQsXFuJUukYABJwpU6akwwrl7bffLpNSHr3cVhezEY
; qiqPaRkkI5Mom2SQLq283NzT0fPHiwp7CwMCAkJATnO2I//vjjt7BtheCBVl4pqOhx0BxBBNtaSDZ+
; B/ta8MH64IMPJuXl5fmLZCH4hUaOHJl47dq15i1btgyQfrjOUa2E7b4URVGukSMfK2nR14aGhurRTb
; ty5coeaMlFooB1HttXUi0j9tmzZ+c++uijRYgBCB4DBw7sgiCBA4NvvPFGJBIM1EZsru2tP+j1NhQC
; giiISrgW0UrpNfTToiiKck7wsZIb+ITFXiorGIYMGZJ88uTJGefOnZuHOgfqG//+97+fTJs2LQNlBx
; TPhw8fHo8k4Ndff320YsWKisjISF1qaqqfFEhiTpw4MR1ZiZSdiHVRdQTNC6ed8qQPjKIoqrPlqD0X
; WYe07WRuaWnpD5PcqqqqYGw9YRsqJibGgG2rf/3rX1+eOXNmDgx0EUgKCgoCEGB++OGHizjncfXq1d
; XHjh2bXFRUFPCHLSu1iLbxKr2W7b4URVHK5KhQDouRurq6zE8++WQptqu6dOmia1uWwFqMravevXuH
; Y+sKh8SxvRUQEKBFllFeXm6WyhIJsC3B/1fTWPUH0KHVr1+/iNzcXH9scYkEErwWBlyo9CcnJxsRGW
; 29jgV2iqIo+3JUKMd6i4L3hg0b+vznP/95evny5RVxcXE2LUdQeoiOjtbDquSXX365OXHixFT8O8v6
; 7kzC8DuIPohGSGlu3ry5AZV6kYgkRTUN2r5+/vnnG6jqo+pv7/UssFMURf1RyDomjahr0SgA6zOsR2
; bNmpWN7agff/zxMmZ42Fq3kYlgrsfXX399CK9HAHEpiEKxsbG6QYMGdZGykHDRQgqux+nGSZMmdZUq
; /0YlUY1+WhRFUb/p1O71igY+tV1zESzQ1NS3b98w1Dn++c9/Pti7d29TWzNc7AZlZ2cHwOvq7Nmzc6
; X12cXRow0WC9+OhH5aFEX5qkR8rLA2o4YhZR4GtOhGRUXBOfd1+QHn/NBZ9Y9//OMLZBplZWWBsCKR
; /n0w/KwQWPAap2sd7ggL7BRF+ZpETpRj4ZcChmHmzJlZ58+fX/D48eMjX3311YE5c+bkYvcI21IYyY
; HzHrdu3Wr5n//5n3s474HaB3aGsN3VqcEDv6DoONy2WI7Jy+2/scBOUZQvSHTgE7ahkHHA6BABAQcA
; Mbd8/fr1NQgisCiB/QiyEWQoaNWFZQkCTWsmoulUELlqampC8csvXLiwSOQwITCZTBpU/3ESXir0xO
; DYvNxr6adFUZS3SnTgE9beioqKYFiu4/R4VlaWH/4dhNkdqFv/9a9/XX/37t3tY8aMSUL9Gg/paGxC
; QHF5wVwN+GWampriMFwE7o2iRXa0+G7evLn24cOHe8ePH5+CAy32MhlmIxRFeZtEBz4BHKmA7TpOiq
; PLFTYlWE8t/x0P42lpaX4HDhwYhSAyY8aMLNRE3A5EMwQOtdtY+EvheqRYSvfi2O5LUZSny5GPVVss
; c8jReovDgbBWx5qLLazVq1dXfvfdd6dPnTo1ExbslnUYWQayEWxj4XyIW2Qd7gIK7PTToijKE4XgIe
; djZQ2yDakgboB/Fdpu7927txOZB6bEIohIRXIddoJw+vz+/fu7pk+fntk22+joDlq3gxbxFEV5g0TH
; zCLjkLIK886dO4ds3769Hmc7MJscBomwIlm1alUlshHs4OTn5wfgwDZGz2LMBoKLR4OFH9GxtLQ0EF
; bvou1iuB7FIekNDLRXoEeBne2+FEW5s0QHPmHLKScnx4RgsXbt2mpLIRyBISUlxQivK5w2h9Nuamrq
; 63GzWCex3uIsiMdnHvgLbdq0qf9PP/10FcVyREqR6zMyMow3btxY91//9V8nhw0bFm+vS4vZCEVR7i
; qRQjmCBBqKsH7CSReZBlpzERQsr0FwQEBB8xG2tDZu3NjP4prrNVtWeCOKi4tNaPFFFoE0S+R6dHmN
; GjUqET4tljY1R7DATlGUu0i0UA67ETjh4sEbXVY46Ifs48WLFxdwXALnNyzOICiqFxQUBKGVF2Novb
; JIbjkoqDYq4s0SfWM4sIqiqM4WBj6J+FihYwrO5du2bauDzQgGO7WeJNfhLAeOO0Aopkv4SVtVQTgs
; iFPmmPfh88VyV0M/LYqiOlqihXKAzAOHqjGfHHYkGCFrmRBrmeEh1UP8jxw5Mv758+fnMfDp0KFDY6
; TCub9LBj55Kq2pmEatHwveZHujeOmnRVFUR0mkUN529gYyDammoR89enQybEjQjltbW4vZ5L+nFVgj
; UUdGwbxr164G/LNXmiAqBQs/DL2wh4caiehMdqRtW7ZsGbB8+fJynLpkuy9FUZ0hUR8rNAQlJiYa+v
; btGy7VeZPQOYUaMf59YWFhEEbRPn369ETrVpae21M2wICpHTt2NKCLYN68eXmiXlopKSmGTz/9dDm6
; tFBwcvQmo8BOPy2KolwpER+r1qMNetQtUL/46KOPFsHcEMEC5zykoGJEcTwqKso4e/bsnG+//fZDeF
; 1JD8hGBhEr8IZ06dJFm5ycbICxoihI33BEH7bFSn1eOLCKoihXyV57rmW4U9v/jzGy2DGBpTqmAaIV
; Ny4uzjBixIj4b7755tjt27ffxbxyZCLSmqgrLy8PwcwOtPN6/MFAb4LtvhRFqZWjQrkUOFCrCJZqGo
; mW4wsIJvClwojwYcOGxVrqG5YieW5ubgDsSFAkR9eVpTaM/6WPlRvCAjtFUaLCllVFSf40e2sLFv2R
; I0cmYCb55MmT0yzNPlKtw4wC+fXr19dWVlYGtd05QdZRUVERdOXKlVXvvPNOb5yDI07QOiBen5CQ8P
; qYvugeIK6Hc6W0zYXrbV7MAjtFUUqErGPl/CmnlKw9yBhgN4JZR5gEiIPQloOCb7zxRiRmlePfo/Yb
; ERGBLXgtzoFgLtKxY8cm5+Xl+ft0h5Wz4M2WCkr606dPz4JVMbq1RPYAcT0i/MuXLy+h0I4ilL0PhA
; OrKIqSk6iPFcB6VV9fHwUrkg0bNvSxZBt4GEaAQIcVshFsWy1YsKAYJ84XL15cjHWPW1YuAF1a6FbA
; sBQ4TYpEZAQQaQ/yteEYnCnR4eUog2E2QlGUtewVylHrQLE7LCxMj1qH9RqDdQcjZ9Fl1adPn7C2gQ
; EDoDCGFj5XCB6wKREdykccYNm6csYKxeIdoxQW2CmKUuJjJW2xG9Elhe2os2fPzh03blwyLEiwJYVg
; AeG8B1px8d+TkpL+cKbD8hrLOkW8BPppUZTvCj5WSgY+YZsqMzPTb+zYscmYCAh7dWy5w88Kg52k+q
; sROykwhUV3FYxl3XK0rK9i6bV2NkORA08gnnTjUxSlXnLtuY7WGIsFuxRMjKjXYgDU119/fQhnO3Cq
; HMEE88nhdQVPKx4KdAOw54iU8e233y6T9hOFB6jAah6HekaOHJmIpwS517Hdl6K8X3KFcnRwSrWKeB
; S9UfzWOADBBrUPdID269cvHJnJ3bt3t7969erakydPjqLuwSK5G5Cdne2HgVM47i8VoMwie4iorSD4
; IK3EEwKG09sLQCywU5T3Sq5QjjUBTheYQf7999+fnTlzZpaoZx/Oc8TFxekx5wND8gIDAzXEDcD+Ix
; Z+fDj4Z9EMBDbI8NXHz1AafFhgpyjvEbKOSSPqWux955EtwAE3PT3diDWD20/EKeinRVGer1O71yse
; M0uIy+HAKoryPKkZ+ER8EKSaUVFRelgFqOmxxsAWFMLwv3JpKwvsFOU5slUot8wXl2odetGREgBrS0
; xMjA7SEO8AN0XPnj2D0f3w17/+dT32L0WCCHq1cToU4yXXrVvXS7qxZC9mgZ2i3Fv2Bj5JRW0d3C7Q
; cotT4SJFcqwzWFswYvbzzz/fDJ8rHgj0AvAhYuAUPGhwUyQkJAhN9cJr6+rqomFsBjsVJXOH6adFUe
; 4nRwOfEDBgr44ZHfCuEl0n0IQDD6vVq1dX5uTk+DGAeAmWeeuibXcWcCOIugAzG6Eo95E9HytrLJYi
; asA6oaYTlBCbsN2XojpPSnysCHEaVzwx2Cuw00+LojpWCB7WPlbOGLI6+p4THwQ3A2ok06ZNy8K8YY
; yUFLlBkOpmZ2f74zR7UVGRSW6bDFtazQunnfKkLyBFeaLs+VhJNdBAjJeVvrPCYyHgcQX7kZkzZ+bE
; x8frGUjI71Ym6LzAQBcU2UWuh3cWbJzhbzN37tw83GT2biy2+1JU+0nOx6p13rgGnnd///vfb+3Zs2
; eYaKsuggbGzKIjE+NplTTUEC8HN1Z4eLgW5mjJyckGUXOzVo8cfUFBQUBcXJxOyfUssFOU6+WoUN46
; 2lov7RQE4KyGmkI5HjDLy8vN0s9h+kE6FxbYKcp5sVBOfBYOrKIo9cLAJ3yHNIS4K9iWwgl00QK7BY
; y1DAkJ0cEmQe419NOiKOWSK5RL31Vt63dVIwq+25gtBMsizukgLgH7pBMmTEh9+PDhXliawNNfhNDQ
; UN2+ffuGX79+fW19fX20vTGWLLBTlGPJFcrxXa2srAzDXPIdO3Y0iBbJAwMDtVu2bBlw7969nejUYh
; AhToMFH742J0+enIF5x7jJlF6LJ5qwsDAtOj/+8pe/zMdUMkc3JQvsFGVb9nysADoqBw8eHInJfy0t
; LX2lhzehAILMY+rUqelnzpyZ09TUFIcT5YQ4DRZ9i9RsYVlaCEW6PlBgp58WRf0mRz5Wbb+rCASi1k
; OW7ym+o/iuMvsgHg+Kgwc3r3joSV90inK1RHysCPFI8OTizMlUe9ey3ZfyRckVyp2xI7FkGYS4Damp
; qf7YO8XQKRXz2LVVVVWRvXr1iggPD5e9s1lgp3xJcj5W0vdF17179+AhQ4YkiNQjLdcnJiYacIo8Ly
; 9PrBuGkPYAnR779+8f8ezZs3Nr1qypgpWJyPW5ubn+t2/ffvfly5eXqqurQ+w9HbHATnm7kHWsnD/l
; lK37H98N6UErBFYk+M7guyOSTaA2goaWFy9eXDhw4MAoNVMHCXEpKLZJGYihrq4uKjo6WtgeAdeXl5
; cH9e7dOxy+WkoyGA6sorxRcu25bcGZqpKSEjMetkTnbuC7CT+rPn36hGF6IAvlxG1or/qHHMxGKG+S
; aKG8o79vhHglLLBTniz6WBHiANgj4AS7micfpN04zGjPJp5+WpQnCj5WtgrlsPzB98Wea4McuB61Dt
; ECOyFuCeoaGzduHAQrExQAReay48uQlZXld+nSpWUo+iUlJdm9GE9ynrSAUL4pe+25ERERhm3bttVh
; 7gZGLIjUFPHdamhoiP7444/fws+QfhaDCPFscBOvWrWq8sKFCwsHDhwYKVK4wxcKnSawZnj//ffHST
; /L4beJ7b6UO8teoRz3e0xMjP7EiRPTcc8XFxebRIvkFRUVIZcvX14B3zrM+dEQ4sm0jsIUtjJpez2u
; FbFmYIGdcjch61BaKMdDFraw1B74w7Vs0SXESVhgp9xBSn2sCCEqcLat0J61AwrsJ3aue+hJCw7lPT
; q1e/2fsg5XtNHSjoQQCRyGwozmqqqqYHudVnJgn7eysjJI2i8O5MAqyl0kVyjHwp+cnGzCYT7Yiojc
; 73gttqZwbWFhoQkNKhpCfBV8ITIyMozXrl1rfv78+fnq6upQkS8U6iLw9fnll19uYt5IQkKC3t71LL
; BTHSG5QjnuzdjYWP358+cX/Pvf/36ya9euoSJBANdjpg5sf+7fv78rJyfHj4cCiU+DJ6ry8nKzlEUE
; 47yIyLX48kRFRekGDRrUpXfv3qFKBuCwwE61lxwNfAI42zFw4MAu06ZNy0CXlehZD2TpGBqF+52Fck
; JcgBp7a/ppUa6UEh+rtverM+MPnLFzJ4S4CGYjlCvEgU+EuDE4B4LtLTVPXaiT4Fp7J+DZ7kupkZyP
; FbILWImomSneem5Kq8bGhBDShtYBOHqcQj948OBoDKwStXYYOnRoDOaVzJgxI0v6UtsdWEU/LUqpbP
; lYAditNzU1JV+8eHHJO++801t0Pg5qeocPHx67b9++4ZmZmeIRiBDyGziRixZfdFjBCiUnJ8dftO1x
; +vTpmV9++eX+9957bzAyGUc0L5x2ypMWMqpjJdeeawGnwHGvYcAaLEliYmIUT+m0eL+dO3du3ieffL
; K0R48eQTzvQYgT4AuEL6VaN19kIaGhoULbCWz3pWxJaaEc9yo8rUJCQrSiAcCy/aXmWkKIm8ACO9VW
; LJQT4qW0Z0sjC+y+LWQdk0bUtWhcfN+xDZcQNwDbU7B1QPFRdMYztrdQmM/OzvaPjY01cGAV1VYolO
; Ozb3svtA5s0ufn5wegwQNO0yLgHoWFSUlJSSAPAhLSiaCugVO5jx49Onz79u13MXBK5MlOWgg0e/fu
; bfrv//7vO0uXLi11FIDop+UbslcoR3vtypUre/zrX//68tatWy3x8fF6kSJ5165djTdu3FiHxo4JEy
; aksl2XkE4CRUY8BcIWorGxMVa07x4Bo1evXqGzZ8/OSUtLUzS8hwV275ajQjnukYSEBAOGpOG+QwYs
; 8tCCexT36pQpU9JTU1MN3MoipJPp6G4VFti9T0p8rKxxZvFnhxUhPs7QAb1b6Kfl+eLAJ0KITVAoh9
; Sa1+E6zBmRe2JENnJw84qHnrRgUv8vW+25uE/U3jMWo0RcL9rUQQhxI/BlxrCpbdu21Y0ePTpRtGDp
; 7++vnTVrVvbGjRv7lZaWmu1tO7Dd17Nkz8dKqoeZd+7cOQQ1jrCwMKEIAt81XId7rrCwMIBBhBAPBV
; 9edLo8efLk6Lp163rhhK/I9bChOHbs2OR79+7tbGhoiLZnyAhYYPec4GHLxwqgyD1u3Ljkx48fH8Fn
; HxcXJ1SsgF3O5s2ba7/77rvTsNHBqXRCiIeCPn3YQjha/G2BDEYKOprIyEid0g4vFtjdV458rCwgCC
; Bw4JyGmm1PGCrinjGbzWyxIoSIw4FV7iWRgU+EENIh2JsOx2zEPUQfK0JIu4Btim7dupmw3SC6XYGi
; fEJCglGSn725Dyywd47kCuVSbUwbHR1tyMnJ8RM9fIp7BFuiuGekbSo9z3MQ4qMgaOzatWvo8+fPzz
; c3N/cUqZNgIUlKStJfu3at+auvvjrQv3//cHvX00+rY2XLxwqgsaK6ujoM9jf47ERPg6MoDiuTV69e
; XduzZ88wUS8sQoiXgMVAWkxCWlpa+vbo0SNYtOUSiwc6bTB5TnqiVfQoiidiT1qIPU1KCuUpKSkGPD
; AsXry4ODg4WCjzxENCaWlp4OrVqysHDhzYhV5WhPgwloNfam0p7NVA5GC7b/tIpFBu+dzV4Ow9Qwgh
; TsECu+ukxseKEELaHRRZ1Z4mtlha2KuNoMDOdl/1kvOxsrz3arMMXCtaYCeEkN9BkX3SpEldYWUiFV
; uNIoEE2xuxsbH6N998swB77VFRUbIXo9h7Yue6h560cLuD5Npzg4KC9NLnloViN2aTi2w14TPOycnx
; 37RpU/8xY8Yk8SQ5IUQYLDrwQYKdBTp24G8kGkDKysoC0aF1//79XQhAjq7hwCplclQoT09PN2JgEy
; xoSkpKTFrBeR3jx49PwWd+4MCBUaJeWIQQ8hosPPDDysjIMKrZCmkdX6pPTk42KN0OYYHdvrBlVVGS
; P83ee4jtJ1iJYPqfGgsbfFaZmZlGKYPUsVBOCPEoWGD/s5B1rJw/5RQL5YQQogD6af0m+lgRQrwObI
; +gSAup2SrBthgK7ZIM9gZW+XI2IjfwCYXyiIgInZqBT3DLjYuL08fHxxvYaUUI6XCwEEl77IYzZ87M
; efr06YmamppQkToJrh88eHDks2fPzh09enSiVCuxa6nha35acj5Wrc0Nun379g2HBU1tbW2ESBDBZ4
; RrUCT/6KOPFolamRBCiNNg0YF9CSYWLlu2rDtaP0UCCF7bvXv3ILQIL1q06LWlhqNrfMVPCz5WcgOf
; AAaD4T3H4KaioqIA0cCdkpJihH3NkiVLSkQHRhFCiMtAp5UzNihqZmd7q5+W0oFPAEHDWSsSbl8RQn
; wSb2v3ZaGcEEKssDwpq8lScI29DMdbCuxyhXK12R3NDgkhHg+svmGFMm7cuGTs24sWe7Ozs804Ad+n
; T5/wgIAArxtYhaxj0oi6Fuu/DwY+5ebmBk+dOjW9oqLCLLrFBwsa2OzjRDnmmxNCiEeBANCzZ89g2J
; jAzgQzJET27LFowkfr559/vnHhwoWFXbp0sXuxp/lpndq9XnbMLCb+HTlyZPzLly8v4T0QCQII0t26
; dQuEjQnsTDA5kFMDCSEeBwZOwQZFkp+agi06s/AEDlsOpde4u5+W0kJ5QkKCvrCwMAAjh0W3ovBeY2
; gU3nuaIRJCiADuWmBnoZwQQjwAdyqwc+ATIYS4GJwBwZwQ7Pmr2aeXtsi0OJVtr8De2X5acgOfpL/7
; 698dW1Sif3e8PjQ0VCvVhfQ8y0EI8TksJ9Fv37797sWLF5fAE0tkrx+F5VWrVlU+fvz4CAZW2Ss0d1
; Y2IjfwCYFz8uTJWU+ePDm6evXqSnRNaRSC9wgW+WfPnp1769atlj59+oQxiBBCfAoEkJycHL/Dhw+P
; 3b17d6PIIgqwCE+bNi3z3Llz88aOHZuipNW1o9p95Xys2v7udXV1UefPn18wZ86cXNEAgOxjw4YNfe
; CHhe42tSOHCSHEY0EQQeag9sAbrsdZE5HrUWBvTz8tBA97PlbWv7vaFluLFQkPCxJCSAfSHltaIj5W
; hBBCOgA8YTvzlG3vCd9V7b5y7bnO/O4WOxIeAiSEEEGwgCYlJRmGDh0aW1xcbBLd58f1JSUlpmHDhs
; UlJycb28tPS87HKiwszNjY2Bifn58fIDpsC1tTPXr0CGpqaorHgUAGEUIIEQCL5owZM7IwcOrYsWOT
; UTgWuT4mJkaHTiVcDz8tR4u4aIHdXqEcf9bs2bNzYEWCgVsiJ+kBbFuOHz8+9cWLFxcwbwUn+gkhhC
; ikNQPRl5eXm9U8heP1mZmZfvDjQturkq0kpQOrMPAJr9XY+d3j4+P11dXVIeg0E82e8PrU1FRjZWVl
; ECxNWCgnhBAPQc5Pi4VyQgghDrEusNPHihBCvAhs9QQHB+vUnMTGFhdmlJjNZp3cFpOlwG7Lx6r1ep
; 3onBOA1/v7+2tbf3ctt6gIIaQDwaKPIvvVq1dXKymStwULtlRbMGLmxqlTp2bW1NSEiVyP4JGXlxeE
; a/fs2TMsOjpaqM0KBwhRZL9y5coqDNwS7dIihBDiBDAhxMS9mzdvbkAAkTIBxdciAMB769ChQ2MePn
; y4F8VqjQAIQFVVVcHw8UIAkX6WTiSLwIwOTGn89NNPl6PLStTGhRBCiJNg6wpWKGq2sFq3kTTODFxC
; 0BK1UrGA3xnXMvsghBBCCCHEW7DYgThjJ+KsFQkL5IQQ4mGgyJ6dnW0aOHBgLAY3iR5ERHdUQUFBUE
; VFRRjqLSLX4s/CafJBgwbFSr+DmVYkhBDiIeCpH1YmsBH56aefrjY3N/dEvUGEnJwc/+fPn5/HwKq8
; vDx/kWvxZ61cubLHDz/8cBF2KggmGkIIIZ4BitRFRUUB6NAS9aIC8J/C0KfRo0cnigYfgD9z4sSJqb
; BS4cAnQgghhBBCCCGEEKIC1ElQKMc5EDVFblwjbXNp8TM0hBBCfAdp8dctXbq0+8WLF5egYC7Sbovg
; UVZWFnj+/PkFa9eu7YUiOdt1ia/yf/KPvo5HTaljAAAAAElFTkSuQmCC
; thumbnail end
;
; TODO: check the size of the extruder and the y-bar clearance. Optimize & test supports.

; external perimeters extrusion width = 0.93mm
; perimeters extrusion width = 0.93mm
; infill extrusion width = 0.93mm
; solid infill extrusion width = 0.93mm
; top infill extrusion width = 0.93mm
; first layer extrusion width = 0.93mm

; object:{"name":"250x250x0_25","id":"250x250x0_25.stl id:0 copy 0","object_center":[150.000000,150.000000,0.000000],"boundingbox_center":[150.000000,150.000000,0.125000],"boundingbox_size":[250.000000,250.000000,0.250000]}
EXCLUDE_OBJECT_DEFINE NAME=250x250x0_25_stl_id_0_copy_0 CENTER=150.000000,150.000000 POLYGON=[[25.00,25.00],[275.00,25.00],[275.00,275.00],[25.00,275.00],[25.00,25.00]]
; plater:{"center":[150.000000,150.000000,0.000000],"boundingbox_center":[150.000000,150.000000,0.125000],"boundingbox_size":[250.000000,250.000000,0.250000]}

M73 P0 R41
M107
;TYPE:Custom
; M190 S0
; M109 S0 ; uncomment to remove set&wait temp gcode added automatically after this start gcode
print_start EXTRUDER=260 BED=100 CHAMBER=45
M107
G21 ; set units to millimeters
G90 ; use absolute coordinates
M83 ; use relative distances for extrusion
M104 S260 ; set temperature
M109 S260 ; set temperature and wait for it to be reached
M190 S100 ; set bed temperature and wait for it to be reached
;LAYER_CHANGE
;Z:0.25
;HEIGHT:0.25
;BEFORE_LAYER_CHANGE
;0.25


G1 Z0.25 F18000
;AFTER_LAYER_CHANGE
;0.25
G92 E0
M73 P0 R40
G1 E-0.75 F3000
G1 Z0.75 F18000
M204 S1000
G1 X23.184 Y22.29
G1 Z0.25
G1 E0.75 F1800
;TYPE:Skirt
;WIDTH:0.856
M107
G1 X22.093 Y23.511 E0.13655
G1 X21.699 Y25.1 E0.13655
G1 X21.699 Y274.9 E20.83196
M73 P1 R40
G1 X22.29 Y276.816 E0.16722
G1 X23.511 Y277.907 E0.13655
G1 X25.1 Y278.301 E0.13655
G1 X274.9 Y278.301 E20.83196
G1 X276.816 Y277.71 E0.16722
G1 X277.907 Y276.489 E0.13655
G1 X278.301 Y274.9 E0.13655
G1 X278.301 Y25.1 E20.83196
G1 X277.71 Y23.184 E0.16722
G1 X276.489 Y22.093 E0.13655
G1 X274.9 Y21.699 E0.13655
G1 X25.1 Y21.699 E20.83196
M73 P2 R40
G1 X23.184 Y22.29 E0.16722
M107
G1 E-0.75 F3000
M204 S1500
G1 Z0.75 F18000
; printing object 250x250x0_25.stl id:0 copy 0
EXCLUDE_OBJECT_START NAME=250x250x0_25_stl_id_0_copy_0
M204 S1000
G1 X25.564 Y25.564
G1 Z0.25
G1 E0.75 F1800
;TYPE:External perimeter
;WIDTH:0.928
M107
G1 X274.436 Y25.564 E22.61701
G1 X274.436 Y274.436 E22.61701
M73 P2 R39
G1 X25.564 Y274.436 E22.61701
M73 P3 R39
G1 X25.564 Y25.564 E22.61701
M107
;WIPE_START
M204 S1500
G1 X26.257 Y25.964 F18000
;WIPE_END
M204 S1000
G1 X26.438 Y26.438
;TYPE:Internal perimeter
M107
G1 F1800
G1 X273.562 Y26.438 E22.45809
G1 X273.562 Y273.562 E22.45809
M73 P4 R39
G1 X26.438 Y273.562 E22.45809
G1 X26.438 Y26.438 E22.45809
M107
G1 X27.313 Y27.313 F18000
M107
G1 F1800
G1 X272.687 Y27.313 E22.29917
M73 P5 R39
G1 X272.687 Y272.687 E22.29917
M73 P5 R38
G1 X27.313 Y272.687 E22.29917
G1 X27.313 Y27.313 E22.29917
M107
M73 P6 R38
G1 X28.187 Y28.187 F18000
M107
G1 F1800
G1 X271.813 Y28.187 E22.14025
G1 X271.813 Y271.813 E22.14025
G1 X28.187 Y271.813 E22.14025
M73 P7 R38
G1 X28.187 Y28.187 E22.14025
M107
G1 X29.061 Y29.061 F18000
M107
G1 F1800
G1 X270.939 Y29.061 E21.98134
M73 P7 R37
G1 X270.939 Y270.939 E21.98134
M73 P8 R37
G1 X29.061 Y270.939 E21.98134
G1 X29.061 Y29.061 E21.98134
M107
G1 X29.936 Y29.936 F18000
M107
G1 F1800
G1 X270.064 Y29.936 E21.82242
M73 P9 R37
G1 X270.064 Y270.064 E21.82242
G1 X29.936 Y270.064 E21.82242
G1 X29.936 Y29.936 E21.82242
M107
M73 P10 R36
G1 E-0.75 F3000
M204 S1500
G1 Z0.75 F18000
M204 S1000
G1 X30.242 Y32.009
G1 Z0.25
G1 E0.75 F1800
;TYPE:Solid infill
;WIDTH:0.92598
M107
G1 X32.009 Y30.242 E0.22665
M107
G1 X33.246 Y30.242 F18000
M107
G1 F1800
G1 X30.242 Y33.246 E0.38523
M107
G1 X30.242 Y34.482 F18000
M107
G1 F1800
G1 X34.482 Y30.242 E0.5438
M107
G1 X35.719 Y30.242 F18000
M107
G1 F1800
G1 X30.242 Y35.719 E0.70237
M107
G1 X30.242 Y36.955 F18000
M107
G1 F1800
G1 X36.955 Y30.242 E0.86094
M107
G1 X38.192 Y30.242 F18000
M107
G1 F1800
G1 X30.242 Y38.192 E1.01952
M107
G1 X30.242 Y39.428 F18000
M107
G1 F1800
G1 X39.428 Y30.242 E1.17809
M107
G1 X40.665 Y30.242 F18000
M107
G1 F1800
G1 X30.242 Y40.665 E1.33666
M107
G1 X30.242 Y41.901 F18000
M107
G1 F1800
G1 X41.901 Y30.242 E1.49523
M107
G1 X43.138 Y30.242 F18000
M107
G1 F1800
G1 X30.242 Y43.138 E1.65381
M107
G1 X30.242 Y44.374 F18000
M107
G1 F1800
G1 X44.374 Y30.242 E1.81238
M107
G1 X45.611 Y30.242 F18000
M107
G1 F1800
G1 X30.242 Y45.611 E1.97095
M107
G1 X30.242 Y46.847 F18000
M107
G1 F1800
G1 X46.847 Y30.242 E2.12952
M107
G1 X48.084 Y30.242 F18000
M107
G1 F1800
G1 X30.242 Y48.084 E2.2881
M107
G1 X30.242 Y49.32 F18000
M107
G1 F1800
G1 X49.32 Y30.242 E2.44667
M107
G1 X50.557 Y30.242 F18000
M107
G1 F1800
G1 X30.242 Y50.557 E2.60524
M107
G1 X30.242 Y51.793 F18000
M107
G1 F1800
G1 X51.793 Y30.242 E2.76381
M107
G1 X53.03 Y30.242 F18000
M107
G1 F1800
G1 X30.242 Y53.03 E2.92238
M107
G1 X30.242 Y54.266 F18000
M107
G1 F1800
G1 X54.266 Y30.242 E3.08096
M107
G1 X55.503 Y30.242 F18000
M107
G1 F1800
G1 X30.242 Y55.503 E3.23953
M107
G1 X30.242 Y56.739 F18000
M107
G1 F1800
G1 X56.739 Y30.242 E3.3981
M107
G1 X57.976 Y30.242 F18000
M107
G1 F1800
G1 X30.242 Y57.976 E3.55667
M107
G1 X30.242 Y59.213 F18000
M107
G1 F1800
G1 X59.213 Y30.242 E3.71525
M107
G1 X60.449 Y30.242 F18000
M107
G1 F1800
G1 X30.242 Y60.449 E3.87382
M107
M73 P11 R36
G1 X30.242 Y61.686 F18000
M107
G1 F1800
G1 X61.686 Y30.242 E4.03239
M107
G1 X62.922 Y30.242 F18000
M107
G1 F1800
G1 X30.242 Y62.922 E4.19096
M107
G1 X30.242 Y64.159 F18000
M107
G1 F1800
G1 X64.159 Y30.242 E4.34954
M107
G1 X65.395 Y30.242 F18000
M107
G1 F1800
G1 X30.242 Y65.395 E4.50811
M107
G1 X30.242 Y66.632 F18000
M107
G1 F1800
G1 X66.632 Y30.242 E4.66668
M107
G1 X67.868 Y30.242 F18000
M107
G1 F1800
G1 X30.242 Y67.868 E4.82525
M107
G1 X30.242 Y69.105 F18000
M107
G1 F1800
G1 X69.105 Y30.242 E4.98383
M107
G1 X70.341 Y30.242 F18000
M107
G1 F1800
G1 X30.242 Y70.341 E5.1424
M107
G1 X30.242 Y71.578 F18000
M107
G1 F1800
G1 X71.578 Y30.242 E5.30097
M107
G1 X72.814 Y30.242 F18000
M107
G1 F1800
G1 X30.242 Y72.814 E5.45954
M107
G1 X30.242 Y74.051 F18000
M107
G1 F1800
G1 X74.051 Y30.242 E5.61811
M107
G1 X75.287 Y30.242 F18000
M107
G1 F1800
G1 X30.242 Y75.287 E5.77669
M107
G1 X30.242 Y76.524 F18000
M107
G1 F1800
G1 X76.524 Y30.242 E5.93526
M107
M73 P12 R36
G1 X77.76 Y30.242 F18000
M107
G1 F1800
G1 X30.242 Y77.76 E6.09383
M107
G1 X30.242 Y78.997 F18000
M107
G1 F1800
G1 X78.997 Y30.242 E6.2524
M107
G1 X80.233 Y30.242 F18000
M107
G1 F1800
G1 X30.242 Y80.233 E6.41098
M107
G1 X30.242 Y81.47 F18000
M107
G1 F1800
G1 X81.47 Y30.242 E6.56955
M107
G1 X82.706 Y30.242 F18000
M107
G1 F1800
G1 X30.242 Y82.706 E6.72812
M107
G1 X30.242 Y83.943 F18000
M107
G1 F1800
G1 X83.943 Y30.242 E6.88669
M107
M73 P12 R35
G1 X85.179 Y30.242 F18000
M107
G1 F1800
G1 X30.242 Y85.179 E7.04527
M107
G1 X30.242 Y86.416 F18000
M107
G1 F1800
G1 X86.416 Y30.242 E7.20384
M107
G1 X87.652 Y30.242 F18000
M107
G1 F1800
G1 X30.242 Y87.652 E7.36241
M107
G1 X30.242 Y88.889 F18000
M107
G1 F1800
G1 X88.889 Y30.242 E7.52098
M107
M73 P13 R35
G1 X90.125 Y30.242 F18000
M107
G1 F1800
G1 X30.242 Y90.125 E7.67956
M107
G1 X30.242 Y91.362 F18000
M107
G1 F1800
G1 X91.362 Y30.242 E7.83813
M107
G1 X92.598 Y30.242 F18000
M107
G1 F1800
G1 X30.242 Y92.598 E7.9967
M107
G1 X30.242 Y93.835 F18000
M107
G1 F1800
G1 X93.835 Y30.242 E8.15527
M107
G1 X95.071 Y30.242 F18000
M107
G1 F1800
G1 X30.242 Y95.071 E8.31384
M107
G1 X30.242 Y96.308 F18000
M107
G1 F1800
G1 X96.308 Y30.242 E8.47242
M107
G1 X97.545 Y30.242 F18000
M107
G1 F1800
G1 X30.242 Y97.545 E8.63099
M107
G1 X30.242 Y98.781 F18000
M107
G1 F1800
G1 X98.781 Y30.242 E8.78956
M107
M73 P14 R35
G1 X100.018 Y30.242 F18000
M107
G1 F1800
G1 X30.242 Y100.018 E8.94813
M107
G1 X30.242 Y101.254 F18000
M107
G1 F1800
G1 X101.254 Y30.242 E9.10671
M107
G1 X102.491 Y30.242 F18000
M107
G1 F1800
G1 X30.242 Y102.491 E9.26528
M107
G1 X30.242 Y103.727 F18000
M107
G1 F1800
G1 X103.727 Y30.242 E9.42385
M107
G1 X104.964 Y30.242 F18000
M107
G1 F1800
G1 X30.242 Y104.964 E9.58242
M107
G1 X30.242 Y106.2 F18000
M107
G1 F1800
G1 X106.2 Y30.242 E9.741
M107
G1 X107.437 Y30.242 F18000
M107
G1 F1800
G1 X30.242 Y107.437 E9.89957
M107
M73 P15 R34
G1 X30.242 Y108.673 F18000
M107
G1 F1800
G1 X108.673 Y30.242 E10.05814
M107
G1 X109.91 Y30.242 F18000
M107
G1 F1800
G1 X30.242 Y109.91 E10.21671
M107
G1 X30.242 Y111.146 F18000
M107
G1 F1800
G1 X111.146 Y30.242 E10.37529
M107
G1 X112.383 Y30.242 F18000
M107
G1 F1800
G1 X30.242 Y112.383 E10.53386
M107
G1 X30.242 Y113.619 F18000
M107
G1 F1800
G1 X113.619 Y30.242 E10.69243
M107
G1 X114.856 Y30.242 F18000
M107
G1 F1800
G1 X30.242 Y114.856 E10.851
M107
M73 P16 R34
G1 X30.242 Y116.092 F18000
M107
G1 F1800
G1 X116.092 Y30.242 E11.00957
M107
G1 X117.329 Y30.242 F18000
M107
G1 F1800
G1 X30.242 Y117.329 E11.16815
M107
G1 X30.242 Y118.565 F18000
M107
G1 F1800
G1 X118.565 Y30.242 E11.32672
M107
G1 X119.802 Y30.242 F18000
M107
G1 F1800
G1 X30.242 Y119.802 E11.48529
M107
G1 X30.242 Y121.038 F18000
M107
G1 F1800
G1 X121.038 Y30.242 E11.64386
M107
G1 X122.275 Y30.242 F18000
M107
G1 F1800
G1 X30.242 Y122.275 E11.80244
M107
M73 P17 R34
G1 X30.242 Y123.511 F18000
M107
G1 F1800
G1 X123.511 Y30.242 E11.96101
M107
G1 X124.748 Y30.242 F18000
M107
G1 F1800
G1 X30.242 Y124.748 E12.11958
M107
M73 P17 R33
G1 X30.242 Y125.984 F18000
M107
G1 F1800
G1 X125.984 Y30.242 E12.27815
M107
G1 X127.221 Y30.242 F18000
M107
G1 F1800
G1 X30.242 Y127.221 E12.43673
M107
G1 X30.242 Y128.457 F18000
M107
G1 F1800
G1 X128.457 Y30.242 E12.5953
M107
G1 X129.694 Y30.242 F18000
M107
G1 F1800
G1 X30.242 Y129.694 E12.75387
M107
M73 P18 R33
G1 X30.242 Y130.93 F18000
M107
G1 F1800
G1 X130.93 Y30.242 E12.91244
M107
G1 X132.167 Y30.242 F18000
M107
G1 F1800
G1 X30.242 Y132.167 E13.07102
M107
G1 X30.242 Y133.403 F18000
M107
G1 F1800
G1 X133.403 Y30.242 E13.22959
M107
G1 X134.64 Y30.242 F18000
M107
G1 F1800
G1 X30.242 Y134.64 E13.38816
M107
G1 X30.242 Y135.877 F18000
M107
G1 F1800
G1 X135.877 Y30.242 E13.54673
M107
M73 P19 R33
G1 X137.113 Y30.242 F18000
M107
G1 F1800
G1 X30.242 Y137.113 E13.7053
M107
G1 X30.242 Y138.35 F18000
M107
G1 F1800
G1 X138.35 Y30.242 E13.86388
M107
G1 X139.586 Y30.242 F18000
M107
G1 F1800
G1 X30.242 Y139.586 E14.02245
M107
G1 X30.242 Y140.823 F18000
M107
G1 F1800
G1 X140.823 Y30.242 E14.18102
M107
M73 P20 R32
G1 X142.059 Y30.242 F18000
M107
G1 F1800
G1 X30.242 Y142.059 E14.33959
M107
G1 X30.242 Y143.296 F18000
M107
G1 F1800
G1 X143.296 Y30.242 E14.49817
M107
G1 X144.532 Y30.242 F18000
M107
G1 F1800
G1 X30.242 Y144.532 E14.65674
M107
G1 X30.242 Y145.769 F18000
M107
G1 F1800
G1 X145.769 Y30.242 E14.81531
M107
G1 X147.005 Y30.242 F18000
M107
G1 F1800
G1 X30.242 Y147.005 E14.97388
M107
M73 P21 R32
G1 X30.242 Y148.242 F18000
M107
G1 F1800
G1 X148.242 Y30.242 E15.13246
M107
G1 X149.478 Y30.242 F18000
M107
G1 F1800
G1 X30.242 Y149.478 E15.29103
M107
G1 X30.242 Y150.715 F18000
M107
G1 F1800
G1 X150.715 Y30.242 E15.4496
M107
G1 X151.951 Y30.242 F18000
M107
G1 F1800
G1 X30.242 Y151.951 E15.60817
M107
M73 P22 R32
G1 X30.242 Y153.188 F18000
M107
G1 F1800
G1 X153.188 Y30.242 E15.76675
M107
M73 P22 R31
G1 X154.424 Y30.242 F18000
M107
G1 F1800
G1 X30.242 Y154.424 E15.92532
M107
G1 X30.242 Y155.661 F18000
M107
G1 F1800
G1 X155.661 Y30.242 E16.08389
M107
G1 X156.897 Y30.242 F18000
M107
G1 F1800
G1 X30.242 Y156.897 E16.24246
M107
M73 P23 R31
G1 X30.242 Y158.134 F18000
M107
G1 F1800
G1 X158.134 Y30.242 E16.40104
M107
G1 X159.37 Y30.242 F18000
M107
G1 F1800
G1 X30.242 Y159.37 E16.55961
M107
G1 X30.242 Y160.607 F18000
M107
G1 F1800
G1 X160.607 Y30.242 E16.71818
M107
G1 X161.843 Y30.242 F18000
M107
G1 F1800
G1 X30.242 Y161.843 E16.87675
M107
M73 P24 R31
G1 X30.242 Y163.08 F18000
M107
G1 F1800
G1 X163.08 Y30.242 E17.03532
M107
G1 X164.316 Y30.242 F18000
M107
G1 F1800
G1 X30.242 Y164.316 E17.1939
M107
G1 X30.242 Y165.553 F18000
M107
G1 F1800
G1 X165.553 Y30.242 E17.35247
M107
M73 P24 R30
G1 X166.789 Y30.242 F18000
M107
G1 F1800
G1 X30.242 Y166.789 E17.51104
M107
M73 P25 R30
G1 X30.242 Y168.026 F18000
M107
G1 F1800
G1 X168.026 Y30.242 E17.66961
M107
G1 X169.262 Y30.242 F18000
M107
G1 F1800
G1 X30.242 Y169.262 E17.82819
M107
G1 X30.242 Y170.499 F18000
M107
G1 F1800
G1 X170.499 Y30.242 E17.98676
M107
G1 X171.735 Y30.242 F18000
M107
G1 F1800
G1 X30.242 Y171.735 E18.14533
M107
M73 P26 R30
G1 X30.242 Y172.972 F18000
M107
G1 F1800
G1 X172.972 Y30.242 E18.3039
M107
G1 X174.209 Y30.242 F18000
M107
G1 F1800
G1 X30.242 Y174.209 E18.46248
M107
G1 X30.242 Y175.445 F18000
M107
G1 F1800
G1 X175.445 Y30.242 E18.62105
M107
G1 X176.682 Y30.242 F18000
M107
G1 F1800
G1 X30.242 Y176.682 E18.77962
M107
M73 P27 R29
G1 X30.242 Y177.918 F18000
M107
G1 F1800
G1 X177.918 Y30.242 E18.93819
M107
G1 X179.155 Y30.242 F18000
M107
G1 F1800
G1 X30.242 Y179.155 E19.09677
M107
G1 X30.242 Y180.391 F18000
M107
G1 F1800
G1 X180.391 Y30.242 E19.25534
M107
M73 P28 R29
G1 X181.628 Y30.242 F18000
M107
G1 F1800
G1 X30.242 Y181.628 E19.41391
M107
G1 X30.242 Y182.864 F18000
M107
G1 F1800
G1 X182.864 Y30.242 E19.57248
M107
G1 X184.101 Y30.242 F18000
M107
G1 F1800
G1 X30.242 Y184.101 E19.73105
M107
M73 P29 R29
G1 X30.242 Y185.337 F18000
M107
G1 F1800
G1 X185.337 Y30.242 E19.88963
M107
G1 X186.574 Y30.242 F18000
M107
G1 F1800
G1 X30.242 Y186.574 E20.0482
M107
M73 P29 R28
G1 X30.242 Y187.81 F18000
M107
G1 F1800
G1 X187.81 Y30.242 E20.20677
M107
G1 X189.047 Y30.242 F18000
M107
G1 F1800
G1 X30.242 Y189.047 E20.36534
M107
M73 P30 R28
G1 X30.242 Y190.283 F18000
M107
G1 F1800
G1 X190.283 Y30.242 E20.52392
M107
G1 X191.52 Y30.242 F18000
M107
G1 F1800
G1 X30.242 Y191.52 E20.68249
M107
G1 X30.242 Y192.756 F18000
M107
G1 F1800
G1 X192.756 Y30.242 E20.84106
M107
M73 P31 R28
G1 X193.993 Y30.242 F18000
M107
G1 F1800
G1 X30.242 Y193.993 E20.99963
M107
G1 X30.242 Y195.229 F18000
M107
G1 F1800
G1 X195.229 Y30.242 E21.15821
M107
G1 X196.466 Y30.242 F18000
M107
G1 F1800
G1 X30.242 Y196.466 E21.31678
M107
M73 P32 R27
G1 X30.242 Y197.702 F18000
M107
G1 F1800
G1 X197.702 Y30.242 E21.47535
M107
G1 X198.939 Y30.242 F18000
M107
G1 F1800
G1 X30.242 Y198.939 E21.63392
M107
G1 X30.242 Y200.175 F18000
M107
G1 F1800
G1 X200.175 Y30.242 E21.7925
M107
M73 P33 R27
G1 X201.412 Y30.242 F18000
M107
G1 F1800
G1 X30.242 Y201.412 E21.95107
M107
G1 X30.242 Y202.648 F18000
M107
G1 F1800
G1 X202.648 Y30.242 E22.10964
M107
G1 X203.885 Y30.242 F18000
M107
G1 F1800
G1 X30.242 Y203.885 E22.26821
M107
M73 P34 R27
G1 X30.242 Y205.121 F18000
M107
G1 F1800
G1 X205.121 Y30.242 E22.42678
M107
M73 P34 R26
G1 X206.358 Y30.242 F18000
M107
G1 F1800
G1 X30.242 Y206.358 E22.58536
M107
G1 X30.242 Y207.594 F18000
M107
G1 F1800
G1 X207.594 Y30.242 E22.74393
M107
M73 P35 R26
G1 X208.831 Y30.242 F18000
M107
G1 F1800
G1 X30.242 Y208.831 E22.9025
M107
G1 X30.242 Y210.067 F18000
M107
G1 F1800
G1 X210.067 Y30.242 E23.06107
M107
G1 X211.304 Y30.242 F18000
M107
G1 F1800
G1 X30.242 Y211.304 E23.21965
M107
M73 P36 R26
G1 X30.242 Y212.541 F18000
M107
G1 F1800
G1 X212.541 Y30.242 E23.37822
M107
G1 X213.777 Y30.242 F18000
M107
G1 F1800
G1 X30.242 Y213.777 E23.53679
M107
G1 X30.242 Y215.014 F18000
M107
G1 F1800
G1 X215.014 Y30.242 E23.69536
M107
M73 P37 R25
G1 X216.25 Y30.242 F18000
M107
G1 F1800
G1 X30.242 Y216.25 E23.85394
M107
G1 X30.242 Y217.487 F18000
M107
G1 F1800
G1 X217.487 Y30.242 E24.01251
M107
G1 X218.723 Y30.242 F18000
M107
G1 F1800
G1 X30.242 Y218.723 E24.17108
M107
M73 P38 R25
G1 X30.242 Y219.96 F18000
M107
G1 F1800
G1 X219.96 Y30.242 E24.32965
M107
G1 X221.196 Y30.242 F18000
M107
G1 F1800
G1 X30.242 Y221.196 E24.48823
M107
M73 P39 R25
G1 X30.242 Y222.433 F18000
M107
G1 F1800
G1 X222.433 Y30.242 E24.6468
M107
M73 P39 R24
G1 X223.669 Y30.242 F18000
M107
G1 F1800
G1 X30.242 Y223.669 E24.80537
M107
G1 X30.242 Y224.906 F18000
M107
G1 F1800
G1 X224.906 Y30.242 E24.96394
M107
M73 P40 R24
G1 X226.142 Y30.242 F18000
M107
G1 F1800
G1 X30.242 Y226.142 E25.12251
M107
G1 X30.242 Y227.379 F18000
M107
G1 F1800
G1 X227.379 Y30.242 E25.28109
M107
G1 X228.615 Y30.242 F18000
M107
G1 F1800
G1 X30.242 Y228.615 E25.43966
M107
M73 P41 R24
G1 X30.242 Y229.852 F18000
M107
G1 F1800
G1 X229.852 Y30.242 E25.59823
M107
G1 X231.088 Y30.242 F18000
M107
G1 F1800
G1 X30.242 Y231.088 E25.7568
M107
M73 P42 R23
G1 X30.242 Y232.325 F18000
M107
G1 F1800
G1 X232.325 Y30.242 E25.91538
M107
G1 X233.561 Y30.242 F18000
M107
G1 F1800
G1 X30.242 Y233.561 E26.07395
M107
G1 X30.242 Y234.798 F18000
M107
G1 F1800
G1 X234.798 Y30.242 E26.23252
M107
M73 P43 R23
G1 X236.034 Y30.242 F18000
M107
G1 F1800
G1 X30.242 Y236.034 E26.39109
M107
G1 X30.242 Y237.271 F18000
M107
G1 F1800
G1 X237.271 Y30.242 E26.54967
M107
M73 P44 R23
G1 X238.507 Y30.242 F18000
M107
G1 F1800
G1 X30.242 Y238.507 E26.70824
M107
M73 P44 R22
G1 X30.242 Y239.744 F18000
M107
G1 F1800
G1 X239.744 Y30.242 E26.86681
M107
G1 X240.98 Y30.242 F18000
M107
G1 F1800
G1 X30.242 Y240.98 E27.02538
M107
M73 P45 R22
G1 X30.242 Y242.217 F18000
M107
G1 F1800
G1 X242.217 Y30.242 E27.18396
M107
G1 X243.453 Y30.242 F18000
M107
G1 F1800
G1 X30.242 Y243.453 E27.34253
M107
M73 P46 R22
G1 X30.242 Y244.69 F18000
M107
G1 F1800
G1 X244.69 Y30.242 E27.5011
M107
G1 X245.926 Y30.242 F18000
M107
G1 F1800
G1 X30.242 Y245.926 E27.65967
M107
M73 P46 R21
G1 X30.242 Y247.163 F18000
M107
G1 F1800
G1 X247.163 Y30.242 E27.81824
M107
M73 P47 R21
G1 X248.399 Y30.242 F18000
M107
G1 F1800
G1 X30.242 Y248.399 E27.97682
M107
G1 X30.242 Y249.636 F18000
M107
G1 F1800
G1 X249.636 Y30.242 E28.13539
M107
M73 P48 R21
G1 X250.873 Y30.242 F18000
M107
G1 F1800
G1 X30.242 Y250.873 E28.29396
M107
G1 X30.242 Y252.109 F18000
M107
G1 F1800
G1 X252.109 Y30.242 E28.45253
M107
G1 X253.346 Y30.242 F18000
M107
G1 F1800
G1 X30.242 Y253.346 E28.61111
M107
M73 P49 R20
G1 X30.242 Y254.582 F18000
M107
G1 F1800
G1 X254.582 Y30.242 E28.76968
M107
G1 X255.819 Y30.242 F18000
M107
G1 F1800
G1 X30.242 Y255.819 E28.92825
M107
M73 P50 R20
G1 X30.242 Y257.055 F18000
M107
G1 F1800
G1 X257.055 Y30.242 E29.08682
M107
G1 X258.292 Y30.242 F18000
M107
G1 F1800
G1 X30.242 Y258.292 E29.2454
M107
M73 P51 R20
G1 X30.242 Y259.528 F18000
M107
G1 F1800
G1 X259.528 Y30.242 E29.40397
M107
M73 P51 R19
G1 X260.765 Y30.242 F18000
M107
G1 F1800
G1 X30.242 Y260.765 E29.56254
M107
M73 P52 R19
G1 X30.242 Y262.001 F18000
M107
G1 F1800
G1 X262.001 Y30.242 E29.72111
M107
G1 X263.238 Y30.242 F18000
M107
G1 F1800
G1 X30.242 Y263.238 E29.87969
M107
G1 X30.242 Y264.474 F18000
M107
G1 F1800
G1 X264.474 Y30.242 E30.03826
M107
M73 P53 R19
G1 X265.711 Y30.242 F18000
M107
G1 F1800
G1 X30.242 Y265.711 E30.19683
M107
G1 X30.242 Y266.947 F18000
M107
G1 F1800
G1 X266.947 Y30.242 E30.3554
M107
M73 P54 R18
G1 X268.184 Y30.242 F18000
M107
G1 F1800
G1 X30.242 Y268.184 E30.51397
M107
G1 X30.242 Y269.42 F18000
M107
G1 F1800
G1 X269.42 Y30.242 E30.67255
M107
M73 P55 R18
G1 X269.758 Y31.14 F18000
M107
G1 F1800
G1 X31.14 Y269.758 E30.60066
M107
G1 X32.377 Y269.758 F18000
M107
G1 F1800
G1 X269.758 Y32.377 E30.44209
M107
M73 P56 R18
G1 X269.758 Y33.613 F18000
M107
G1 F1800
G1 X33.613 Y269.758 E30.28352
M107
M73 P56 R17
G1 X34.85 Y269.758 F18000
M107
G1 F1800
G1 X269.758 Y34.85 E30.12495
M107
M73 P57 R17
G1 X269.758 Y36.086 F18000
M107
G1 F1800
G1 X36.086 Y269.758 E29.96637
M107
G1 X37.323 Y269.758 F18000
M107
G1 F1800
G1 X269.758 Y37.323 E29.8078
M107
G1 X269.758 Y38.559 F18000
M107
G1 F1800
G1 X38.559 Y269.758 E29.64923
M107
M73 P58 R17
G1 X39.796 Y269.758 F18000
M107
G1 F1800
G1 X269.758 Y39.796 E29.49066
M107
M73 P58 R16
G1 X269.758 Y41.032 F18000
M107
G1 F1800
G1 X41.032 Y269.758 E29.33208
M107
M73 P59 R16
G1 X42.269 Y269.758 F18000
M107
G1 F1800
G1 X269.758 Y42.269 E29.17351
M107
G1 X269.758 Y43.505 F18000
M107
G1 F1800
G1 X43.505 Y269.758 E29.01494
M107
M73 P60 R16
G1 X44.742 Y269.758 F18000
M107
G1 F1800
G1 X269.758 Y44.742 E28.85637
M107
G1 X269.758 Y45.978 F18000
M107
G1 F1800
G1 X45.978 Y269.758 E28.69779
M107
G1 X47.215 Y269.758 F18000
M107
G1 F1800
G1 X269.758 Y47.215 E28.53922
M107
M73 P61 R15
G1 X269.758 Y48.452 F18000
M107
G1 F1800
G1 X48.451 Y269.758 E28.38065
M107
G1 X49.688 Y269.758 F18000
M107
G1 F1800
G1 X269.758 Y49.688 E28.22208
M107
M73 P62 R15
G1 X269.758 Y50.925 F18000
M107
G1 F1800
G1 X50.925 Y269.758 E28.0635
M107
G1 X52.161 Y269.758 F18000
M107
G1 F1800
G1 X269.758 Y52.161 E27.90493
M107
M73 P63 R15
G1 X269.758 Y53.398 F18000
M107
G1 F1800
G1 X53.398 Y269.758 E27.74636
M107
G1 X54.634 Y269.758 F18000
M107
G1 F1800
G1 X269.758 Y54.634 E27.58779
M107
M73 P63 R14
G1 X269.758 Y55.871 F18000
M107
G1 F1800
G1 X55.871 Y269.758 E27.42922
M107
M73 P64 R14
G1 X57.107 Y269.758 F18000
M107
G1 F1800
G1 X269.758 Y57.107 E27.27064
M107
G1 X269.758 Y58.344 F18000
M107
G1 F1800
G1 X58.344 Y269.758 E27.11207
M107
M73 P65 R14
G1 X59.58 Y269.758 F18000
M107
G1 F1800
G1 X269.758 Y59.58 E26.9535
M107
G1 X269.758 Y60.817 F18000
M107
G1 F1800
G1 X60.817 Y269.758 E26.79493
M107
G1 X62.053 Y269.758 F18000
M107
G1 F1800
G1 X269.758 Y62.053 E26.63635
M107
M73 P66 R13
G1 X269.758 Y63.29 F18000
M107
G1 F1800
G1 X63.29 Y269.758 E26.47778
M107
G1 X64.526 Y269.758 F18000
M107
G1 F1800
G1 X269.758 Y64.526 E26.31921
M107
M73 P67 R13
G1 X269.758 Y65.763 F18000
M107
G1 F1800
G1 X65.763 Y269.758 E26.16064
M107
G1 X66.999 Y269.758 F18000
M107
G1 F1800
G1 X269.758 Y66.999 E26.00206
M107
G1 X269.758 Y68.236 F18000
M107
G1 F1800
G1 X68.236 Y269.758 E25.84349
M107
M73 P68 R13
G1 X69.472 Y269.758 F18000
M107
G1 F1800
G1 X269.758 Y69.472 E25.68492
M107
M73 P68 R12
G1 X269.758 Y70.709 F18000
M107
G1 F1800
G1 X70.709 Y269.758 E25.52635
M107
M73 P69 R12
G1 X71.945 Y269.758 F18000
M107
G1 F1800
G1 X269.758 Y71.945 E25.36777
M107
G1 X269.758 Y73.182 F18000
M107
G1 F1800
G1 X73.182 Y269.758 E25.2092
M107
G1 X74.418 Y269.758 F18000
M107
G1 F1800
G1 X269.758 Y74.418 E25.05063
M107
M73 P70 R12
G1 X269.758 Y75.655 F18000
M107
G1 F1800
G1 X75.655 Y269.758 E24.89206
M107
G1 X76.891 Y269.758 F18000
M107
G1 F1800
G1 X269.758 Y76.891 E24.73349
M107
M73 P70 R11
G1 X269.758 Y78.128 F18000
M107
G1 F1800
G1 X78.128 Y269.758 E24.57491
M107
M73 P71 R11
G1 X79.364 Y269.758 F18000
M107
G1 F1800
G1 X269.758 Y79.364 E24.41634
M107
G1 X269.758 Y80.601 F18000
M107
G1 F1800
G1 X80.601 Y269.758 E24.25777
M107
M73 P72 R11
G1 X81.837 Y269.758 F18000
M107
G1 F1800
G1 X269.758 Y81.837 E24.0992
M107
G1 X269.758 Y83.074 F18000
M107
G1 F1800
G1 X83.074 Y269.758 E23.94062
M107
G1 X84.31 Y269.758 F18000
M107
G1 F1800
G1 X269.758 Y84.31 E23.78205
M107
M73 P73 R11
G1 X269.758 Y85.547 F18000
M107
G1 F1800
G1 X85.547 Y269.758 E23.62348
M107
M73 P73 R10
G1 X86.784 Y269.758 F18000
M107
G1 F1800
G1 X269.758 Y86.784 E23.46491
M107
G1 X269.758 Y88.02 F18000
M107
G1 F1800
G1 X88.02 Y269.758 E23.30633
M107
M73 P74 R10
G1 X89.257 Y269.758 F18000
M107
G1 F1800
G1 X269.758 Y89.257 E23.14776
M107
G1 X269.758 Y90.493 F18000
M107
G1 F1800
G1 X90.493 Y269.758 E22.98919
M107
G1 X91.73 Y269.758 F18000
M107
G1 F1800
G1 X269.758 Y91.73 E22.83062
M107
M73 P75 R10
G1 X269.758 Y92.966 F18000
M107
G1 F1800
G1 X92.966 Y269.758 E22.67204
M107
G1 X94.203 Y269.758 F18000
M107
G1 F1800
G1 X269.758 Y94.203 E22.51347
M107
M73 P75 R9
G1 X269.758 Y95.439 F18000
M107
G1 F1800
G1 X95.439 Y269.758 E22.3549
M107
M73 P76 R9
G1 X96.676 Y269.758 F18000
M107
G1 F1800
G1 X269.758 Y96.676 E22.19633
M107
G1 X269.758 Y97.912 F18000
M107
G1 F1800
G1 X97.912 Y269.758 E22.03776
M107
G1 X99.149 Y269.758 F18000
M107
G1 F1800
G1 X269.758 Y99.149 E21.87918
M107
M73 P77 R9
G1 X269.758 Y100.385 F18000
M107
G1 F1800
G1 X100.385 Y269.758 E21.72061
M107
G1 X101.622 Y269.758 F18000
M107
G1 F1800
G1 X269.758 Y101.622 E21.56204
M107
G1 X269.758 Y102.858 F18000
M107
G1 F1800
G1 X102.858 Y269.758 E21.40347
M107
M73 P78 R8
G1 X104.095 Y269.758 F18000
M107
G1 F1800
G1 X269.758 Y104.095 E21.24489
M107
G1 X269.758 Y105.331 F18000
M107
G1 F1800
G1 X105.331 Y269.758 E21.08632
M107
G1 X106.568 Y269.758 F18000
M107
G1 F1800
G1 X269.758 Y106.568 E20.92775
M107
M73 P79 R8
G1 X269.758 Y107.804 F18000
M107
G1 F1800
G1 X107.804 Y269.758 E20.76918
M107
G1 X109.041 Y269.758 F18000
M107
G1 F1800
G1 X269.758 Y109.041 E20.6106
M107
G1 X269.758 Y110.277 F18000
M107
G1 F1800
G1 X110.277 Y269.758 E20.45203
M107
M73 P80 R8
G1 X111.514 Y269.758 F18000
M107
G1 F1800
G1 X269.758 Y111.514 E20.29346
M107
G1 X269.758 Y112.75 F18000
M107
G1 F1800
G1 X112.75 Y269.758 E20.13489
M107
M73 P80 R7
G1 X113.987 Y269.758 F18000
M107
G1 F1800
G1 X269.758 Y113.987 E19.97631
M107
M73 P81 R7
G1 X269.758 Y115.223 F18000
M107
G1 F1800
G1 X115.223 Y269.758 E19.81774
M107
G1 X116.46 Y269.758 F18000
M107
G1 F1800
G1 X269.758 Y116.46 E19.65917
M107
G1 X269.758 Y117.696 F18000
M107
G1 F1800
G1 X117.696 Y269.758 E19.5006
M107
G1 X118.933 Y269.758 F18000
M107
G1 F1800
G1 X269.758 Y118.933 E19.34203
M107
M73 P82 R7
G1 X269.758 Y120.169 F18000
M107
G1 F1800
G1 X120.169 Y269.758 E19.18345
M107
G1 X121.406 Y269.758 F18000
M107
G1 F1800
G1 X269.758 Y121.406 E19.02488
M107
G1 X269.758 Y122.642 F18000
M107
G1 F1800
G1 X122.642 Y269.758 E18.86631
M107
M73 P83 R6
G1 X123.879 Y269.758 F18000
M107
G1 F1800
G1 X269.758 Y123.879 E18.70774
M107
G1 X269.758 Y125.116 F18000
M107
G1 F1800
G1 X125.116 Y269.758 E18.54916
M107
G1 X126.352 Y269.758 F18000
M107
G1 F1800
G1 X269.758 Y126.352 E18.39059
M107
G1 X269.758 Y127.589 F18000
M107
G1 F1800
G1 X127.589 Y269.758 E18.23202
M107
M73 P84 R6
G1 X128.825 Y269.758 F18000
M107
G1 F1800
G1 X269.758 Y128.825 E18.07345
M107
G1 X269.758 Y130.062 F18000
M107
G1 F1800
G1 X130.062 Y269.758 E17.91487
M107
G1 X131.298 Y269.758 F18000
M107
G1 F1800
G1 X269.758 Y131.298 E17.7563
M107
G1 X269.758 Y132.535 F18000
M107
G1 F1800
G1 X132.535 Y269.758 E17.59773
M107
M73 P85 R6
G1 X133.771 Y269.758 F18000
M107
G1 F1800
G1 X269.758 Y133.771 E17.43916
M107
M73 P85 R5
G1 X269.758 Y135.008 F18000
M107
G1 F1800
G1 X135.008 Y269.758 E17.28058
M107
G1 X136.244 Y269.758 F18000
M107
G1 F1800
G1 X269.758 Y136.244 E17.12201
M107
M73 P86 R5
G1 X269.758 Y137.481 F18000
M107
G1 F1800
G1 X137.481 Y269.758 E16.96344
M107
G1 X138.717 Y269.758 F18000
M107
G1 F1800
G1 X269.758 Y138.717 E16.80487
M107
G1 X269.758 Y139.954 F18000
M107
G1 F1800
G1 X139.954 Y269.758 E16.6463
M107
G1 X141.19 Y269.758 F18000
M107
G1 F1800
G1 X269.758 Y141.19 E16.48772
M107
M73 P87 R5
G1 X269.758 Y142.427 F18000
M107
G1 F1800
G1 X142.427 Y269.758 E16.32915
M107
G1 X143.663 Y269.758 F18000
M107
G1 F1800
G1 X269.758 Y143.663 E16.17058
M107
G1 X269.758 Y144.9 F18000
M107
G1 F1800
G1 X144.9 Y269.758 E16.01201
M107
G1 X146.136 Y269.758 F18000
M107
G1 F1800
G1 X269.758 Y146.136 E15.85343
M107
M73 P88 R4
G1 X269.758 Y147.373 F18000
M107
G1 F1800
G1 X147.373 Y269.758 E15.69486
M107
G1 X148.609 Y269.758 F18000
M107
G1 F1800
G1 X269.758 Y148.609 E15.53629
M107
G1 X269.758 Y149.846 F18000
M107
G1 F1800
G1 X149.846 Y269.758 E15.37772
M107
G1 X151.082 Y269.758 F18000
M107
G1 F1800
G1 X269.758 Y151.082 E15.21914
M107
G1 X269.758 Y152.319 F18000
M107
G1 F1800
G1 X152.319 Y269.758 E15.06057
M107
M73 P89 R4
G1 X153.555 Y269.758 F18000
M107
G1 F1800
G1 X269.758 Y153.555 E14.902
M107
G1 X269.758 Y154.792 F18000
M107
G1 F1800
G1 X154.792 Y269.758 E14.74343
M107
G1 X156.028 Y269.758 F18000
M107
G1 F1800
G1 X269.758 Y156.028 E14.58485
M107
G1 X269.758 Y157.265 F18000
M107
G1 F1800
G1 X157.265 Y269.758 E14.42628
M107
M73 P90 R4
G1 X158.501 Y269.758 F18000
M107
G1 F1800
G1 X269.758 Y158.501 E14.26771
M107
G1 X269.758 Y159.738 F18000
M107
G1 F1800
G1 X159.738 Y269.758 E14.10914
M107
M73 P90 R3
G1 X160.974 Y269.758 F18000
M107
G1 F1800
G1 X269.758 Y160.974 E13.95057
M107
G1 X269.758 Y162.211 F18000
M107
G1 F1800
G1 X162.211 Y269.758 E13.79199
M107
G1 X163.448 Y269.758 F18000
M107
G1 F1800
G1 X269.758 Y163.448 E13.63342
M107
M73 P91 R3
G1 X269.758 Y164.684 F18000
M107
G1 F1800
G1 X164.684 Y269.758 E13.47485
M107
G1 X165.921 Y269.758 F18000
M107
G1 F1800
G1 X269.758 Y165.921 E13.31628
M107
G1 X269.758 Y167.157 F18000
M107
G1 F1800
G1 X167.157 Y269.758 E13.1577
M107
G1 X168.394 Y269.758 F18000
M107
G1 F1800
G1 X269.758 Y168.394 E12.99913
M107
G1 X269.758 Y169.63 F18000
M107
G1 F1800
G1 X169.63 Y269.758 E12.84056
M107
M73 P92 R3
G1 X170.867 Y269.758 F18000
M107
G1 F1800
G1 X269.758 Y170.867 E12.68199
M107
G1 X269.758 Y172.103 F18000
M107
G1 F1800
G1 X172.103 Y269.758 E12.52341
M107
G1 X173.34 Y269.758 F18000
M107
G1 F1800
G1 X269.758 Y173.34 E12.36484
M107
G1 X269.758 Y174.576 F18000
M107
G1 F1800
G1 X174.576 Y269.758 E12.20627
M107
M73 P92 R2
G1 X175.813 Y269.758 F18000
M107
G1 F1800
G1 X269.758 Y175.813 E12.0477
M107
M73 P93 R2
G1 X269.758 Y177.049 F18000
M107
G1 F1800
G1 X177.049 Y269.758 E11.88912
M107
G1 X178.286 Y269.758 F18000
M107
G1 F1800
G1 X269.758 Y178.286 E11.73055
M107
G1 X269.758 Y179.522 F18000
M107
G1 F1800
G1 X179.522 Y269.758 E11.57198
M107
G1 X180.759 Y269.758 F18000
M107
G1 F1800
G1 X269.758 Y180.759 E11.41341
M107
G1 X269.758 Y181.995 F18000
M107
G1 F1800
G1 X181.995 Y269.758 E11.25484
M107
G1 X183.232 Y269.758 F18000
M107
G1 F1800
G1 X269.758 Y183.232 E11.09626
M107
M73 P94 R2
G1 X269.758 Y184.468 F18000
M107
G1 F1800
G1 X184.468 Y269.758 E10.93769
M107
G1 X185.705 Y269.758 F18000
M107
G1 F1800
G1 X269.758 Y185.705 E10.77912
M107
G1 X269.758 Y186.941 F18000
M107
G1 F1800
G1 X186.941 Y269.758 E10.62055
M107
G1 X188.178 Y269.758 F18000
M107
G1 F1800
G1 X269.758 Y188.178 E10.46197
M107
G1 X269.758 Y189.414 F18000
M107
G1 F1800
G1 X189.414 Y269.758 E10.3034
M107
G1 X190.651 Y269.758 F18000
M107
G1 F1800
G1 X269.758 Y190.651 E10.14483
M107
M73 P95 R2
G1 X269.758 Y191.887 F18000
M107
G1 F1800
G1 X191.887 Y269.758 E9.98626
M107
M73 P95 R1
G1 X193.124 Y269.758 F18000
M107
G1 F1800
G1 X269.758 Y193.124 E9.82768
M107
G1 X269.758 Y194.36 F18000
M107
G1 F1800
G1 X194.36 Y269.758 E9.66911
M107
G1 X195.597 Y269.758 F18000
M107
G1 F1800
G1 X269.758 Y195.597 E9.51054
M107
G1 X269.758 Y196.833 F18000
M107
G1 F1800
G1 X196.833 Y269.758 E9.35197
M107
G1 X198.07 Y269.758 F18000
M107
G1 F1800
G1 X269.758 Y198.07 E9.19339
M107
G1 X269.758 Y199.306 F18000
M107
G1 F1800
G1 X199.306 Y269.758 E9.03482
M107
M73 P96 R1
G1 X200.543 Y269.758 F18000
M107
G1 F1800
G1 X269.758 Y200.543 E8.87625
M107
G1 X269.758 Y201.78 F18000
M107
G1 F1800
G1 X201.78 Y269.758 E8.71768
M107
G1 X203.016 Y269.758 F18000
M107
G1 F1800
G1 X269.758 Y203.016 E8.5591
M107
G1 X269.758 Y204.253 F18000
M107
G1 F1800
G1 X204.253 Y269.758 E8.40053
M107
G1 X205.489 Y269.758 F18000
M107
G1 F1800
G1 X269.758 Y205.489 E8.24196
M107
G1 X269.758 Y206.726 F18000
M107
G1 F1800
G1 X206.726 Y269.758 E8.08339
M107
G1 X207.962 Y269.758 F18000
M107
G1 F1800
G1 X269.758 Y207.962 E7.92482
M107
G1 X269.758 Y209.199 F18000
M107
G1 F1800
G1 X209.199 Y269.758 E7.76624
M107
M73 P97 R1
G1 X210.435 Y269.758 F18000
M107
G1 F1800
G1 X269.758 Y210.435 E7.60767
M107
G1 X269.758 Y211.672 F18000
M107
G1 F1800
G1 X211.672 Y269.758 E7.4491
M107
G1 X212.908 Y269.758 F18000
M107
G1 F1800
G1 X269.758 Y212.908 E7.29053
M107
G1 X269.758 Y214.145 F18000
M107
G1 F1800
G1 X214.145 Y269.758 E7.13195
M107
G1 X215.381 Y269.758 F18000
M107
G1 F1800
G1 X269.758 Y215.381 E6.97338
M107
M73 P97 R0
G1 X269.758 Y216.618 F18000
M107
G1 F1800
G1 X216.618 Y269.758 E6.81481
M107
G1 X217.854 Y269.758 F18000
M107
G1 F1800
G1 X269.758 Y217.854 E6.65624
M107
G1 X269.758 Y219.091 F18000
M107
G1 F1800
G1 X219.091 Y269.758 E6.49766
M107
G1 X220.327 Y269.758 F18000
M107
G1 F1800
G1 X269.758 Y220.327 E6.33909
M107
M73 P98 R0
G1 X269.758 Y221.564 F18000
M107
G1 F1800
G1 X221.564 Y269.758 E6.18052
M107
G1 X222.8 Y269.758 F18000
M107
G1 F1800
G1 X269.758 Y222.8 E6.02195
M107
G1 X269.758 Y224.037 F18000
M107
G1 F1800
G1 X224.037 Y269.758 E5.86338
M107
G1 X225.273 Y269.758 F18000
M107
G1 F1800
G1 X269.758 Y225.273 E5.7048
M107
G1 X269.758 Y226.51 F18000
M107
G1 F1800
G1 X226.51 Y269.758 E5.54623
M107
G1 X227.746 Y269.758 F18000
M107
G1 F1800
G1 X269.758 Y227.746 E5.38766
M107
G1 X269.758 Y228.983 F18000
M107
G1 F1800
G1 X228.983 Y269.758 E5.22909
M107
G1 X230.219 Y269.758 F18000
M107
G1 F1800
G1 X269.758 Y230.219 E5.07051
M107
G1 X269.758 Y231.456 F18000
M107
G1 F1800
G1 X231.456 Y269.758 E4.91194
M107
G1 X232.692 Y269.758 F18000
M107
G1 F1800
G1 X269.758 Y232.692 E4.75337
M107
G1 X269.758 Y233.929 F18000
M107
G1 F1800
G1 X233.929 Y269.758 E4.5948
M107
G1 X235.165 Y269.758 F18000
M107
G1 F1800
G1 X269.758 Y235.165 E4.43622
M107
M73 P99 R0
G1 X269.758 Y236.402 F18000
M107
G1 F1800
G1 X236.402 Y269.758 E4.27765
M107
G1 X237.638 Y269.758 F18000
M107
G1 F1800
G1 X269.758 Y237.638 E4.11908
M107
G1 X269.758 Y238.875 F18000
M107
G1 F1800
G1 X238.875 Y269.758 E3.96051
M107
G1 X240.112 Y269.758 F18000
M107
G1 F1800
G1 X269.758 Y240.112 E3.80193
M107
G1 X269.758 Y241.348 F18000
M107
G1 F1800
G1 X241.348 Y269.758 E3.64336
M107
G1 X242.585 Y269.758 F18000
M107
G1 F1800
G1 X269.758 Y242.585 E3.48479
M107
G1 X269.758 Y243.821 F18000
M107
G1 F1800
G1 X243.821 Y269.758 E3.32622
M107
G1 X245.058 Y269.758 F18000
M107
G1 F1800
G1 X269.758 Y245.058 E3.16764
M107
G1 X269.758 Y246.294 F18000
M107
G1 F1800
G1 X246.294 Y269.758 E3.00907
M107
G1 X247.531 Y269.758 F18000
M107
G1 F1800
G1 X269.758 Y247.531 E2.8505
M107
G1 X269.758 Y248.767 F18000
M107
G1 F1800
G1 X248.767 Y269.758 E2.69193
M107
G1 X250.004 Y269.758 F18000
M107
G1 F1800
G1 X269.758 Y250.004 E2.53336
M107
G1 X269.758 Y251.24 F18000
M107
G1 F1800
G1 X251.24 Y269.758 E2.37478
M107
G1 X252.477 Y269.758 F18000
M107
G1 F1800
G1 X269.758 Y252.477 E2.21621
M107
G1 X269.758 Y253.713 F18000
M107
G1 F1800
G1 X253.713 Y269.758 E2.05764
M107
G1 X254.95 Y269.758 F18000
M107
G1 F1800
G1 X269.758 Y254.95 E1.89907
M107
G1 X269.758 Y256.186 F18000
M107
G1 F1800
G1 X256.186 Y269.758 E1.74049
M107
G1 X257.423 Y269.758 F18000
M107
G1 F1800
G1 X269.758 Y257.423 E1.58192
M107
G1 X269.758 Y258.659 F18000
M107
G1 F1800
G1 X258.659 Y269.758 E1.42335
M107
G1 X259.896 Y269.758 F18000
M107
G1 F1800
G1 X269.758 Y259.896 E1.26478
M107
G1 X269.758 Y261.132 F18000
M107
G1 F1800
G1 X261.132 Y269.758 E1.1062
M107
G1 X262.369 Y269.758 F18000
M107
G1 F1800
G1 X269.758 Y262.369 E0.94763
M107
G1 X269.758 Y263.605 F18000
M107
G1 F1800
G1 X263.605 Y269.758 E0.78906
M107
G1 X264.842 Y269.758 F18000
M107
G1 F1800
G1 X269.758 Y264.842 E0.63049
M107
G1 X269.758 Y266.078 F18000
M107
G1 F1800
G1 X266.078 Y269.758 E0.47191
M107
G1 X267.315 Y269.758 F18000
M107
G1 F1800
G1 X269.758 Y267.315 E0.31334
M107
G1 X269.758 Y268.551 F18000
M107
G1 F1800
G1 X268.551 Y269.758 E0.15477
M107
G1 E-0.75 F3000
M204 S1500
G1 Z0.75 F18000
; stop printing object 250x250x0_25.stl id:0 copy 0
EXCLUDE_OBJECT_END NAME=250x250x0_25_stl_id_0_copy_0
M107
;TYPE:Custom
print_end    ;end script from macro
M73 P100 R0
; filament used [mm] = 6568.03
; filament used [cm3] = 15.80
; filament used [g] = 16.75
; filament cost = 0.44
; total filament used [g] = 16.75
; total filament cost = 0.44
; total layers count = 1
; estimated printing time (normal mode) = 41m 9s

; SuperSlicer_config = begin
; allow_empty_layers = 0
; arc_fitting = 0
; arc_fitting_tolerance = 5%
; avoid_crossing_not_first_layer = 1
; avoid_crossing_perimeters = 0
; avoid_crossing_perimeters_max_detour = 0
; avoid_crossing_top = 1
; bed_custom_model = 
; bed_custom_texture = 
; bed_shape = 0x0,300x0,300x300,0x300
; bed_temperature = 100
; before_layer_gcode = ;BEFORE_LAYER_CHANGE\n;[layer_z]\n\n
; between_objects_gcode = 
; bottom_fill_pattern = monotonicgapfill
; bottom_solid_layers = 4
; bottom_solid_min_thickness = 1
; bridge_acceleration = 3000
; bridge_angle = 0
; bridge_fan_speed = -1
; bridge_fill_pattern = monotonic
; bridge_flow_ratio = 70%
; bridge_internal_acceleration = 0
; bridge_internal_fan_speed = -1
; bridge_overlap = 90%
; bridge_overlap_min = 80%
; bridge_speed = 60
; bridge_speed_internal = 150%
; bridge_type = nozzle
; bridged_infill_margin = 300%
; brim_acceleration = 0
; brim_ears = 0
; brim_ears_detection_length = 1
; brim_ears_max_angle = 120
; brim_ears_pattern = concentric
; brim_inside_holes = 0
; brim_per_object = 0
; brim_separation = 0
; brim_speed = 50%
; brim_width = 0
; brim_width_interior = 0
; chamber_temperature = 45
; clip_multipart_objects = 1
; color_change_gcode = M600
; compatible_printers_condition_cummulative = "printer_model=~/.*Voron_v2.*/ and nozzle_diameter[0]==0.8";"printer_model=~/.*Voron.*/ and printer_notes=~/.*E3DV6.*/"
; complete_objects = 0
; complete_objects_one_skirt = 0
; complete_objects_sort = object
; cooling_tube_length = 5
; cooling_tube_retraction = 91.5
; curve_smoothing_angle_concave = 160
; curve_smoothing_angle_convex = 160
; curve_smoothing_cutoff_dist = 4
; curve_smoothing_precision = 0
; default_acceleration = 3000
; default_fan_speed = 0
; default_filament_profile = "Basic PLA @VORON"
; default_print_profile = 0.3mm 0.8nozzle
; default_speed = 100
; deretract_speed = 30
; disable_fan_first_layers = 3
; dont_support_bridges = 0
; draft_shield = disabled
; duplicate_distance = 6
; end_filament_gcode = ""
; end_gcode = print_end    ;end script from macro
; enforce_full_fill_volume = 1
; enforce_retract_first_layer = 1
; ensure_vertical_shell_thickness = 1
; exact_last_layer_height = 0
; external_infill_margin = 150%
; external_perimeter_acceleration = 0
; external_perimeter_cut_corners = 0%
; external_perimeter_extrusion_change_odd_layers = 0
; external_perimeter_extrusion_spacing = 
; external_perimeter_extrusion_width = 93%
; external_perimeter_fan_speed = -1
; external_perimeter_overlap = 100%
; external_perimeter_speed = 40
; external_perimeters_first = 1
; external_perimeters_hole = 1
; external_perimeters_nothole = 1
; external_perimeters_vase = 0
; extra_loading_move = -2
; extra_perimeters = 0
; extra_perimeters_odd_layers = 0
; extra_perimeters_overhangs = 0
; extruder_clearance_height = 20
; extruder_clearance_radius = 70
; extruder_colour = #FFE3CA
; extruder_fan_offset = 0%
; extruder_offset = 0x0
; extruder_temperature_offset = 0
; extrusion_axis = E
; extrusion_multiplier = 1
; extrusion_spacing = 
; extrusion_width = 107%
; fan_below_layer_time = 0
; fan_kickstart = 0
; fan_percentage = 0
; fan_printer_min_speed = 0
; fan_speedup_overhangs = 1
; fan_speedup_time = 0
; feature_gcode = 
; filament_colour = #000000
; filament_cooling_final_speed = 3.4
; filament_cooling_initial_speed = 2.2
; filament_cooling_moves = 4
; filament_cooling_zone_pause = 0
; filament_cost = 26
; filament_custom_variables = ""
; filament_density = 1.06
; filament_diameter = 1.75
; filament_dip_extraction_speed = 70
; filament_dip_insertion_speed = 33
; filament_enable_toolchange_part_fan = 0
; filament_enable_toolchange_temp = 0
; filament_load_time = 0
; filament_loading_speed = 28
; filament_loading_speed_start = 3
; filament_max_overlap = 100%
; filament_max_speed = 0
; filament_max_volumetric_speed = 15
; filament_max_wipe_tower_speed = 0
; filament_melt_zone_pause = 0
; filament_minimal_purge_on_wipe_tower = 15
; filament_notes = ""
; filament_ramming_parameters = "120 100 5.70968 6.03226 7 8.25806 9 9.19355 9.3871 9.77419 10.129 10.3226 10.4516 10.5161| 0.05 5.69677 0.45 6.15484 0.95 8.76774 1.45 9.20323 1.95 9.95806 2.45 10.3871 2.95 10.5677 3.45 7.6 3.95 7.6 4.45 7.6 4.95 7.6"
; filament_settings_id = "ABS+ eSun @VORON - Bob 2024 05 01 a 260C 100Bed"
; filament_shrink = 100%
; filament_skinnydip_distance = 31
; filament_soluble = 0
; filament_spool_weight = 0
; filament_toolchange_delay = 0
; filament_toolchange_part_fan_speed = 50
; filament_toolchange_temp = 200
; filament_type = ABS+
; filament_unload_time = 0
; filament_unloading_speed = 90
; filament_unloading_speed_start = 100
; filament_use_fast_skinnydip = 0
; filament_use_skinnydip = 0
; filament_vendor = (Unknown)
; filament_wipe_advanced_pigment = 0.5
; fill_angle = 315
; fill_angle_cross = 1
; fill_angle_increment = 0
; fill_density = 18%
; fill_pattern = gyroid
; fill_smooth_distribution = 15%
; fill_smooth_width = 50%
; fill_top_flow_ratio = 100%
; first_layer_acceleration = 1000
; first_layer_acceleration_over_raft = 0
; first_layer_bed_temperature = 100
; first_layer_extrusion_spacing = 
; first_layer_extrusion_width = 116%
; first_layer_flow_ratio = 100%
; first_layer_height = 0.25
; first_layer_infill_speed = 30
; first_layer_min_speed = 30
; first_layer_size_compensation = -0.1
; first_layer_size_compensation_layers = 1
; first_layer_speed = 30
; first_layer_speed_over_raft = 30
; first_layer_temperature = 260
; full_fan_speed_layer = 0
; fuzzy_skin = none
; fuzzy_skin_point_dist = 200%
; fuzzy_skin_thickness = 150%
; gap_fill_acceleration = 0
; gap_fill_enabled = 1
; gap_fill_extension = 0
; gap_fill_fan_speed = -1
; gap_fill_flow_match_perimeter = 0%
; gap_fill_last = 0
; gap_fill_max_width = 0
; gap_fill_min_area = 100%
; gap_fill_min_length = 0
; gap_fill_min_width = 0
; gap_fill_overlap = 100%
; gap_fill_speed = 40
; gcode_ascii = 0
; gcode_comments = 0
; gcode_filename_illegal_char = [<>:"/\\\\|?*]
; gcode_flavor = klipper
; gcode_label_objects = 1
; gcode_precision_e = 5
; gcode_precision_xyz = 3
; gcode_resolution = 0
; gcode_substitutions = 
; high_current_on_filament_swap = 0
; hole_size_compensation = -0.05
; hole_size_threshold = 100
; hole_to_polyhole = 0
; hole_to_polyhole_threshold = 0.01
; hole_to_polyhole_twisted = 1
; host_type = octoprint
; infill_acceleration = 4000
; infill_anchor = 600%
; infill_anchor_max = 0
; infill_connection = connected
; infill_connection_bottom = notconnected
; infill_connection_bridge = connected
; infill_connection_solid = notconnected
; infill_connection_top = notconnected
; infill_dense = 1
; infill_dense_algo = autosmall
; infill_every_layers = 1
; infill_extruder = 1
; infill_extrusion_change_odd_layers = 0
; infill_extrusion_spacing = 
; infill_extrusion_width = 149%
; infill_fan_speed = -1
; infill_first = 0
; infill_only_where_needed = 0
; infill_overlap = 20%
; infill_speed = 125
; inherits_cummulative = "0.15mm 0.8nozzle V2";"Basic ABS @VORON";"Voron_v2_300_afterburner 0.8 nozzle"
; init_z_rotate = 0
; interface_shells = 0
; ironing = 0
; ironing_acceleration = 0
; ironing_angle = -1
; ironing_flowrate = 15%
; ironing_spacing = 0.1
; ironing_speed = 50%
; ironing_type = top
; layer_gcode = ;AFTER_LAYER_CHANGE\n;[layer_z]
; layer_height = 0.2
; lift_min = 0
; machine_limits_usage = time_estimate_only
; machine_max_acceleration_e = 10000
; machine_max_acceleration_extruding = 1500
; machine_max_acceleration_retracting = 1500
; machine_max_acceleration_travel = 10000,1250
; machine_max_acceleration_x = 9000
; machine_max_acceleration_y = 9000
; machine_max_acceleration_z = 500
; machine_max_feedrate_e = 120
; machine_max_feedrate_x = 500
; machine_max_feedrate_y = 500
; machine_max_feedrate_z = 12
; machine_max_jerk_e = 2.5
; machine_max_jerk_x = 5
; machine_max_jerk_y = 5
; machine_max_jerk_z = 0.2
; machine_min_extruding_rate = 0
; machine_min_travel_rate = 0
; max_fan_speed = 0
; max_gcode_per_second = 1500
; max_layer_height = 75%
; max_print_height = 300
; max_print_speed = 250
; max_speed_reduction = 90%
; max_volumetric_extrusion_rate_slope_negative = 0
; max_volumetric_extrusion_rate_slope_positive = 0
; max_volumetric_speed = 14
; milling_after_z = 200%
; milling_extra_size = 150%
; milling_post_process = 0
; milling_speed = 30
; milling_toolchange_end_gcode = 
; milling_toolchange_start_gcode = 
; min_bead_width = 85%
; min_feature_size = 25%
; min_layer_height = 0.0875
; min_length = 0
; min_print_speed = 15
; min_skirt_length = 10
; min_width_top_surface = 100%
; mmu_segmented_region_max_width = 0
; model_precision = 0.0001
; no_perimeter_unsupported_algo = none
; notes = TODO: check the size of the extruder and the y-bar clearance. Optimize & test supports.
; nozzle_diameter = 0.8
; only_one_perimeter_first_layer = 0
; only_one_perimeter_top = 0
; only_one_perimeter_top_other_algo = 0
; only_retract_when_crossing_perimeters = 0
; ooze_prevention = 0
; output_filename_format = [input_filename_base].gcode
; over_bridge_flow_ratio = 110%
; overhangs_acceleration = 0
; overhangs_fan_speed = -1
; overhangs_reverse = 1
; overhangs_reverse_threshold = 300%
; overhangs_speed = 100%
; overhangs_speed_enforce = 0
; overhangs_width = 110%
; overhangs_width_speed = 50%
; parallel_objects_step = 0
; parking_pos_retraction = 92
; pause_print_gcode = M601
; perimeter_acceleration = 2000
; perimeter_bonding = 0%
; perimeter_extruder = 1
; perimeter_extrusion_change_odd_layers = 0
; perimeter_extrusion_spacing = 
; perimeter_extrusion_width = 0
; perimeter_fan_speed = -1
; perimeter_generator = classic
; perimeter_loop = 0
; perimeter_loop_seam = rear
; perimeter_overlap = 100%
; perimeter_round_corners = 0
; perimeter_speed = 100
; perimeters = 6
; physical_printer_settings_id = 
; post_process = 
; print_custom_variables = 
; print_extrusion_multiplier = 100%
; print_retract_length = -1
; print_retract_lift = -1
; print_settings_id = 0.20mm 0.8nozzle V2 - 2024 04 30 a  ellis widths after EM
; print_temperature = 0
; printer_custom_variables = 
; printer_model = Voron_v2_300_afterburner
; printer_notes = Unoffical profile.\nE3DV6
; printer_settings_id = Voron_v2_300_afterburner 0.8 nozzle 2024 04 24 a (as per Ellis PIF)
; printer_technology = FFF
; printer_variant = 0.8
; printer_vendor = 
; raft_contact_distance = 0.1
; raft_expansion = 1.5
; raft_first_layer_density = 90%
; raft_first_layer_expansion = 3
; raft_interface_layer_height = 0
; raft_layer_height = 0
; raft_layers = 0
; remaining_times = 1
; remaining_times_type = m73
; resolution = 0.0125
; resolution_internal = 0.1
; retract_before_travel = 2
; retract_before_wipe = 0%
; retract_layer_change = 0
; retract_length = 0.75
; retract_length_toolchange = 10
; retract_lift = 0.5
; retract_lift_above = 0
; retract_lift_before_travel = 2
; retract_lift_below = 500
; retract_lift_first_layer = 0
; retract_lift_top = "All surfaces"
; retract_restart_extra = 0
; retract_restart_extra_toolchange = 0
; retract_speed = 50
; seam_angle_cost = 80%
; seam_gap = 0
; seam_gap_external = 0
; seam_notch_all = 0
; seam_notch_angle = 250
; seam_notch_inner = 0
; seam_notch_outer = 0
; seam_position = cost
; seam_travel_cost = 20%
; seam_visibility = 1
; silent_mode = 0
; single_extruder_multi_material = 0
; single_extruder_multi_material_priming = 1
; skirt_brim = 0
; skirt_distance = 3
; skirt_distance_from_brim = 1
; skirt_extrusion_width = 0
; skirt_height = 1
; skirts = 1
; slice_closing_radius = 0.049
; slicing_mode = regular
; slowdown_below_layer_time = 15
; small_perimeter_max_length = 20
; small_perimeter_min_length = 6
; small_perimeter_speed = 30
; solid_fill_pattern = monotonic
; solid_infill_acceleration = 0
; solid_infill_below_area = 0
; solid_infill_every_layers = 0
; solid_infill_extruder = 1
; solid_infill_extrusion_change_odd_layers = 0
; solid_infill_extrusion_spacing = 
; solid_infill_extrusion_width = 130%
; solid_infill_fan_speed = -1
; solid_infill_overlap = 100%
; solid_infill_speed = 100
; solid_over_perimeters = 2
; spiral_vase = 0
; standby_temperature_delta = -5
; start_filament_gcode = ""
; start_gcode = ; M190 S0\n; M109 S0 ; uncomment to remove set&wait temp gcode added automatically after this start gcode\nprint_start EXTRUDER={first_layer_temperature[initial_extruder] + extruder_temperature_offset[initial_extruder]} BED=[first_layer_bed_temperature] CHAMBER=[chamber_temperature]
; start_gcode_manual = 0
; support_material = 0
; support_material_acceleration = 0
; support_material_angle = 0
; support_material_angle_height = 0
; support_material_auto = 1
; support_material_bottom_contact_distance = 0.15
; support_material_bottom_interface_layers = -1
; support_material_buildplate_only = 1
; support_material_closing_radius = 2
; support_material_contact_distance = 0.15
; support_material_contact_distance_type = filament
; support_material_enforce_layers = 0
; support_material_extruder = 0
; support_material_extrusion_width = 100%
; support_material_fan_speed = -1
; support_material_interface_acceleration = 0
; support_material_interface_angle = 90
; support_material_interface_angle_increment = 0
; support_material_interface_contact_loops = 0
; support_material_interface_extruder = 0
; support_material_interface_fan_speed = -1
; support_material_interface_layer_height = 0
; support_material_interface_layers = 1
; support_material_interface_pattern = sawtooth
; support_material_interface_spacing = 0.3
; support_material_interface_speed = 70
; support_material_layer_height = 0
; support_material_pattern = rectilinear
; support_material_spacing = 1.2
; support_material_speed = 90
; support_material_style = grid
; support_material_synchronize_layers = 0
; support_material_threshold = 30
; support_material_with_sheath = 0
; support_material_xy_spacing = 0.6
; temperature = 260
; template_custom_gcode = 
; thin_perimeters = 100%
; thin_perimeters_all = 20%
; thin_walls = 1
; thin_walls_acceleration = 0
; thin_walls_merge = 1
; thin_walls_min_width = 50%
; thin_walls_overlap = 50%
; thin_walls_speed = 40
; threads = 16
; thumbnails = 64x64,400x300
; thumbnails_color = #018aff
; thumbnails_custom_color = 0
; thumbnails_end_file = 0
; thumbnails_format = PNG
; thumbnails_tag_format = 0
; thumbnails_with_bed = 1
; time_cost = 0
; time_estimation_compensation = 100%
; time_start_gcode = 20
; time_toolchange = 30
; tool_name = ""
; toolchange_gcode = 
; top_fan_speed = -1
; top_fill_pattern = monotonicgapfill
; top_infill_extrusion_spacing = 
; top_infill_extrusion_width = 93%
; top_solid_infill_acceleration = 0
; top_solid_infill_speed = 50
; top_solid_layers = 5
; top_solid_min_thickness = 1
; travel_acceleration = 1500
; travel_deceleration_use_target = 1
; travel_speed = 300
; travel_speed_z = 0
; use_firmware_retraction = 0
; use_relative_e_distances = 1
; use_volumetric_e = 0
; variable_layer_height = 1
; wall_distribution_count = 1
; wall_transition_angle = 10
; wall_transition_filter_deviation = 25%
; wall_transition_length = 100%
; wipe = 0
; wipe_advanced = 0
; wipe_advanced_algo = linear
; wipe_advanced_multiplier = 60
; wipe_advanced_nozzle_melted_volume = 120
; wipe_extra_perimeter = 0
; wipe_inside_depth = 50%
; wipe_inside_end = 1
; wipe_inside_start = 0
; wipe_into_infill = 0
; wipe_into_objects = 0
; wipe_only_crossing = 1
; wipe_speed = 0
; wipe_tower = 1
; wipe_tower_bridging = 10
; wipe_tower_brim_width = 2
; wipe_tower_no_sparse_layers = 0
; wipe_tower_rotation_angle = 0
; wipe_tower_speed = 80
; wipe_tower_width = 60
; wipe_tower_wipe_starting_speed = 33%
; wipe_tower_x = 180
; wipe_tower_y = 140
; wiping_volumes_extruders = 70,70
; wiping_volumes_matrix = 0
; xy_inner_size_compensation = 0
; xy_size_compensation = 0
; z_offset = 0
; z_step = 0.00625
; SuperSlicer_config = end
