; generated by SuperSlicer 2.5.59.8 on 2024-05-01 at 07:34:56 UTC


;
; thumbnail begin 64x64 5072
; iVBORw0KGgoAAAANSUhEUgAAAEAAAABACAYAAACqaXHeAAAOoklEQVR4Ad2be4xV1RXG1znn3nkyw2
; OYGQaGYWZ4zjDDQyS8IkybqsWYmrZAIxHBilGRWKuisWCL8k9bTFqp2vjEVIJaW7SmFguI76itVWyL
; RqtgrUWtD6pojKaN3b/D/W4XV1AeA1zcyb73nLPPOXuvtb/12GuvY9YNJY5ja2lpyZSUlFgURel5v3
; 79koqKCvtCFwjt6OgoS5IkJZza2NiYVFVVRTqvq6uLv5CMgCgIzGazlslkjNmHIRxzvUePHhGM8czh
; ni9EgUhmFuIF+REjRpR6Eaiuro7KysrS+7lWX1+fiGlHbIHgyZMnV4kIzvv375+X9RwjSsQYiURDQ0
; MM02jv1atX1KdPn+iIYgSDLS0tTf8hBFgzuxIBziFMbbou8YDw8vLySPeCFI4rKyut6AuDZ4YDhGOO
; xYTBgwdnRawgL/mnDh06NAuT9AzHvEMMCcRHMLWoCwPs7OzMa3kUW3Nzc0aEMosjR44spZ3CNdp79+
; 6dtwIDBw5MQIcYgTjACLVjMRCjohIJBivIS3sL4n4G+RdzZPo4z6EmklLkGu1eN9AGasQY2opCSWow
; NTU1KeRl2vr27RvrGDj7WeY6yk4EUnr27BnJFEr5iSESCSlD9enfeVgIB4rBg4t1jVkG4hBAARVNTU
; 0ZEQozRo8eXS4fAGLnnzLj9GfWrf7k7DnfXMo1RMA7RgMGDEgEeSooaG1tzUqsQA7PqM9DUpgNDZKO
; IYjZo03i4OGas+sxz9HG9dZBA5sXnDpjKcSr3njFpff7GQcVeof8BKGMin4QYnKWww46I2Ti1BnnHH
; vFxT8M8ZCHAHl6A/vXN69bfdVWT7zq2luu3Dp+dHsXDJZe4XmIR8y8CNCv7wOREDMOWoEQ/kUkkNcg
; wgAjqmQSYqdMmVItWYbwixbMu2x3hBfWZReetZJ3QLS3AhyjP0QkfUjspEwRy4PGBMmdnx20cSECUI
; I6ZpDDh7S2APG9IV713lUrUjRIzLxv4RGgdnSDFxFZom4tkjW8MnXOYLRwkYgAR8knCm5fCC+sPB/e
; Gfm1BP8wWaZWHqP3PkGrkNNtlgKt7NbwMbKqNhgzbty4Cg2wpamx+eJzTrvsQIj3uqF/fW0zaMOyyJ
; 9glnGmRCTET5o0qQpmacJYiDG2bil0gnaGcMkZnWGjhQYGOWpkWyuD7g7iC9Eg/cNkeLHjXOaRAkIY
; j0QC/XTA7jQd8BJ1JOjJKxvQr+5T5q27K7rEQ57x7A7yslT+Pm+a96uEmc5r5Nra2tjDcUhLU/P6W6
; 95+WAS70Xi6FFtXThfLLS8VRgyZEhWOin1OYJy9LEHxrzfUSe/IJFSYul6/plzlh4KwncnEiIciAuZ
; EOpXoIo1CKlcR5QVhNnr4uxtCqnGhrrmc+bOPCzEezRgLkFDoWj4BZj0AURzTQs1rVn2qvgFyZTxY7
; o23HZoIL+3aJC/4JFw1FFHVXoTyszDLE1oWEtk91okeGDkiKGt35k/e+nhJnh3VesJWQVpfWZcYitR
; Rjdo1Zpz8FK99rkMuPeWFVuLkXhVxodIgAYIl9MmVMiKSQRc6C3SM3uMSOP8YOrWXP/jomYCddmis1
; YK8l4kRo0aVSZlqJUmS2oxBB/Dt+9S4A6wCa5ufNYBuriHoq4NaMBcQhhxR5jhrQKepBiDx6jFnESC
; JfenRMA7GxPGdnQVOxOoKEhZA0QAiEsMcJi8udR6x5/nPUiFt6loUtCASOzrSu9w1BuXL7mfsbLp4g
; M2LNxY4fqZl7WTJwk6UnHghxOg4WWoIWxuzpt5YtGLBPWk46bNY8Yxl959xmpoGU8BBW1tbfkQXxr1
; 4kecQ7tmkrD0RJOG/0ycWHtDXettP1n6ULEzwZtLhfR8tEl+g6JYICIN53vZSDcvAhpilqXZbPz9TH
; b6I1F082azjc/OnfFOsTNBHiTrm8IAD9ZOdHoGpQURwGFIkRDOw2LcZkZR00tmT75p9vp7Zh+8b/bR
; K8NaP3787pVFzQQqClKijBhI4eM4KRwnC7hLGAoN2iuYld6ZTHRdFJ3+ltkbEO7rtp5VHz+2+Nz/Fj
; sTMJcoSCFb8Q0f+E11gV8LVIQwVY+gPcfU1vZ8oqz8Hs286g6zD6kcv3TMhI+LnQlCAxbBi7p2tdMF
; k6zAoLCmTjkUzk/q27fjxWzJ5veiODAgSgn/t9m7IOKPZr/eavY0116vr33zvuVLNhU7E1CQsgI4T/
; IR0oh4WWnZ/wOT4aaGJMncFcWXvxMlb++Ikg/fj+KP3jXb8ZrZlu+ZTR0WXIdrzb4NM94xe3uV2Xnf
; PQI8yHtX/Sz1ICEeRuRzFPL7dTnld4xF/dZFycZ3o2QHxIOAv5k9/lWz+uA7Ray9zjBr32b2Igz4k9
; ld7YEpA0KAc811xb+ekAfJ7KcLJGYeC9AQxKAqKL+Lo3jOfVH8+htRlMo9s7/B7KpGlCauc6iTw97n
; M2ZrEYstZk99w6xR4Yfzjoj1xE5zmYoAbmOa5BQUw4jq6qrbk+SOtyzaLsUHAzaZ3TMu7JVCZComgR
; nrzVbQBgquMjulGnUCikL9wai2ucXOhHWrr96aikCpNh9CPaOyciLQLjR9/zR7YbZZq6JtIdYSLTf7
; Oj7CdrPt68yubA60JzkGjQ9e5qb62o3PL1/yn2IkfkEI+eXNoOS/X5jV35kt353th9Cfmn2rJkgA90
; LoqWZDUYww4HmzR6cEsRBCEJe7zC4HHZtnnrijWAhn1s+cM2OpD7NbZXATmf2j47g2zOTjhbZfYrDR
; 7OdDg86MckSOCUD4g9kd6IFXzZ5HMZYUIORtszdh6Pr62htWLV/ywOEk/tofLX6gV3VVs5bP+Y2gki
; D/lUkSnZbJnBAYsOW9nKPjK0xB2R0XNmfKcghoDRtIT5jdBgNAwTUBFFU5PZDNIQRxov05swe/HJ5d
; eBgUJB4hGzvyAvEKfT7ETh8g1PY4Lr89ii7G5AHdQib8y2zbRcEA9A1iMCnsqt9ndjWiQRtEPmh2Pe
; YwziHk6ACuP5v9Xj7EYrNpCwNwnh7V9tihWk8A+Y62Ya2CPDPPJoscIaJJVpPbGWLgIZgUL47jaU+a
; 3SniVJnlNUHBrzA7+VmzB7yocPwPs+dOCL6CzGHQKTH3w0wxQQqW9cSmZYsO2nri0Ttv+OS8EOXWIo
; iVn+ICCpAMGjQo3QHLe4EpV8LNZEd8JY5r1kfRilfMNjO7WgfABGohOlK32OyVJWZdFTsBYD3C/zKz
; 49EDhfervnjMhI8OBuSP75o8T3SpKnLs8xHyIkAgUckK6TKRAGMcZ66O4znEAj6LCFUYdavZhfXh8a
; ADorrwj15AdPb0DMj4S33tw7+64tJHuoP4peefebO29wuDokKCj3wFhkT52BiVxnyqWnigMhycEkWD
; HzX7xWs7FeQHn0XMU2Z34wNMMKvCpIKK3SlU7oVhIIy1RM9MJj6QpAt2sxbOm5VCXrLtAyDQyCSrPR
; c1ijo7Oyvz2SDK2FJkNZvbW8vsVJBlq6Pogj0pSI+C35gt+6vZhiDv2yGUiimk7YXy8i20PWx200qz
; s+eXlIwZUFlZluRmaHT7sK59zUEA8k0D+jVLjP0eITSJHr+bHJAQT5gwocf06dNr046ZdR9Dw0dmvZ
; zPBYarQUFeEEUTWQ57WCs+wMxCJDXc8+o9QSmuiaINa8M64qbS0gtOrqubMrq6us+Q8vKyhsrKnesK
; t1HBAJU8fcnCeSv3hvBFC+Zd5mN9IFjpfdr1RgQkEqE96ejoKJ86dWrP+fPnDw97jBX5TnmAh4ma6p
; wlYz5gwiDDweRMpvq3UfTDl82eeSgQGizCNiwA8F9fUnLLooaGhV+L47bx2WyfwZlMWVWSxCXMTI6R
; 9TU1cZ+cmFFq+tREfv8uTcAaPryUxcqeiL//l9f+vbNtaJdmlDGysaMJZI9Qcf+cx5fSMW3atF4QPX
; v27GYy0dJ+fcaFYAR0tJWUT2xUImWotQENc5PkS+fE8cknJklnkPmapjAVFXESQWiIrFhViMJkknw4
; zirCIEpdRikz53d1FKz0Yji4eeCnMtGUUsM7mDCJsPY1lFAl9NIGMo499tiamTNnNs6aNWsgtGlTdR
; eoxC4lViKhXRWfv5NCDlPCYB2RKgxi2LBhJVmXPs/7fFoccsiAfZiKmVMmWhqfzKXFQTQpdpecO//y
; uCBb1We3cb8P82P71c77oUtbZ/mibE06RluiD9TGzUBGyQYKKXl4ec+Kyv6cOuU6DofXwOgWZaZRQB
; vvkCwrJV/2mxkkH1n3cx/vVCYI99Du0QRjkHed07bHr1SkLX0qOwQDE59tobRVwdPH1fn36SyKxCqj
; g1qYLu9TYeWmantLEPa5xZJlwVpRHbXTN4z3myD+eI+Zpvp0xesBiAcNIs5HUTVAn8crhek9L785oX
; R75fbl3NFd8pJ4J0qJcShLjDEUvDPyX6koX1AToXOf9qPMkT0WBiYkAF85EBRmecyYMeU+lq59d8n6
; 2LFjy/3MA0/BUe/03wFAtCAuL5SvUsQIkOLblZKvPvinD7/zo/wAMRea5PHtVYFLyI0gm0NFPlGS65
; Jrb3M9nCHafzABI5XERBFqBEtm0394xfthrp4XxD2EtXvlxUri4h2fKNqHvEGZPWVkSb59brA606zw
; r11YQdJ/ECUd4AfP88rmkmXh81qlsygjVXqGf63gRGThh1le48uB2+fMUWZSs8QABGntoHo4I58TJ0
; 7s4TVyLkkxD/H29vZSn2gNEqginHcqkYn7eB5I650QAKT1IRZMAxkegeQOe13AGNO1/f4UzaY0LpXO
; 0OoeAT6jVBraOzEQ4UUAZkprU4GvFBbPa8fWR2r8VyswoqWlZRcTC+N8eqz/FGe/i+DKzPhEZHlldE
; j1nqHyinSudxQOttAMMWClspAu79fm9IEWF9z95oWUrsRQ/TCmZDeO2D4VOSWCqzxCEYUG9nKLVlen
; clL8d4N4c17rA3GPLojUR1N6Z1NuX1LmVJ/fUiAeH75QrLorXf5/2cHoUe/3wvUAAAAASUVORK5CYI
; I=
; thumbnail end
;

;
; thumbnail begin 400x300 33872
; iVBORw0KGgoAAAANSUhEUgAAAZAAAAEsCAYAAADtt+XCAABjAklEQVR4Ae2dB3hU5da2V0IaKYQQkk
; BIQkLvvUsngPQmWEAFVEBRRBFBsFAsNHsBQQELqKCCBRGsqAgiioiooBRRKaJgw4b+3//emPm+ORwS
; ksn7TjLJeq7rufQcYfbeM3uvtVd51hJRKBQKhUKhUCgUCoWfEBQUJIq8Q78336Dfm0LhENWqVQtr3r
; x5dOPGjSOjo6OdPW2lS5cO6t69e0L79u3jypcvX8LFg81nhoeHS4MGDUqeeeaZZTmmKwPCZ9epUyei
; U6dOZVJSUkqIIwQHB0vr1q1Lme8usXbt2uGhoaHiAiEhIVKuXLlgfiOuKyoqyskXx/mnpqaGmPugNP
; cc1+cK6enpIZmZmWV69+5dLi4uTj2JQmELPLgY2pUrV163a9euN7dt27bi3nvvHRgfH2/9iU5ISAh+
; 8cUXb/rqq6827N69e93cuXPPdWF0IyIiZNq0aR2/+eabzUeOHNn9/PPPX1+5cuVQ204kJiYmaMyYMf
; U//PDDpRxr06ZNi9u0aRNr+zhhYWFyySWX1Pj0009f5Divv/76HRhDjL1NcN6c/2effbZq//79Wz76
; 6KNlw4cPr1ayZEmxiRIlSkitWrXCn3vuucn79u3byPFuuOGGNlynTXA93F9LliwZzb399ddfb+KYxn
; E5c/QKRbECDqRZs2ZR77///qP//PPP8Z9//nn/okWLLuIt1KYh5LOqV68etmbNmlt/+eWXg3/99dex
; V155ZSZORSyDyOall16a9ueff/4Cd+zYsaZjx45xtt9yIyMjg2bPnt3zjz/++MlznG7duiXYjg6IAs
; aOHdsQ5/H333//iXEfOXJkLQyxTeCQ+vbtWx7n/vvvvx89duzYYa7PtgPhXmjZsmUM39fx48d//+GH
; H75csGDBBeZ3s34vpKWlhXKfcZxff/31EP+ekZER6jLiUSiKFcybdLAxsGWmTp3aETZs2DDaRYqEzy
; SldMstt3SeNGlSK5M2i7JtBD0wxihkypQp7TGAJn0Rb/ttHWAIK1SoEDpixIhas2bN6mmMb5qL9F/W
; m3TY+eefX2n69OmdiEbMW7QTI4hT5Dhz5szpdfHFF1c3KTonaUZzLwQ1atQo6rbbbus2YcKEFhh1cQ
; BzfwUZZ1Vm8uTJZ1x77bXNmzRpEkt6U6FQWAQGNovOc8QmxXTiGK4LmzgnjIXr42DIzXGCXDlDD3DA
; XIvr4wB+I9ffG5/PNbmq53iD38jz/SkUCoVCoVAoFAqFQqFQKBQKhUKh8D+SkxLSRaFQKAoK6BMSEx
; ODXQroAIXJihUrhtBr76LLCXD+6Dpo90Wbwr+7AjoEjkELs8vjgKSkpGAEbt4tsjiP1Y/dvefh2de/
; IZbAdWRkZITQIuvqXuA+4J6jfZp7ztW9ADgOAsSyZcs678NNS0sL4buzrU9RKAolMBAItB5++OFhb7
; 311n0bNmxYgODMRbsnhmLevHmDER6uX79+3vjx45vxcItloIG4+uqrG2/dunX5unXr7qGNFWdi2xia
; 48i5555bEUElx7rzzjv7Gkdivd3Jo7VAD/PBBx8s4Z81atQIG3X+gClb1y79Hw9xJE3q1Wwv+QDOHR
; Hlxx9//Az/RI3tQnxYpUqV0Pvvv/9svjeEov3790920SqLQed34T5At3TBBRdUdnFv49Svu+66llwP
; z9Ddd9/dPzY2Vtu3FEUbPEzoLA4cOLAVUeBPP/30zUMPPXQhb4ZiERynUaNGkZs3b34MAR2is9dee2
; 0OD7hYBMaJt3SU17/99tsPCPZwWHXr1o2w7UBwSk8++eSVXAsixz179rzNd2m7ZRaHiDYFwSaiwL27
; dm558Pbp93g7D29Ov2bUIvEBRB6XXXZZHdTXiOgQb950003tbIsCuRdwiHv37l3PvcB1zZ8//3zbLx
; P83meccUapL7744lXubUSBK1asmEgkJxbBcdCkvPHGG3dyv3EvvPPOO3N5MdMWYEWRB6H99ddf35ox
; FI899tioXr16WX8b5EEi1XPRRRdV4w2at9u2bdsmmFDf+hNmDF4Qx+EYL7/88i2I6Pj/xAGaNm0ajV
; KZ6G3SpEmtzTVaj0AwuPXr14/ijf3DjW+/suGFRw5k5zzyE41wnGrVqpW89dZbu7z55pt3L1y4cLiJ
; SMJdvLFzz82cObM7x8GoY+hdGFu0KUOHDq1KVMB4EuPgk1ykl8z9FTxs2LDaXAuO5MILL6xMBKIORF
; EsgGCKN8BSpUoFuxSd8UBzHER0LkdD8NllypQhvx7segQFSmwTjYRwTeIIFcolpl8+dNCU0zmOk0ma
; S/IIrodJA6SuXBpAPh+H6yKN6Q3uZ8+97bLWYu6zIPPdBRMxurwXFAqFItfwFMrz6jy8oxHt1FIoFI
; pihpML5fmhL9GIQqFQKAIMRAwUw205Dw9ttvsqFAqFopChd5e2Q/OTsnJRYFcoFMUEdJnQReWyYOgB
; o8hdH4ciOKS4Kw6RNSH3xPfn+ppojYXeDQtEHTZTVv5MafF90YjhahuhBxzD3Acnjud6wjC/D8dz2Y
; RBkwLX4rqRQKHIFVDc0ru/fPnycexnqFWrlpPVn2gGLr/88nroIJ5++ulrmjVrFu3iOBikQYMGpXI9
; tBifd9556S4EZ1xP27ZtY1lStHTp0svZqlemTBknlqNVq1Yx99133yDajNFd0O6Z30J5QUUjng1+7O
; d44YUXbmQzJS25Lu4F83sEjR49uu6zzz474cEHHxzStGnTKBctuVwT9xn321NPPTW2R48eiS5eKPjM
; Fi1alOJ+4zm65pprmrqeZqBQZAsM61lnnZXCGlOEYAjp7rrrrn6239x5wDp37hz/ySefrEREhxjs1V
; dfnW0MifWnjL3rGzdufBiBFiJHdAMNGzaMtL35EHEZDzIb9RDrofhGfCiWwXgQ9BWHDh3a7hEF3j9r
; yp3+dhy2ohEcxdlnn5327bfffsj1IEi97bbbutpekkW0wUZCtEoI9TgWxp3pBmIR3Av87gheuRe459
; D4cB/abmnmXkAz4hE5Mp0Bp6ibDxUFhho1aoQjnuOBZu82ozZcpBVQqvMWiCE0eP6CCy6oZlus5xEf
; svuaVabsRZ81a1YPtB1iGaVKlQriLZpr2blz51p2r5tozrrRwDj06tUriZEXX+3+Yuu7Ly7ZUdDOw0
; NfCuwYduPQoxhHwlpbDDwOxcUbOzvqEeodPHhwGwb+4osvrmmiN+v3Aumkm2++OZP77csvv3ydLZXc
; H7bvBfOZJSZOnHgGL2I8r4z50fEnigIHKt8qVaqEV6xYMdRVTpqHiQetevXqEaxoZd2oOADHiYuLY4
; hgeNWqVSNIWbgStxGpmeOE8b25cFLeGH/phVMLi+PIb0oLJ2IiuBDzvYVlZGQ4nSLIvWDug3CiXZf3
; NhMSjMPiGQrjPncVFZisAYM4Q83zGuGPLYsKhSKA4e9Cua/0dZ6WQqFQKBygoArl/oxGFAqFQmERgR
; J1ZEdVsCsUCkUBINCijuxIgV3naSkUimzhz/ZBf4y59ggQXcNzLSdfUyBHHdkRlbxYQnbfmwtwH3Ac
; fxzLXyPcdVS8Ik9ISEhwIr3lRmzXrl1pWhd79epVjo4acQC6TOrXr19y0qRJrSZPnnxGhQoVQlw8BB
; ynZs2a4YjOOBbCPVcPGyI6xICjRo2q1alTpzK0Mgd6yio30YjkE+hEWCrFdzd48OB0NiGKI7DIjB0n
; Q4cOrcKyMRcKdhxU5cqVw6666qpGCHlr167tpKuKc6edediwYVXZgNitW7cE14p8RREBxtC2QIsbv3
; 379qXpRf/xxx/3ff/99zvZfudibAjbB1nsg8ARkRY9/ewSF4vwKKNR9h45cmT34cOHdyDQQh9j24nE
; xcUFoYXZt2/fRoRg77777vxhgwd1Lwopq9MxPwV2DCvqbtbm8r2htZg2bVpHVgTbBL93w4YNS7733n
; sLjx49uheyuhkBn1gExzEvQyVYLIawlnsOYW316tWttzQnJiaWYLEYx+B60Hrx/Kr4UHFaXHnllQ1c
; qMqbNGkShTCLGxIHkjVSwboDwbCvXr16Og6EdamPPvroSDQrYhFcD3vJUXv/8MMPX/KgMTIEfYJtB4
; Lo65ZbbumM4Ozo94cOr1+78u1AcgI26EuBHQdiIt44XiZwIKyc5d62vTrXoypfu3btDF4muL/vueee
; s1hFLBbBcbiPUcZzb3NNOBPba6EB43W45xDwcj2o5Js3bx6tDkRxWrgUt1WtWjXs/PPPr1yrVq0Itq
; qJA3CTY9y7d++e0L9//2REYS5SS6igETeSUkL1bSIf+8OzsoBSvl/vng3eWP7gV4Fk+G1HI3ktsPOC
; 0qBBg+jMzMx45qi5vLeJfIcMGVK5TZs2sdx/LlTy3MfmGkoQWTH9gXtbHMEcJ9Sk5WJ79uyZVK9evZ
; KawlIUChS1opzrInpRr3Xklb62+xalIrq/CvUKhSKAgfOgmBxIBt4f1IVVCoVCkQM06siZqmBXKBSK
; k6Apq7xRFewKhUIhRUdR7m9qNKJQBBgyMjJCu3TpEo9oz9XI66xOpxMdVXXq1Cnpat2sp8ceoSPXxH
; FcFSnR2LRu3boUwkOPsE2jDju0FY3QRZWZmVkGfQcdcOIA3F+0aHfo0CHO3A+x/LurZgx0HSzK4t62
; vRzLG7RIN27cONLc26VYjiUKxcnwbArctm3bCjbDbdmy5Un6622LDwEGlhWm6EZYJHT99de3dtGKSS
; 896185Br3vixcvvtiF4TCfGXT77bf3RpOwZ8+et7m2Du1aV9eowx7zW2CvXbt2+DvvvDOX+4B7HCW2
; C6PL/YVGicVVaHweeOCBc1ina/vFhRcj7u1du3a9+d13333GPWdbWAt4iZw6dWoHBJt79+5dz1ZPWt
; y1W0zxHyAqQPfw+eefr2blJ6ImREcuNgV27Ngxjq16KMpRsK9cufI6+u3FMoimXnvttTmelbZsW0Sr
; YnulLeIydmBzPawY3fzmSx8EknEOFPqa0kLrwLpXBK+stOU3QlVue4Mf9wJjSHBU3Ausa+bfGYEilo
; Gz4H7mWUVYiyiQrIHtaIetjawZRnjI98bUCZ5f1Y8o/gsoYgcMGFCB2T/Dhw+vbv53mCuxngm7y+Kg
; UK6bByzURZjPZjhjOKI5DlFO8+bNy7iYMZQ1P6vk9Ck39nvyoXsWBZJRDkT6srCK9KVJX5WdMWNGd+
; 45ZkKxodI2PLPhWKU8c+bM7sy4EgfAgJtIPvzGG29sO3369E69e/cuFx5uX/OalQYOv+iii6rdfPPN
; nRFvulgFrCgiwLhjEP0x3oAb3vWbDA8A1+JivIo3mtav1X71Y/fsCSRDHMj0JRrh3sZp+GPSMsdxoV
; r3hufetp0lOBU835nra1IoihW0UF6w1HZfhUIRkND23MJBX+ZpKRQKRYFBo47CR41GFApFoQZvuhRx
; A8mwFifqPC2FwgFc9W1TWKPDJTExMZh9Ay6LbDExMUHJycklaL90WXznszkOvfbex2ElayAZ0+JKmw
; p2Gj1o06Zt1kXXlgc0eSB05Dky/y6ukNVVFUJrsctGAo7D88oz5EqQrPAjUKvadiJ8XqVKlULnz59/
; PkIjgztGjhxZy/YDwHHYBEe74qZNmxbDSy65pJYLBTvCSVowuRaOQw98lYy0DE1ZBR7zm9JCaMg9t3
; PnzrXoia644or65p4T28BpcJ9t3LjxYXQWrGx2IT7EkNOOizYFofC999470PZSNsBLF63MLMZat27d
; PU8//fQ1qP9FEbiYNWtWD9uGnRuF3dQo1xEZ/fzzz/tRe9tWxPKmxHa4999//1FEgaz+ZO2nbfEhDy
; xvZjgPhJQca9tHH6x59cm5ewPJcCr/j75GI9wLLJHixYh7G2Hgc889N5l727YQlZcwhIDcbwgd+fea
; NWuGO1Cvh2DMuRaOxeQERIG2IxFe7NDAIN7lelDl47i0BTiAYQxjSRcRCGNJGAvx0ksvTWOcQsuWLU
; u5SC9xU44ZM6Y+xp196MZxVXTR/07Kol+/fsmvrV099/Xnn1wTSMZSmT19iUZM6qrE5ZdfXo+1xqy2
; bdu2bZw4AKmxCy+8sDLH4BkaN25cExdpHwx4s2bNSj377LMTWA89atSoWi42e/J5xg7EM2qF0Sc4k9
; TU1JBgXZ0buHA5u4b8LepU0j+u86rc8BzL5XFSk5PSF91x0xuBZCCVp6cvBXbubWp7/sjjlypVKpj7
; 2+Wbukd4aI4VZF6WnF5TaGhoEHUQjqejTxTFAlrrKNrUEfEKhcI6VFFevOjLPC2FQqH4L6iivHhSox
; GFQuEzNOpQQlWwKxSWkDW5VlyMhvYGnSccw8XCqpPhKe57NxJo1KH0ps15WhSMKYTzHLlevER3Isdy
; 3SLL59NI4Pp6+O6wCy7WLigcAgOLoOnqq69uTL/7/ffff3a9evUiXHQ7JSUlBQ8dOrTKE088ccUzzz
; wzvnv37kkubhic1MUXX1x92bJlV7Elrnfv3il0hGjUocyO+Y1G6G6iJZcFYyytYkmbC2U5hrZr165l
; n3zyySt5joYNG1aVjicXLbnVq1cPX7hw4XCeVbaU0pUmlpElCQhjvwlt07QAo2IXRWCANwyM+v79+7
; ccP378dzYFLlq06KKyZcta/RFxSC1atIj+8MMPlyLQYpvakiVLRrN+1rZAq06dOie2w3EMBE2bNqxf
; NnnsiGmBZNCU/md+5mlVqVIl9L333lvo2RSI5qJq1arWF6YheOWzEevxHO3YsWNNkyZNomw7EBTxOE
; KEtQgQWdk8ZMiQDNvXg5NFT+YRH7I+d8SIETVdjo9RWAQOpFatWuEoVb/++utNjFQYPHhwuu3IgBuc
; 47ArGiUsN/6kSZPaukhl8TY4b968waiJP/3o/ffeff6RA4FkyJQFR18K7NzbqampoXfffXf/Tz/99E
; XWNs+YMaObi3Ehnl3lrKDmOZo9e3ZPk0EoYduBYBf69OmTzHP67bfffkg0j5MUyyCiatOmTRkEjvv2
; 7dvI1IkzzjgjVnevBxBwFgyOYz0rYw9cin9MGqtESkpKiHk7i3C5US09tUL69WNH3BxIxktZeOhLSg
; sxYEZGRlilSpXCXQoQMe6VK1cOT0tLCy1durQzcS3H4XllPS+Rgqv6BPk3Y39CatSoEcHxRBGYKCpe
; XwvlShv0NRpR+Ab97hQFCm3PVbqgtvsqFEUcOA+KoIFkmJSBQ11YpVAUUWjUofQHVcGuUFgEOUsK7v
; 7IXVIoPLlYqCkrZUHQ9jwt7mt/TK3lOT1ZWOvqOP64Hs/3prUTh3DV6RQVFSXt27cvjcDo0ksvrc1a
; Thc/JJ/ZoUOHOIRGV111VaM6deqU5MbRQrmyIGkrGmnQoEHJKVOmtJ8wYUILtvm5UJbzDCECZN/IpE
; mTWhnEuLIL8fHxJXr16lWOlmYWc7ky7rTqn3vuuRX53rBB/phsUSwxevTourZvSrw+Rn3Dhg0LEE0d
; OnRo+4MPPjiEH1UsgpuPB4wVswgcf/jhhy9XPb9y9nVXXKSiQGWhoK8Fdu7typUrh7L+lfsaIR3bNt
; FK2Ta6tBezMfTPP//8BbJCt2XLljG2owR2qFx77bXNESVjF9CUDRgwoILt42DPLrnkkhpoVH799ddD
; aGJwjio+dAD2Odueb+Ux7ChvuSERIBIhsPBJLMLzkC1fvnzc999/v/PQgW/2bnrp8cOBZGCURZ8U2P
; M6T4t7G83V448/fimrX3lBWrp06eUuInkEjQgOOQ4Gl+e2Ro0a1q0tdmbkyJG1OM7Ro0f3IuTt3r17
; gm0HQgaiX79+KYg2WdGLcHPo0KFVdXWuA7jyytws1apVC+vRo0dS586dE2w7Dw+4KczNHn77tImzAs
; moKIsXfUlpYQhTUlLCmJtlnqF441BCXRlBsgMdO3ZMOOuss1J4KXMlCmTboXm5jBwyZEil2rVrl3SV
; wjLnH9y4cePSffv2LY9ynXlgoggseG4Ol2tmtVCuDCT60u57qgYRF/Bnsdlfe9C5Ji2iK04J3ui0UK
; 4MNGq7r0JRgNCoQ1kUqAp2hcLP0PZcZVGizYVVCoUiG2jUoSzK1Gik8EBrJpZBR1XFihVD0HbUrVu3
; ZGhoqLNvOC0tLaRdu3Zx9KGXLFnyxP+nc6yUxYG25mnRWdm6detSHTt2LJORkeGsd5WOqipVqoSZ48
; SxJdBV5xaixsaNG0fSicbCLHEE2olpXz7zzDPLYn90fa4F8KU2bNiw5Msvv3zL4cOHd3z11VcbWAdr
; u50Qr9+8efPol156adru3bvXsaRm1qxZPc7pe+bQQDICSmV+mN8CO+24t99+e+9vvvlm865du95kER
; zt9LbfqrELw4cPr8bSKrQjq1atmtKsWbMo291V7HZnAyGiQ2zCli1bnuzUqVMZsQzPKuDt27c/j24N
; 7ciYMWPqq/gwn+DGQy164MCBrb///vtRnAh7iRlJIJbBDfjxxx8/wyrOo98fOrzqqUXPBNLDr1Taoq
; 8pLSL4Rx55ZARCPUR0TIOoV69ehG0HgqO69957Bx45cmQ3dgHD26dPn3K2j8OiKsarIEjGLiA+POec
; c9Jsi5+JNtDAYOdYO4z6n1W6GoVYAKmks88+Ow01uXkbqJWammr315N/HRU3ZatWrUrde9ftw9Y/t3
; h/ID3wSqVt+hKNYPBMxiDm6quvbjx37txzSTu72n6YnJxcguPccMMNbQYOHJjm4m0duxATExPMvvU5
; c+b0GjZsWFVXWwnj4uLCjHOqjGPkOMYe+UesUhxAaMrN6dIjU+u49IKztFCuVHrRl2iEFDNpGdeCPY
; 5hOxo4FbgOrsn1OBLPpGB/CR0VlqCFcqUye+rCKoUiG2h7rlJ5eqqCXaHwgmo7lMq80/bCKoUi4KBz
; rJRK36nRiKJQwGVRKjIyUlJTU0vQy+0pSmnUoVTaoy0FO4VjRp7zvMbGxjoTCmMHEhISStBJRXeYq2
; I1xXCuo2bNmuF0d7paocvn0n1GRxqU4gbEMy6cSKVKlUIfe+yxUWwLZEENe0HSUsrrHCul0jLzO08L
; pXe/fv1S33333fkfffTRMtp/XYgPMbSsmUWUjAARvUrVqlVDbR+Hz2vatGn0mjVrbkUQyD9btGgRbf
; s4WftaQti26jkO4spitbjqpptuasdKS7EIvHK3bt0Stm3btsKzJvOVlUtXBdJDqVQGGn2NRtiH/uij
; j4787bfffkB8iBNp27ZtrG1DGB8fH4zGgu2KiAIR7Z133nnptqMQxIcTJ05sgZjyr7/+OsZK7alTp3
; awLUHAziGe5PMRHyKynjdv3mBjT4vPMK3atWtHuwgjCYdZaP/+xvVPv77ysXcC6UFUKgOVvrT7ouNg
; ayhOZO3atTNQfpP2EQdgxtTChQuHM7Jo+vTpmWw/dBGBmHRSKMLD999//9EHHnjgnMTERCfpJXOccH
; OcPuvWrbtn5cqV1zFNQxR2QJFvzZJ79wTSA6hUBjp9KbDzNh0dHR1UunTpYFf1Ag9ImXEsk9Jy9qaO
; EyGCIrpi6KM4BMNlUa1zXaLIP7RQrlQWPHVEvCLgoAuflMrCQ233VQQENOpQKgsvNRpRFFroHCulsv
; BT52kpCgyeIhsFKe+uCY06lMrAoe2UFmJA6HrxEi24CJL5p6uVs3Sj8tmeTaguQecb35s/jlXgSExM
; DL755pszaVNjSyCteBVTkjVlpVQGKPM7T4sXymbNmkUvWLDggiVLlow2qFuuXDnregAMetWqVcPuuu
; uufmw9ZCcRx3GxYbFChQoh6Eeef/756+++++7+tWrVirAtceC8Wf87cuTIWk888cQVDz/88DBW9RbZ
; Pex4ysGDB6fv3LlzLYJAg4OLHpp/5cuPa3uuUhnIzE80gijw/vvvP/unn376BhEd4sMePXok2hYfli
; 5dOgingVgP+8O6WYyv7eMgPmSJFGJANiyyPhdFPlkXsQgcEit52ayImJLNhzhgl+NjChRccNOmTaMY
; P7Dny50fbl63+sNAekiUSmXO9KXAjlD4wgsvrMIIjz179ryNOLBRo0aRLiIDHNPGjRsfPnjw4LbVq1
; dPr1+/vvXd63xezZo1I1599dXZOA/GL7lY0QuqV68eOX/+/PO/+uqrDQgdx40b18QfS7kKFPXr1Kr0
; 6pMP7A2kB0OpVOaOFNjzOk8L4VzFihXDU1JSQk1aKcRlGsYcJ9QY3ghqLS5rINQl6tatG+Vqba4HJr
; IKSUtLC01PTw93XT8qcGitQ6ksHuzdpe1QUShsQLUdSmXxo7b7KvINXfikVBZfqoJd4RPiYmM06lAq
; lSeoCnZFnjGoZ6Y6EKVSeYL5XVh1MiiC013lWvvgEQa62nroged6/AGO4/p68oTslknVrlap/etPzQ
; 2oG12pVLpjfqMRDG3ZsmWDL7nkkhpXXnllg169eiXZ1ll4jsPndu/ePWH69OmdBg0alIqdc+Gw0Klw
; nOuuu67lxRdfXN3F9QAcR5s2bUqPHz++2RVXXFGfPSpSGICynC/hVP+NdNbUcSPeCKSbXKlUumN+Cu
; y0yN5+++29v//++50IEDdv3vwYTsT22ztv6AMHDkzZu3fv+l9//fXQ7t2711166aW1bWstGKvCSvDP
; P/989bFjxw4jduT6ECXaBNfTrl270mhu2BqJHuapp54aWyh2sPPFns5r9spsM0WjEaVSCX0tsLOsir
; dnplocP378908//fRFxiK52L1+0UUXVcOBoCxn/zrRgW31OufdpEmTKBwUhp3rmjJlSntElmIRHpHj
; ihUrJjIJBAdy2223dWU2mBQ0crsPnWhk1uQxbwTSja5UKt3Rl5RWbGxssEnFxJH2SU1NDXWVzyeqad
; q0abRJX6Vh5MURcEoZGRnhqNYzMzPLcH3iAEywrVChQlj79u3LkMoyKPjowxdQYN/4/KKAutGVSqUb
; +hKN+HNwYFE9VkBDC+xKpdKb2u6ryBO0wK5UKr2pCnZFntG6af2hGo0olUqoCnZFnqEFdqVS6c38Lq
; wqaPijnlFs6jN0GqSnp4d27do1oXnz5jGMcT7Vn6PdVwvsSqUS2ohGMHzoKhDOoYWoWbOms/Hn2LXa
; tWuHs/CpQYMGJbOzczaQnJwcQida48aNI111ovG5CQkJwR06dIiDBba0qkWLFtH0bB89enQvS1Cuue
; aaptmJZSqlVWi/YNbkPYF0oyuVSnfMT4EdsR5iw88++2zVgQMHtr711lv3denSJd62+JDjsFp2w4YN
; CxA5btu2bQVaEv5/m8Coo31hkdS+ffs27tq1681p06Z1tO0Ucby0ST/99NPXsPUQjQpLrJgEIP4E0Q
; c9zohxWCnJusdbb721y+lELCMH918USDe5Uql0R1/nafHWPGHChBb79+/f8scff/yEExk+fHg1Fw5k
; wIABKazM/euvv46xlXDmzJndXYgCiQYw6NjSI0eO7H7sscdGxcXFWT+OiaYi169fP4/vDdu9du3aGQ
; WiXjdfYrBJXyVNnTq1A17ZXGyJ3OTUtN1XqVR6M6/RCHbGGL1QnMbs2bN7XnDBBZVdrX9l1MqIESNq
; EhHgtHiDFwcw5x+EyPGOO+7owx52Vty6qFGYl//gjh07JjF37IYbbmhj0oBh/hr6+F/wdYKmFtiVSq
; U3fWn3JULw1+pXsi6uDa3Hnvpjsm6BOQ2b0HlaSqXSQ233VeQZRCNaYFcqlR6qgl2RZ+jCKqVS6aFG
; I4o8QwvsSqXSmxqNBCAoTrnoAKA4RFcDQpby5cufsmtL52kplUpv2pqnReEYzQNMSkoKdqnEZp9Sen
; p6CK24rgr9nqJ7SkpKCNdke7eJNxBQsmSQazqtDqZ169albH+5OA+Uo/PmzRuMABHRDAtdsmu/0wK7
; Uqn0ML8pLYxr27ZtY5cuXXo5W/yWLFkymv/tohupSpUqYSx6+vjjj59BZ9GvX79k2xsJQXx8fDDbY3
; fs2LEGezpy5MhaLpyIcU4lLrvssjocg42RDzzwwDmlSpXK3kFwUrb3+OKQzjzzzLIoLf/+++8/2aL1
; 6KOPjiQaye7vaLuvUqn0pq/ztHAUvLCyjfCff/45jjjw6quvbmzerMUmeDvv0aNHItM52LAIFy5cOD
; wyMlJsAnvaqVOn+G+++WYzx/j555/3P/fcc5NdiAIrVqwY+s4778zle8Nuv/LKKzPr1asXkW2QwTYt
; F73IrK8cP358i9dee23OM888M57dwbk5js7TUiqVHvoSjeBA6tevH3P//fef/fLLL9+yePHiixs2bB
; jlIo3FS/GcOXN6rVu37p577713oDmuk+OQVkJMiUF/6aWXpuXWnuYVJnoKHjBgQDo71/nuEI7nGFG5
; zA2aEItcWjD5tLz8PeZpPf3gjIC60ZVKpTv6UmAns0Id1naG5WQQiTDyxLVgj89ntAulAJd2G8dknE
; ZQXu12oQIprYmXXfhGIN3kSqXSHX2dp6UoxtCFVUql0pva7qvIE7TArlQqvanrcxV5hrb7KpVKD1XB
; HkCgUEQ1nuKN48L7ieNktw1M52kplUpv2kxpZdmfIBdajpPBMRAeupzI67Hb/ppk/F/AWaAkHz9+fL
; NVq1ZNueuuu/rVqVMnwoWIpUyZMkFXXHFF/SeeeOIK2sg6dOhQJrvOBp2npVQqPbQRjdCSe9ttt3Vd
; vnz5OFpymzdvHu3CuNOxRXsswsP77rtvEGttXdjT2NjY4LPOOiuFrYSrV6+ezmZZ8Tcw4AMHDkzZu3
; fverZa/fjjj/tQmLto8TIXeGLVIxvBELE8++yzExDLZBfx6DwtpVLpTV+jEVpjhwwZkuERBbIGlgVW
; tiMR7KlHZO3Z8IrDsr2vHJtZtWrV0A8++GAJ9pR15CtXrryuUqVKTpZk5Yj09PTQF1988SbWPH700U
; fL2ArmIiRi0TzK+D179ry9ZcuWJy+77LK6eNGc/o7O01Iqld70pcCOYTcvsLEvvPDCjSjXEUD36NEj
; 2YW2wxj2MDIsu3fvXseqcEaH2C4L8Hlo8G655ZbOKNgZtcJWQtsrenN9MghyatWqFcFaRHEI1ueSMk
; tJSQk93d51b2iBXalUeuirgj0xMTEkLS0tND4+voTL2gQRR926dSPLlStXwtQpnBl11udmZGSEGrsd
; ftrBiMUd2u6rVCq96es8LUUxBgV2naelVCqhtvsq8gwK7KseuSugbnSlUumOqmBX5Ak6T0upVHqTAr
; vO0wogeDYeuhQfng46T0upVHpoO6Xl2Rbocksg4BjQZXHfA64lVza7TJkywY7m10tmZmaZMWPG1B81
; alStChUqlPBnFwA/JetjYs3vmygS3Do2puYjk8dsDKQbXalUuqONeVpMzOjSpUv8jTfe2BZ5gyudBe
; 23zZo1i5k6dWoHthGmpqaGuGgxxnGwpZbW4uuuu64lx8nxL/AHbXs0Lqxjx45xb7311n0ID9mgNXfu
; 3HNzXI2YD3D2fJWljbNINd9Bc/N9nyuSMUUkc4nIVa+I3LNHZMu3IjvXZ7b5QwvsSqUS5icawW6y2G
; n//v1b/vjjj5/QdcycObM7u9HFInjxRhW/YcOGBWwKxJ7Onz//fCZ32Hz557Nq1qwZgebvyJEju+Gb
; b755d0ZGRvZOZMKECS1siwI5Ec8Fo+hEGDhx4sQW5ovNd7TDlfAJpcw/0sz/bCgSOVAk7WqR5k+IXP
; OOyOIvRDbuE9l+TOT4UZGj/NObB2Jjjq+dNfn/BdKNrlQq3dGXAjtv69i5TZs2Lf7uu+8+27Vr15vY
; OduRATazSZMmUYgbWdOLWp5RKzmtCPf1OElJSSXYIIsan2tidW5KSkr2F+RqyBZfognnwrp165bQql
; WrUixrl3wAp1HOOH2cxRQTWSwTmfimyHwcxV6RrUdEfjiVs8iJH/XM/CeQbnKlUumOviysYvBi7dq1
; S/bt27d806ZNo1zWJypXrhzas2fPcpQGbEc5HngU7L169Urq3r17IjbcHzWX055UfkE9A+exSWT5Ly
; K//yTyS16cRXb8ulqlv7XArlQqPfQlGvFXk5A/m5EKsvHJOiqYoOYBkQu+E9lvw3GcnNLaMHmMprSU
; SuUJ6sKqIoRwww4iZdaLPGrbeXhzQ2abfzQaUSqVUBXsRQQxJpqaIHLGLpHNv4r86dKJaDSiVCq9qQ
; r2AAfdVs+I3OjScWiBXalUZkcX4kPvf7pEgdcy6KiqUaNGWLt27UpXr149HFGLv06K4vl5IpW2iqym
; eG7bUfwm8o/3v3v/by2wK5VKb9qIRtB1sPuIDYFt2rSJdbGcz4OUlJQQ7DZtwHRu+b2jCkfBhSIooQ
; eZXudLLrmkRl52deQH8SLBd4gMPCiyz2XEcbLz8E5pvT5uhKa0lErlCeanwI49rV27dgTrwRHqbdu2
; bcW0adM62l70xHHYAbJs2bKr2H548ODBbYi5ER+KP4HH6tevX/KOHTvWsH6Ri2ZvsEuv6QGiQYSCr4
; ncf6q2XRv1EI/jOJXz8Ob2pvU1GlEqlSfoa0oLe0pEwGZXVtoeOHBg66JFiy6yPaWD47Cwis2uv/76
; 66GffvrpGwSCaWlpbgd2nQpsIzzvvPPSb7311i5EH+np6RH+CIWijCMdK9L0a5HPbBfPc+s4To5GtM
; CuVCo99GVhVXR0dFCPHj3KTZo0qRXzpqpUqeJkfpbHWTE/a+zYsQ0bNGgQ6XrgY47wTIP0y7EMq4mE
; PSUy4UeRn1w4jrw6EA9p99V5WkqlEvoSjWDc/WVPcRoF6jgKAmg/BotURnn+s8ix3Bj23EYpvjoOb+
; 5Iq/C3ztNSKpUeartvIUK0SV/dLnIWM67yYthd60ROTmmtuuxCdSJKpfIEfZmnpbAMgrqWIqVeF5lr
; K31lI+rIjtruq1QqvanRSAEC5fn1Iu0Pixx0YfBdRSNaYFcqlR4Wi3laLrupGBWfnp4eEh8fHxweHp
; 6rv0MvW0VT91kuMjmv49kLA3WellKp9NCmgp1W3+Tk5BLlypULdrWGw4OMjIzQxMTEYDYu5vgH+/Tp
; U87FqlkucunSpZfv3Llz7TvvvDOXzV0RERGn/Xu4mYEiaVtEXjxZ+5Gf+oa/ayNaYFcqlR7mJ6WVJQ
; oMnT17ds8PP/xw6dq1a2cMHz68Gu3AYhk4DJZiIRjnWLQa5yhyvOmmm9qxF10sgta0/v37J2/fvv15
; Vj2yhnH58uXjciOWKWuContEznUxtt3f1HlaSqXSQ1+jEV7wW7duHbt169bl2NLffvvth6eeemqsye
; xYV683adIk+r333luIaBzbvX79+nl16tTJ/s2/RYsWZVxEIKxbRKKPt3z88ccvZebL6SIQOpVbi8S+
; JfKwTe1HQVIL7Eql0pu+RCNJSUkh11xzTdM1a9bc+sQTT1zBBkQXaSxsNGJxVtkybsUcJznHsVUuhy
; ISiVD/4EJzI5gplaU8/0pkWyA5idNR52kplUpv+lJgJ73EVBBSV66FgWSLCCwKfJ1tbsFpVjV198dE
; rgyk7qu8UAvsSqXSQ11YZREEYwNN8fxjkTU5jW13qefwVzSi7b5KpdJDX+ZpKU5CkglCUJ4fFNmbkw
; HOzwyrwkQK7DpPS6lUQo1G8gHSVyjPGdv+vcihou48PGSe1qpH7gqoG12pVLpjkVawU8BxsUiK3qxL
; RGrtFvkwkBxAbpmTw9N5Wkql0psU2G3O06L4jt0usNW2OA70IqtXr54+b968wfQk2xpDTPRRx/gQdp
; 4HYvEcgaKNVbu6sEqpVHpISqt3l7ZDJR/ARvfs2TMJu83SKrR5uZ0IYg20iw0aNCj1888/X80GLYOD
; 99xzz1mxsbFW3BkKlLNM8fwTkVdPNsSFOVXFuX4hsnGJyFU7RTacrHT35dy1wK5UKr3p6zwt2m/Zg/
; 7JJ5+sRBDIVsIXXnjhxkqVKjlZXnXaE1m5cuV1X3311YYPPvhgyYABAyqYsEjyCzxQBeMoKZ4fENlt
; Y9mTPyIOZnQ9K3JTP5GUZiLRi0Qu/UHksMdx5Pe8381sc1wL7EqlEvpSYCddVaFChdA5c+b0YpwUth
; shItkk8TdwIijL09LSQsuXL1/itAO2cvu5hm1FSr8jspi5V4XdeRB1UKe5VaRHA5FIXGik4SRzGd+I
; 7LDppD6Jjdm+dNbkrwPpRlcqle7oS4E9Li4uuEaNGhHYbdcDGP0OjO8okboozwt79MFWRBNLzjtfpA
; rTgj0VIDKK/U0kslVktc2BjQdF9t0m0nNYz8wpgXSTK5VKd9SFVV6oLhK2UmSaZ+puYXQcRB37Rb6c
; K3JhGxMtlfo38/a/wJE0Fol6WeQOm/O7cFi0NdcViahTrVJ7LbArlUoPi/3CKio51BA+Elnlz1HreT
; XijJW/XKRhNePssqs+xWeJIKnj2HRc74ksw2nhpOJiY9JnTR7zRiDd5Eql0h2LxcKq7IDyfJZIn69F
; PitsDoTzQdD4lMiE7uZUE8y55lT0iTJRyUiROnRj2TyHXSKbx4m0iPaKenpltpmi0YhSqYTFUsFO8b
; y+SMkNIktsaChskvPBEdwk0qmeOcfTr8D6d45XZ5Gym0VW2Lweur1InSX8+5X9LzQaUSqV3nSR0srV
; xF8XyvLTwTO2nTfswhJ9cB6krKhlnC2SnmLKG3kZZJxhsnJPi1xvsw7CZ9EuTPrsVOcySAvsSqUyiz
; aiEeM0gho2bBh95ZVXNhg9enTd5s2bR+coGr/55pszbWg6cgu8VWVjbFGeF5alUUQNpNLuEjm7uUhM
; 9EmF8tyATYqzTVnnkMg3Ns+L7q4+IsnZNeDV1gK7Uqn0Yn6ikUqVKoWxBJDNh99///1O9H+pqanZe5
; CLLrqomj/7gzkTDOI2kbWFIfog6jDF6idHGFuMY/N1TQstyYONbzyVKj0/pJ2XOkhMDk6NlNbUcSPe
; CKSbXKlUuqMvBXbEh1WrVg1n4+HBgwe3HT58eAfq9aSkpOyTMaVLlw7259ap0uY8Z5haMIaxIB0HRp
; 6964+KXJEpEl/mNIXy3IB23ndFHrN5nijcWbJVyTi3051f66b1h2o0olQqoS8pLXxBxYoVw7t165Zw
; 1llnpbCZUAoLOJNGxsi+LbKwIKMPUkOfiaybIHJGLREr48W4tlSTQnxC5JojIj/YOlfSfK+LzG0qEp
; 2b8ZVaYFcqld70ZWFVoVxlS5qHse022119cR4viNyKBqV8HgvlpwNpJpwSwkOb58z4lKEi1fJSm6Hd
; V+dpKZVKWCTafTHYD4mM8Awe9Dcx7HNE+pNqivKhUH46UEnqZS6TKb02z5t031SRzqT/8nLSldIqtF
; 8wa/KeQLrRlUqlOwasgh3jysyo90WeoXDtb+dBymy5yGR2j/haKD8dMO61zeevFpnjGc+S3bnk5dzR
; g3DutPP64vVGDu6/KJBucqVS6Y4BOU/LFKmDaHPNaWWtawdCgZvVuS6zewkmfXivyGDby7E+EFnZ9k
; QPgm/Qdl+lUulNv0UjCEkYB9ypU6cy9erVK5nX1Yi88TP+/CWR2QURfXhIaulckYzcqMt9BQX5i0Rq
; oiuxee5MLB4j0rh0PlJvWmBXKpXedD5Pi2p848aNozZt2rT46NGje+kPRqGYl9WIFM8vNz5kj8iWUx
; lHf03hpW13ukjXOAf1Dw/olDrTBCIMYbQ51oRzf1BkePl/D5Ev6DwtpVLpodMCu2el7e7du9exGvHY
; sWOH77zzzr556Q/G6C0WGU0uPzsDmd89ILn5uxj0ZSLXZeRCU5EfIEikZmEz2uLcqa3QAGCjhkM0og
; V2pVLpobOUFmLDHj16JLEecezYsQ3ZcpXbv0vxnJbZj0XWFAblOZEBwkGX2vtYE+HcLNLNdjsv6v3e
; Isk2dCse6DwtpVLpodNoxBdxiceY2q4J+EpqCReL1Ip2mMbCOV0gUvVzkbd9dZqn+nvsG5ko0tr2uW
; uBXalUerNQtPuSrGds+3Mi022qs3PLU6W0vhXZOVukbxmHDoQPbmJSTetFHs2pnTevJAWIjqachbEr
; J0PnaSmVSm8W+MIqxHqXitRDSV1Y9n7wZv+iyIzsRqTbAnUWFlLZFE1y7u+ILG6Wy7EmvkAL7Eql0s
; MCU7BjnDGi80UusmFEbXVq4chYo4ti3GYt4WTw2eNFWtocGokDYQzMIJGKoeIOKbExGUsmj3k/kG50
; pVLpjr7M08oXPMXz7SKvF7atg6SV2DhY2mEai04p46TK2b5+2nlnivROPGlLoU3gnNqbrNYLmW0+03
; laSmXx5voVD/3PkP7dppzSWISH238PxyonBweXuD00tJ9tRbYtB7JYZDQRkisrzHdQVyRircjdNtt5
; OfelIuNctiLzuYyPZxvi52kV/nz6wRkBdcMrlUo7XD5vxp7MNs2mZGssOnfuHJ/jykIfwKdlhkfEb0
; xPX/xzTKmjx4KCCp0DMdWhea1FYl3VEjDC8SZKYMvhqVJ4pKM8zMu58+c9rciuZnoBuuduEenOC8CB
; 2Jjjqy678P8F0o2vVCp9J1HHq88+8uMdc2ZfmuPG2ttuu61rVFSU1ZdZDNuNiYntvi+XvPePqKjjeX
; UgrlXpRAToUhju6LKWwNeOAp/WYZsaGD7vPBMkRIo7EJcOEEn1Hr2/vWn9v7XArlQWbX706vJf3n5l
; 1T+Ixl955ZWZ1atXD8t2fFVaWpp1G0r66qno6GuOhoX5vXU3t6SdF01FvIOWWA+Ibs4wL/OszLVZB2
; HJFJGNP1qRGUDp7fyIRjZMHqPRiFJZxEjUcd/N1+455+yBrV5++eVbnn/++etHjBhRMzLS5avqSaCm
; 0CM4OOmD4OAVNjUQtokuBX0KdQqXDqSeCURWikyz6UD4rDUidzI63mUKLs0EkwtELj7VBOUNmW3+0W
; hEqSwaxHn07dp+ygm7ZUoaYWFhEhcXF2S7vHFa8EZPl9BBkb02Db7tgYuksTaLrGgnEufyKyJKuNX4
; VCIeW2ksHAgqd4Y2ukzBsWHxWpFWnPupzoNoZO2syRqNKJUBzHumXbMnpXxieylo8NaK8pzOo5wGJx
; YWInAcJlI9r5v+8gLElIx3/1TkTZt1ECKo60TauAwuqWX1FanADK6cIqiPemb+E0gPjFKp/DfquPbS
; C/yr78gJ0VnK870iWwuDgzhdxIKm4m6Rc0jVuJzOW8vUpOn6ymtKLyeHg4N+WGRkWYc1HD63hjl32n
; lPd+5fV6ukBXalMkCIwjzH9tyCAMbmaZHrC2rneV5JGotaAsuuXDoQZlexy8OmKp2IgBRcK5FSLlNw
; pCTvExmSm4iSlNbr40ZoSkupLKQk6iBlVSo6Kl0KGzoZe2N7kVJuogxfayOcJ+fbQyTJ5Xh3FliRbt
; onst3mtX8jsmO48dsuR7KQgrtCpBHHyu15aYFdqSx8LJRRhwcJ5k11mkiX/BhJ1wulTkWK/RNEzohx
; PN69f9ZOFF+/G3hySovuKPbMJzlMY1EH6SBShvlheXkx0HZfpbLw8KkHZx/t07Nbn9BQl203+UC9rO
; J5YW7dPRUpRtOqmixSwpURprWZduEVIlNsjrVHD8KWQmosLusgbFh8RuRGXyJLCuw6T0upLBiSsvp2
; 50d//f3333+uXbt2Rmpqqp/7cnOBCPl3gdIOkfWFwSnkhdRB1oksQPDncjQIww/vEBlos70ZB7JBZA
; ljTVzWcOhSmyKSyUIrX85TC+xKpf/59PyZe2bffMMTX3zxxasbNmxYcO211zZH2yGFDbyhMuDvkMg3
; hcEp5JW087KlsJTDNBZjTS4Tqb9HZIvNcydlOEaksctzp8bC6JQvRDb6ep46T0up9A+9C+UIAatUqR
; JaqVKlUL8qynML8vsI2siRFwZn4AtxfNeLtHe55pY0VlvzMv+2yEKbaT7O/V6Rwcn/Ct+doaFIJBsW
; 83u+Ok9LqXTHQl0oPxUSjG1k5/l+kS8L0gnkh7Qdsz2wuvGHLuM7tiAuE7nuVKNBfCVprJdEZrusg4
; AKxkGxTtfGeH4tsCuVdlmo23OzA6+8DNxDJHc6lbXrCbv5IXUQBh62PjHF3B0Q/SFctOlAKGxvElne
; xXx8hLhDlOGV5ufOSzvv6Ui7rxbYlcr80XuOVUCBlA86BOYyBbIDgbtENtMI4DJLyGdfaAIR7xHpNk
; gdZJLJkJVxuKUQoPNBvGhT57M7NubQ07MmHwqkB1apLCwk6mjRqM4UCUSgP1goMorOIptznlzzVM6M
; sSZoKuIdGmFSTM1FYky0s8zm9ZBWYqyJy5EsfC6t2rQN225FflFkxqiemdMC6cFVKguSRB03X3vpG6
; 5SVuhFgnIzITAxMTEkyIdRgrS8djc+BGN4qjdSb2Gf7Um6rohxrP5vX4AzYORxujZX/VKUf03kfpyT
; yxCEQj17SHzttsvuPvhE5NWOImXqVKvUXgvsSmXOXP/com/P7ddjuqtR640aNYqcNGlSq6uvvrpxjR
; o1InI8zujRo+vGxsbm2YOw8nSqSGdy4tlFH6dyIoXZkdCm2kuknMvRIKWzRqTbbjogBTdYpLLLc6dV
; mJZhm3UQyIZFPpdpAHGxMemzJo95I5AeaKXSHyTqeO6Re//Z9eXOvYsXL77YF7udEwgkateuXRLB4Y
; 8//rjvzz///OX111+/IyMjIzTbIOPSSy+tndeVtvxhlhm9IHJroCnPcyKpOGZWxTre9NfbvMznR1Nx
; KiLyow7iUg/CEIQ2xgciXqTxIDfnlZsXBpoK6PBK8Eof9spsM0WjEaXyX76+7MGvliyc+96RI0d2Iw
; ycM2dOr7Jly1pPOJiMVPBLL7007ZdffjlosO3hhx8elpKSkn0IEh0dnWeDQzGYgvNnIuv8OTjRNTGK
; i01Q5o9awlsiD5P/t3XutCIzbgRRp8tzpxV5ucjk3NRB8hJxkoKr8+9Qg/+FRiNK5b+F8tTkpPYNGj
; Qo2b1798QuXbrElytXzlm2OiYmJui8885L79GjR6I5TongYIuHwohUNAZ2sTG0NgxgYUpp4QxfF5nb
; WCTKpSqP5gPEfzbbeSH1qBYnFgm6AxsWbzHlr9zUQXLrQEiBMmiyj4nMTtWKPKhn5pRAeuCVShskZT
; Xq/AFTvJ8FUklBQS4VX/8Hq47DA9IYFM/fF3kmt2mMQHEgkHz8uSIZLivp1CkYke7rbKnsyJgUNiyW
; FHfAwFNr2S7yus3ok5oQ0wCySx/W1gK7shhx+bwZgaUozy14wFGe0/ZaUEbeJYkKpohkutSDxBnnTt
; E4u13jvpKFVXNE+ic4bkUmQiNSo/5lq32biOYBkxlNyuHcSWlNHTfijUAyBEplXhiQivLcAuPB9j5X
; WwcLQ5cWRpHBkNUcjDUhLVbBpP+uFmlOBGezBgKJCGlFrvlvkOMMpDAfE7nSZgqO752pyEwDOF36sH
; XT+kM1GlEWNQbcHKu8Iqv+Ecp6VleTdwu63Ze0zDaRtZ1Fytqsg5i0UlBzkVJ0G+0V2ZqT8/D1rd5T
; S6AV2eXaGOogk0Xa2Y6gUOifL1IlNyNZtMCuLEp0HXX4q25yWnAaJs1QYqxIU5f7PwrSiew1Bp6RIz
; ZmS/F9MQNrqPm8N0Xm0yrssnPta5HP0JlEOZ4szATmD0Wet1EH8z53tlqWzuW545RHZba5VedpKQOV
; pKyGn9NnijhCUlJScGZmZnyzZs2izb+XKDSOhIe3o7GNpExcGcOCciCoxOeKXJjfLYUU4muZr4oRKc
; wLc5H2O5kYdJTuCQ7rIHywpw5iMw1HSoypyLlJH5Y3v01fkxEknfpxWoUja2dN1um+yoDiq8sW/LV0
; 8YI9M2bM6EbrrFhGenp66LPPPjvh0KFD27/66qsNDzzwwDk4FCks4EzSzcN+m0jP/OxCd8H8FHcxwo
; gkGZHuy7fNnRBrvh6TSirP56DctvmmnhOpJawRuROtias7hesrnzXWxGYzBb8Zk4XZDpndueOUubZr
; RFp8ILLSE83pwiploJCoY+3yhd8f/u7g8W+//fbDBQsWXGBbFEgLbrVq1cLXr18/79dffz30+++/H3
; 3hhRduNE7F5eJV31DKnO8AkVRGovvDSPrD+WwReZF25by281I3oU6EKpwUj82ZV7khBpV23nOMb3dZ
; SeezLxdpSOeXzfNnO6T53AanUtTTvcZEYAZH4pRPlQrU9bnKwkwK5T07t53SuXPnslOmTGk/bty4Jn
; Xr1nWyiSE8PFy6d++ecNttt3XlOPXq1SsZFuZ01J/voGhbVySSIrGrFl9/Ftgx/ONFWsbkoZZA3aG1
; SGk6lNCT2O6yyi1JBdFqHUftTNwAR0mjAQ0Htmo6OG60MXeKDCrvlT7kWFVN8MHaYTq1Ttc+rAurlI
; WNJ7fnhoSECEMK+adreCbrFpr6R3bg9BiHPlKkznaR110YR385EVJOT4hck56LsSbEnonGzo0yPpS1
; r7yVF+SIFwzsKpGZNR1uKeRzGZtCDSIvjvJ0qUX++1qRu+ubNBWPFk65lQly0bcQneTle2VhlUYjyo
; ImUUdALnwqKJh4LMjkseNWiEyxnfv3diAunQjn/Y7I4qYi0Tm185pUTpAxdlH3iJzLgESbuzJ8JUaW
; +gA72F1WzMpkTWSmeyovNaec/iz/DY0MqapKxkENMhlB9oXwvfpS1yIaMQX2gDI4yqJDoo6U8ontRZ
; E3YLhSzNv7DSIdeHMsCEOaXwfyqcib54lUOlUtgTdwcvIDRdIoWjOKw1+F8twQo865u9SDMDJliAlE
; 0G/k1bhn9+f5/9GXoEq/VaTHdguRLC8aH/XM/CeQDI8ysHmqOVYKH8Da254i5d8WWegPw5lfA+ZNaj
; kYsQTjKLxTQaRWTPomjLdvagC2hyLaIOd+u8hZiQ7beYnM2maNd7f5OxBBUQux3fasBXalP1jkFeX+
; Bga3hslsMYHW9gBBlzwqcpQ6SK2sWgLEIWaa4vEykYm0LhfWfShEQ4xIZ2+Ly9IZxe5HRC4vTNFXTq
; lNUlqvjxuhBXaldRJ13DvdnaI8MjIyqHz58iGMWHe1jRCEhYUFVahQoUTFihVDT7srqlevXkn+6ATw
; pHzYI7JVZHVhMTY5keIwb9e8ZdNnl2p84ZUiTWhXZpRLYd4Dz7nRRmycXbzLXxeHOk6kRSC9GEAtsC
; ut8rWnjz25eP4H2FMXY9BTUlJC5s2bN/iTTz5Z+f777z86ZsyY+nldBJgbsB9qwoQJLbZv3/78hg0b
; Ftx4441tc9x8OH369E4uVJDZIcwYnKYipXiz5w0/r0YxPwbVl79HLYHR6xji+SIXobHI63kXlAMhQm
; JwY7TDsSZ0lfcQSWKveUFery9NFdruq7TB5x65529EgWzwQ+0dFxdn9XnjBb9FixYx27ZtW/HPP/8c
; RxT4zDPPjLctPvSstH333Xfn//HHHz/99ttvP/Dv1apVC8u2BZi/4I8I5D9O1LCc+V5QE9te7WqbOA
; tEhR+JrHI9x8o2Sa+hSUn9N4vo7Lc06cnwV0XuK6jvJr8deRTYdZ6WMq8kZTX+0gunGnRA8T1//vzz
; O3bsGGc7vYTxTkpKChk5cmSt1157bQ7Og0gHoaBtEIGMGjWq1sqVK6/jmoYMGZKR4/U42TqVS0T+W0
; 9IoO+/IAxPUScGHV0Kc6tc/so4KASkhaGF2VdSYF/1yF0BZcCUBUfvhU+8gJNO8mU9eF5QsmTJE8eA
; Ll/68QmlS5cO5ppc1lqsgNOrZDIhs0T6MJ7ClYEoDLtGCoKksVyPNaE+NFqkPup72+fvzzqTztNSno
; 5EHTdfe+kbRXLhUyCD4YOIxhCRBYrBCQSiir9JpFMZx+Pdu5pIkl0kgfTdZMftTetru6/yv6jtuYUc
; iN5QdS8SudSXIYS5dR7FKRJBS/GoyBWoul3G19VNFLlSZFphbWvOK7XArvSwSK+ZLWrIWsBUgpTIZy
; LrbBsG71RWIDoSX1Jx20Ve7yaS6FKVzuBGxvq72lTpTX9GmbT7aoG9eDsPnWNlARRWIiIigqD4AczT
; aitS5nmRW1x09/hrplZhIHWQi0Rqum7nHSiSxvgXf1yTv2sjurCq+JGoo1bVjKHiANjTyMjIYIrhLq
; fkchy6tfxlt08JqvE33HBDm9WrV09ftGjRRQ0aNIgUP4DceppJvTAyZK/IVhfGoTg4EUR+s0X65nfD
; Yk6gGYJFUO+KPOYv4+7vepfO0yoeJOp46qG71zasX6+GC+NeunTpoMmTJ5/BgqcVK1ZMxJ66OA5dW3
; 379q2A3X7kkUdGDBgwoAKj3f0K2rjOP//8SocPH96BiOWnn3765r777hsUHx/vt/5fdnL0FkmmJdW2
; USgO9RBmdb0kMrvev/MPnQE9yLMiN/ljda83/elIdJ5W0ea2N579461XXvz7hx9++PLWW2/tYltrQc
; TRr1+/ZFbM/vnnn78gCnzxxRdvciEKbNSoUeSWLVue/Ouvv479/PPP+9euXTujevXq/t0ohQNp3Lhx
; 5PLly8ft2rXrTdSQ5513Xrq/PRldz+wXZ1e5zS143g6kqEYiGFg6pM4yAZ2Ldl5+G/aYsweGMfIF0Q
; nn75SWKbBrNFKESNTx4MzJe1evenHxl19++brBHWeddVaKiw1+zJh69NFHR+7fv38LYr3LLrusju2x
; JKSuUlNTQ2fOnNl9x44da/bs2fM2GxD9OXXkf4HXTExMDEbSXqlSpVBCo4LYbsURy5jvZrh52WUKrr
; 8MRlEgxe3pIl3jLNdBqKu0MVE5+9H3mjRjcWmjZkLBksw2b2o0Evj0bs8ls5Kenh6anJzsbGAhtrNU
; qVJBNWvWDGcwogtFuec4sbGxwRkZGaHGaYUUelGgv8ASp+Ym375M5DpXa2OLWjTC97RYZLStsSZ4IV
; OfCjlXJIP0mK8LnwKVpAUnirROjo1JnzV5zBuBZDCV/0dd+FRMgQEzReEQHuIvRTbZNhC+OhB/GFFf
; zotOtrdEHmY9bH6TjyjPGY+CQJGuq0CaD2aDjK7fKLK0owmIPd54UM/MKYFkOIs7deGT4gTYmd1VJI
; ndF4FkhAqCn4u8fb5IlfxU0hNMCrGnSDmmKVOLKo7Kf6K5+0SGnKzur12tUntNaRV+es+xUihOtJBW
; NZktNvCxDjWQjJE/ydpdxH7xPmwp5E2b5VSMtn9PZFlxizo85Lp3iKwfLFL5VJnrOJPSmjpuxBuBZF
; CLC1VRHoCgcOOv4k1pYxgZHEgnkCsD4ktqq7C8pVP4fVxkbPK/PjfXKGXetDuYdA0dcIgSi6vz8HyH
; iFsbiETmVExq3bT+UI1GCg9dz7GiK9Ufk805RkE0MGWL6OhoJ1dtvtCgpk2blpo0aVKrq666qlH58u
; X94kVYWNXQXBZ7MPytRyjsxJGxTbGl8Qm5+dH5Mxnmp2SLJPs+SN346gwLS1NCfpeSEeFOFmlXKhfd
; bHFaYC8UXHTn1G8qpqZUEgeIiIiQvn37lmcx38CBA1PLli3rxM7RCcvuJlpxx44d2zA5OTmkoB3Jie
; OzvtB2rzMfbJxHFJoRRCyIEBcsWHABTsQfF80REs1b9hhT6yXvX5AGy1dj68p47hb5cKhItYjTfIfs
; amkhEnOrSA+WfhW1qMMXR8KgSFYcdxYpm5dGhF6ZbaboPC3/k5TVB++89hf6tWuuuaapba0FRr1Hjx
; 6J6EaOHTt2+Pvvv995yy23dI6MtD+oo3HjxlE7d+5ci/CQTYGo2MuUKVOgHuRExHXhhRdWtp1i4vPa
; t29f+u23377/6NGjexHMoF7PcbeuA5T8N/USv0pkpqs0ku03a9dv6uhB5oj0T8yhDlLO/IT9RFKeEb
; mRqcg6Iv9f0jTAWuNyPtSQKqVVaL9g1uQ9gWSAA5lPzZv59aIH7/2Yl9f33ntvIdv8bOstsHOdOnUq
; w4sydg6x3rXXXtucqMQ2qlSpErpu3bp7OM6BAwe2sv0QLYn4GYmJiSGo2Y2TDDrhQPDKLqICvkSk9J
; mZmWV69+5dzsUC+NyAJ72iScPcItKd/L0LwxJImhEiCdJR1f6df/gf4P9g3Ml4kZYfijxfnGsdJxMn
; ulNkw5Bsiue5ASmtkYP7LwokQxxo9Cx8KpeYkMEe8S5dusQ3a9YsqmRJd1N8jEENP/vss9M4DkbdhT
; 3FWCclJZVglS0v566Okx2Itow9L/Xss89O2L59+/NDhw6t4kKl/x8oTMUek7MO5q2a/v1AMlwuyI53
; bw0DiDPfTxeTmlkoMoo8f3GLOnK6Xs9/e0Xknrr/ymDyBW33dcOTC+XYn0JVcA5Q4LzKlSsXctddd/
; U7dOjQdnayk1Irdt8tees6Jr2/QORil3srCnNEgjH8WuSza0VaUQgmeUk0colIrXUiCxDJFcbz9td3
; Q52D7wClOU0Y1NAYm7NMZOJ5JhNlaxSMFtjtUdtz3QDHYVJnEcOHD682aNCg1DfffPNuatmpqanFdy
; wKTz86iBHmRXC7yOu2jVAgjIenm4pIgw4rRrCjn9kjssXzpl1Q5+7v782ToqPOQ31ju7kf3hZZSAff
; bJF+A0RSm4vEVDbfU1lzz7hIglBg12jEdxJ16MIn+yC6SElJCVmyZMnoffv2bfz2228//Oijj5YxSN
; fV7K6AAvO0WomUplBcVNaw5sVwfiSyirrQyyJ38KbtncIpSAfi+hjfiewnuiCyoM6zWGT0NJEutCoz
; 5iXF1EZZH+B5RPwRpBONaIE979Q5Vm5hahxBDRs2jFy2bNlVx48f/x1SyCd95VME4q+cl7+OQ4G9gq
; kPXS/SnvbWvBqjvOxgL2wRCU4TY1oUC+Wea+L6UN/jLDaLrGD4JvO7hpm6Zztjt4ksGIVDUSNI/OMs
; crq3dZ5W7uh6jpXWTf4PfBeJiYkl0PJ99913n+FEiEgYQZ/rLYfkwhCudOrUKb5q1aphVORdnSwdDR
; 07dizDsfw1u56R5N1Fyr0pMt+FQStqk30L07V4nDjTgImkPhF59R2RxSjuZ5gMEdOCm5k0VLp5UTDO
; gsjzhAy/IEwEqxDoDGrXrl3puLi4U7YCa4E9Z7725Ny9nds2nyKO0KBBg5K05jZp0oTOLSe3CfaULq
; rMzMz4mjVrRtASKwUMk5Y6sa68dOnSwdHR0f91Pvy39u3bx7G/BG3fL7/8cnDp0qWXn/aDuVgTxkS9
; +uqrs48cObKbKvyIESNqulgoVbt27YiXXnppGsf45ptvNs+bN2+wvzYfYlSqm+/pbpFzWAFr2+AWFQ
; dSkNdCcZvoggYIogsmAaOsJ7KgZnGxSC1U9oyZ56WAmoW/Iouc4HkxonsFTdTXX3+96fnnn7+eHTun
; +vM6T+u/SdSxcvE9xzdveu+t/v37J9seG0JKpk+fPuW3bt26HPvDJr8rrriivgtNBy/h77777ny2u+
; 7evXudC5FjbkEwUK9evRhWlj/33HOTN2zYsIAVuFdeeWUDhN/e3zPfEbtS2NT4448/7mOj4mkPwM3P
; Zi5EMqgtWfU4a9asHuz1FcuoW7duxMaNGx9mdS4nuHDhwuH+XJ3LBdHOSq8/NQJ/G+aCMMqF1Xn8Gh
; r6+++xsX/+FBn107Ey8cc3h4Zu2CCylAL3FJFMIoumJnhkvwmPeGFxFtmBzhW23PH2huFgw+fp1phq
; gT3Leaxc9O2rq579EYOFBmHIkCEZtjUIOAp2hqMqx/6gKmc8ie1sC0YY9TpbAlkzizCQN3njQMTfIN
; oYPnx4LQTf2Pe33nrrPkSXqN35rnFyREknR2JEKKzl/fTTT1/M1YH4cnv27JmE47j66qsb0xMsDsCJ
; devWLeG2227rOnbs2EYIEQuiXYx5Wk1M2mOpyDhSI/4yzv44jr8dQW5IPYbOMIrbJyKLkiVf/Tgxae
; Vz5cvf+EiNGqMm1KjRqmlkVAyC0FKFKLLIC7iPTSQfg1GaOHFiC4qTuYnii3u7773Tx+9JLp+UMXjw
; 4PS77767PwI22/vDPeCNG+fEcTzz+1wMSOR379KlS1nuBWYFVq5c2a97ygkKTBQUSYaHiGvlypXXnX
; nmmWXNy3oQmxgvuOCCKjgU6h1kgq677rqW1EG8a0M41jp16uS+MZG/zEPgeuKkR/zjj8mWOZ6HYZJ5
; 7seJtECBXNSMt41z8HWxFXULHMVBkb2fiax7Q2TeIpFLpwYFdT4vLCyjflhYyQxzh8aVKBEUExwcFG
; jOIidwX/tybxe3eVrehXKPPcBouX6h5BieY7mGizLA6UDkZmoZZSlJEAXdeeedfb2zPJ7vulq1ahGr
; Vq2aQiRC5onZW40bN472jvy02SAXYJ5WpkjCGpE7bRrw4kBvnQV1Jbqh3hV5jDTUBJEz0FkwOiU9Kw
; 3l19ewAATztFY9cldAOQJfqAuffIfJFpUwxj/8VIVwQCqVlBkpOib7ZlfjydrbHjxu3Lgmnu4rhlKa
; 6KSyi7pQkQbvPJWMfZsp0hsVtwtjGwgCxNM5C4rcOAu+o60iq3G6y0Um3yDSgbqSSQsiFQ4h7lUpkm
; 8gpTXxsgvfCCSHkJeogzlWqij3DSa1Fzp58uS2mzdvfoyhjidHUUQWrVu3jiU9Re1l9OjRdU8XRRDx
; tWzZMhYRIdHIJ598spL5Yhp9+IBY8xucJZLGRj5XhrggnUhuj+2JLKhZ4DDY0Pe6yNxHRC6fYgrcg0
; QqVjUOl8VV3ML+1FkUFxS1hVWuFz4VB5CKIrog5YTBN4Y/5uR0acWKFUPXrFlzK85g796966n1ZBet
; eECqrXPnzvEUzWkyGDVqVC3ngxSLKshamrRLFKNAMJ4FYehdOg9vJ0KtAmdBgTurZrGP3SBvisyndX
; asSNPBWZFFWjFMQxX0W1hRKLDrHCt7wKgbQ1+W2gZdrPfff//ZJ2tMSD/hWKhvEIWQlnrwwQeH1KxZ
; M9ukAEsHBw8enEHLMTqQGjVq/N9j7nKuCWIZRhDjGU045eRp4yHmiyO3Z7xriD+KX1xIWfN2fZlIfb
; QIgeQocnIengI3kQXOgmtbJ7LgSZHxk0TaUrOob2oWaf+K8oJCvL6PwgDC7TJlygRXqFChBPedy3sb
; kWulSpXC0HIgsnLZ9MG9zbGyU/4GarsvzqPfme7mWMXGxgZnZGSEYX9cOXs+FyNt7rkQ7rmCHjJINE
; F316+//nqIDiqihZNrFthL4wQi7rjjjj7MuEL3wqDEc845J827sO+5tgEDBqSw84RuLUSw/1H879q1
; a1kX3QDmhwt98sknr+TAn3/++eo+ffpUQO0olsEDPHv27J6EV+T+EMScLiSzBfOzBLUxL4IrRaa5mm
; LrqjbC+aLczhokuHeXyOZVIjMfFbmC0S5MnmXvd0XjLCL/HfdRqDNQPLiI9RYtWnQRQj30RLRKuri3
; K1euHEoL5Mcff/wMugRa210s98FhsL70s88+W8VzxFI2HOSp/mygzdN6duFdvz/04AMPMLDPtnHPyv
; WX4i2bNtXXXnttDnuJXBwnPT09jB0ZpIMwwizoK4juKg+yWnTDSFOhM6HbimVUJ187585yKIYjov1A
; m+TpymJigqmnhJhifMm5c+eey/2HhKNcuXLB/+UgZ86c2d12VZ2TQyzz1VdfbfAIpwiTbPdvc5wWLV
; pEf/DBB0sQv0C+MHNT+u01gAtKNZktZiwx0bYwOhGiCk+B+yuRbUQWa0XuJg03XqQlzoI9F4nmcqKz
; ZkOBQKpZ8NAOHDgwxdO/zj3HC4xtw86D2KZNm1gMBvc260XfeOONO3noxCI4Di9hiLz++OOPn8hZb9
; q0aXG9evVy7L0v7PO0iDq2vvPyMX4jVrSyiMl29EYWgg2E3AP8RgcPHtzGi6Xt7AT3HOdPl9Lff//9
; Jykhxp0XxKZAb2DPhw0bVpXz4TtAV5fdSzURRoMGDaIeeeSREUQiCMVJVfECxosY99+5555bkT93Sg
; dct25d6wt8ORBhI/vWOQHe1hAiuti9npCQEDx+/PhmhFcrVqyYaB7uuIIIIzG8vUWSmcPkwol4O5Kc
; /gxpKM+gRDYw0jqLzoKaxVUizXqJlKthMpcouPk1Cu5dyT54QyJ8p2f9qaeeGstMIxepCx5GIgMcx+
; OPP34pqlwXrY08tMYpVnr66aev4cVo0KBBabkZYFdY52lRKD+3X4/pFHqJDtgfbt7greecef5xvnPm
; zOlFVMA/iRpt3wuet/2bbrqpHb8P42mM/SntIgLJi36I8yJSJTjAIRBhEJFld/04VmYdsvOD5+aVV1
; 6ZuXbt2hmMM+H3KciI6sTDBl3miLlA8t08xAVZ2ORJqGlqBPeLnE9ayJUT8Y4sKHCTivpGZAfdUGzN
; Wywy+lJTn6FjzJxPeMWsmgUVgaLeCYXx4A3Q9WwhHjqOwzgIly8snhofK1nzcpzCNE/r5EI5zysvmC
; 7XzGJv+N5wwtgGl3YBu0NNjH+6sHPmxajk6NGjGxjWw0ExRorvMKdjcX8y+QBHQCTCS4ip0eR4cvwd
; vit+G88gW23X9TM887SGilT7WGSNDaeBo/B0RHkK3KjjXxKZTevsGJHG/UVSGopEVcyKLIrpvjDFSS
; joAru25+YP5cuXD6EuQTqJYbak495///1HScl17949gQwMf+5Uhh4HwxxDBniSlhozZkx9FQEGCFhY
; 1Uyk1FMiE46KHM2Lw/C0zhJZUFdhsOOrIvexVnWUyTriLGid9QwSJMDU9wRFdiiodl9d+JQ/4BSINO
; guZf8GpQDqRkQUOBPqcEzPvfHGG9ui0/CsmvU4k6xCeQnSurT1UiuuXr26CjgCBfyM5Y2Rv1akFfqJ
; 7KILnAVDG6lZMBuKLYkUuK8WaU6Bu1ZWzaKUVxpKHYYir6DA7o95Wq4XPhVH4AyYikuLOrWKm2++OZ
; OmCgr4FMpp2aUTlUGQHTt2jKe7zfP3WJOB8zhw4MBWnBDtxqIIHNAG21kkgfoEUQUFbsZ94FReFJkx
; V+RCNCXoLGqblGo587vjKDSyUNiG6wK7zrHyD6gr40zOPPPMBJoRGL1O2y76D7Qd7DN54IEHzmnbtm
; 3pZs2aRbPDiTQWSnJGkfi90Yj9uJCQynXRkAIOBR2XBRyuAfpr6yHfWGUTSaDeHmrqI31Ekilwp2XN
; hgKB4Cw805IpILtsjPAUj7nfXOt6OA5Fd47lWojKtZCH9k412IZncjYdW6c6hot5Wq4V5VwLBXF/TA
; PnN+KecGx/Tti4XK+FzQHcu3RdtWrVKnbq1KkdWMpHigtncvjw4R1oiOh645+ksl588cWbXHS/ZQtU
; loj1qOgTAtWvXz/SRWsXPxwDvtjc9sQTT1zRqFGjGBc/Ijdihw4d4h577LFRLPZhwqS/ZruUkIJbqW
; oD5FnpK+cmpE3QxcIvjAQ7Z7gXaMllJEPTpk2jXBgPtEkMnqMNHK2SueeiXCjYOXd23XjazdFJuXgR
; M89lUKdOnco+/PDDwzgOrZjZrUy1NU/rgzVPHLlpwlXzPWkT20Ageu+99w7E/kyePPkMc8+VcGEXUK
; 6z+4LvjeMxssPFcUzhO8z8Lk1o+8XOsbTJ1osL9665jiB2KZHm4lrQ4+FQ0BJRP+F5ym4bpnVgWKnk
; ezZ1IczBcNje48sPRd8+ylHEWVzsyy+/fIuLC6WQRIiHmAkvTT9/rVq1dEDsaYARnDZtWkdyrvw+CI
; 9Yx2nb4HIcxEt0j3DPcRzWaNregslLUPv27UujtEUIxrF4oeABFMswaYQo3gB5fhC8MjUhIyPDusHF
; IbL5kGvxHAdjkp0hzE+BnajjuUfu/fvwdwePM23C5N7jxDJ4s+ae402a34h7AQ2O7RdYb/EhdoF6wT
; 333HOWCyEq40Aw6vxG6DTYvOpiSRbfEedfp06dCJ7TxYsXX8xLWVxcnPNI7j/AzU8IxE3CWAAUvy4W
; zpPTQ5i1b9++jYyIYAuZizcA3poRF2E4uKaclJqK/0TLli1L4XDJp1LEa9GihfUokTdz1N68QNB1gh
; AKxa+LqBcFOcI2CpCIXpkd5EJDQqqU2UPcb4zEJjJwcT2kRC677LL6HANV/pIlS0bnxvHmdWEVzuO2
; GyfMpaUUx8hza4q14S7uBbblca/RyoqDxx7Zjt54UW7QoEFJImuOwwsmEaOL8SdkcIgQsT+Mw8FBup
; zb5jmupyxQINoO+o2ZqWL+WcJVuocL4yKrVasW5tJLZtVZghlt7EKhWpSRlVs/YXgRgrn6jbLSWCVQ
; FNseE3IyMLDccyY9V8JGTjo78N3Rkomgy2WthZlztG8yYTUvx8ntPC1qHS0a1ZmCAySXDpkCII7Avc
; DLpTG8JclIuPrusGvG7gSbbEQEEYHLt3Sug5Rf1apV1f4oFIqig5GD+y/KLurQhU8KhUKhyBEnt/uq
; olyhUCgUuYanwK4LnxQKhUKhUAQOPEVxf4gC/bGJ0J/H4jinm7hpC57fyCU8wk3X8MwP8sdv5PneXP
; 9GLkWH3vDX98b35a9r8sfz4xFu+uN6/PUc5RoJCQlO7hhuRgQyCHIuvvji6lWrVg130baIHqVx48ZR
; EydObDFu3LgmycnJoS5uGh6sVq1axdDmef3117emndXVDcOsGsRt9G43b968lIvOIM4dvUPfvn2T2T
; bWu3fvci46T7J2toTw+fxGrM100QIOuBd69OiRdNVVVzVidANdduIIlStXDqP9m22Effr0KediogFq
; 5dq1a5fknuNeQKvkot0Tg1SjRo1IdBDstmCWkitHwj02bNiwajyr3bt3L+dq+RL3GPaHFln0Ka6668
; znBnfu3DmR67nkkktq0F3lwi5w/u3bt0+YNGlSq6x7oWSh6N7CGNrue8cI0cdPn/OxY8cO//LLLwcf
; euihC83NY9V1cpx69epFvPPOO3M9Gwmfe+65yZ4RxzZBmyIb7pg3w/Uwe4Zj2za4tJQyw4axzWyiQw
; NhnEi07ePQiotBZ7QBx0HXgXjPtoHixufBQpjFcRj+5kJ8yMPEjB+EqNxzHI/Bci6EYOgFPvzww6WI
; ULkmNCToVGy+GXKcKlWqhK1evXo6ok3uOTRYtNKLZdDyyyY97gWuCQ1E27ZtY23fczhZDDpiQK4JrR
; cvFraPw4sqL62orvl9GDSIo3ex+ZC1ybt27XoT28Mze/vtt/e2/TLBfdW6detYNCMc5/vvv9+JHsZv
; avKcwMPNjCuxCG5+84YewwRIDAZkRott9TowEUcJHiwUnQiA2OFrW7EMcCAYdq6FYWXsHEbRbvstgJ
; uP4Wg8XDzQXFujRo2ibR+HnncUvYjNuCYEbuyNFsvgIUOQ9cUXX7zK9XAc1m262E7JPYcKm+MgQGSM
; te2XI47D746YEifFCwXrP9lKaNtAoYVCCMgxOBajL9CqiGUYJxtM5IHyHyPIvY163fb18FuwPZTd25
; 7vrVevXkm2UzJ83uDBgzO4B7gmpmiwq9yFyJGXO+wc18N1MT7E9qKsLPFhSV4mcIo8S9zbLuxcnuFy
; fy9v6Cxt5+IRN4kDZImMQkgjYKhcbaLLmq0fzEaw/v37J5sH2Vl6BKU8YTcz/k2qJNxlHped8oyqQV
; DpKm2RJTgLZYIBYxxcrcjEKbEznAml5rtLYAyGOALiOWao8d0RbbuYZJCVZjxxLwwYMKCCy2eV4zRp
; 0iSa54jRF67uOZ5P7mtmgdWtWzfC1YIjXlaxP0TVXI8rpTepMtbacm+zttvV9fBscj1du3Yty3raQh
; F9+ANFUWXpj2vy5/emSljf4PneitL35897u6g8R/r8KBQKhUKhUCgUCoVCoVAoFEUDFNZc5/v8mR/1
; lyCHa/HX/H1/Caf8BX99b/4cc601tMJ9HH+h2NROMLR0GnTq1Cm+cePGMa52Z9BpQOcMQqa2bdvGsZ
; XOhQHhM+mnp3uGriCDEq4MFS2SCJq6du2awDY/cQS6Tuii4Teic8uVcIrrYbw614SwzdW9QKcWHVXs
; dK5Tp45T0RRdb+Y+iOOeS05ODnFxLD6TUeF08ZnvriwdSK7WIiDcbN68eQz3AmPQXXW90YHEccw1xV
; WrVi3c1W+EzICthFyPOU5JVx1VCDfp6Gzfvn1czZo1I4w9ctbRaexPBJ2CrKF11bnlD/x/73PUnnGE
; 8jAAAAAASUVORK5CYII=
; thumbnail end
;
; TODO: check the size of the extruder and the y-bar clearance. Optimize & test supports.

; external perimeters extrusion width = 0.93mm
; perimeters extrusion width = 0.93mm
; infill extrusion width = 0.93mm
; solid infill extrusion width = 0.93mm
; top infill extrusion width = 0.93mm
; first layer extrusion width = 0.93mm

; object:{"name":"100x200x0_25","id":"100x200x0_25.stl id:0 copy 0","object_center":[203.000000,150.000000,0.000000],"boundingbox_center":[203.000000,150.000000,0.125000],"boundingbox_size":[100.000000,200.000000,0.250000]}
EXCLUDE_OBJECT_DEFINE NAME=100x200x0_25_stl_id_0_copy_0 CENTER=203.000000,150.000000 POLYGON=[[153.00,50.00],[253.00,50.00],[253.00,250.00],[153.00,250.00],[153.00,50.00]]
; plater:{"center":[203.000000,150.000000,0.000000],"boundingbox_center":[203.000000,150.000000,0.125000],"boundingbox_size":[100.000000,200.000000,0.250000]}

M73 P0 R13
M107
;TYPE:Custom
; M190 S0
; M109 S0 ; uncomment to remove set&wait temp gcode added automatically after this start gcode
print_start EXTRUDER=260 BED=110 CHAMBER=45
M107
G21 ; set units to millimeters
G90 ; use absolute coordinates
M83 ; use relative distances for extrusion
M104 S260 ; set temperature
M109 S260 ; set temperature and wait for it to be reached
M190 S110 ; set bed temperature and wait for it to be reached
;LAYER_CHANGE
;Z:0.25
;HEIGHT:0.25
;BEFORE_LAYER_CHANGE
;0.25


G1 Z0.25 F18000
;AFTER_LAYER_CHANGE
;0.25
G92 E0
M73 P2 R13
G1 E-0.75 F3000
G1 Z0.75 F18000
M204 S1000
G1 X150.093 Y48.511
G1 Z0.25
G1 E0.75 F1800
;TYPE:Skirt
;WIDTH:0.856
M107
G1 X149.699 Y50.1 E0.13655
G1 X149.699 Y249.9 E16.66223
M73 P3 R13
G1 X150.29 Y251.816 E0.16722
G1 X151.511 Y252.907 E0.13655
G1 X153.1 Y253.301 E0.13655
G1 X252.9 Y253.301 E8.32278
G1 X254.816 Y252.71 E0.16722
G1 X255.907 Y251.489 E0.13655
G1 X256.301 Y249.9 E0.13655
G1 X256.301 Y50.1 E16.66223
M73 P4 R13
G1 X255.71 Y48.184 E0.16722
G1 X254.489 Y47.093 E0.13655
G1 X252.9 Y46.699 E0.13655
G1 X153.1 Y46.699 E8.32278
M73 P5 R13
G1 X151.184 Y47.29 E0.16722
G1 X150.093 Y48.511 E0.13655
M107
G1 E-0.75 F3000
M204 S1500
G1 Z0.75 F18000
; printing object 100x200x0_25.stl id:0 copy 0
EXCLUDE_OBJECT_START NAME=100x200x0_25_stl_id_0_copy_0
M204 S1000
G1 X153.564 Y50.564
G1 Z0.25
G1 E0.75 F1800
;TYPE:External perimeter
;WIDTH:0.928
M107
G1 X252.436 Y50.564 E8.9853
M73 P5 R12
G1 X252.436 Y249.436 E18.07311
M73 P6 R12
G1 X153.564 Y249.436 E8.9853
G1 X153.564 Y50.564 E18.07311
M107
;WIPE_START
M204 S1500
M73 P7 R12
G1 X154.257 Y50.964 F18000
;WIPE_END
M204 S1000
G1 X154.438 Y51.438
;TYPE:Internal perimeter
M107
G1 F1800
G1 X251.562 Y51.438 E8.82638
G1 X251.562 Y248.562 E17.91419
M73 P8 R12
G1 X154.438 Y248.562 E8.82638
M73 P9 R12
G1 X154.438 Y51.438 E17.91419
M107
G1 X155.313 Y52.313 F18000
M107
G1 F1800
G1 X250.687 Y52.313 E8.66746
M73 P10 R12
G1 X250.687 Y247.687 E17.75527
M73 P11 R12
G1 X155.313 Y247.687 E8.66746
G1 X155.313 Y52.313 E17.75527
M107
M73 P12 R12
G1 X156.187 Y53.187 F18000
M107
G1 F1800
G1 X249.813 Y53.187 E8.50854
M73 P12 R11
G1 X249.813 Y246.813 E17.59635
M73 P13 R11
G1 X156.187 Y246.813 E8.50854
G1 X156.187 Y53.187 E17.59635
M107
M73 P14 R11
G1 X157.061 Y54.061 F18000
M107
G1 F1800
G1 X248.939 Y54.061 E8.34962
M73 P15 R11
G1 X248.939 Y245.939 E17.43743
G1 X157.061 Y245.939 E8.34962
M73 P16 R11
G1 X157.061 Y54.061 E17.43743
M107
G1 X157.936 Y54.936 F18000
M107
G1 F1800
G1 X248.064 Y54.936 E8.19071
M73 P17 R11
G1 X248.064 Y245.064 E17.27851
M73 P18 R11
G1 X157.936 Y245.064 E8.19071
G1 X157.936 Y54.936 E17.27851
M107
M73 P19 R11
G1 E-0.75 F3000
M204 S1500
G1 Z0.75 F18000
; acceleration to travel
G1 X211.829 Y56.18
; decel to extrusion
M204 S1000
G1 X247.758 Y57.009
; end travel
G1 Z0.25
G1 E0.75 F1800
;TYPE:Solid infill
;WIDTH:0.924043
M107
G1 X245.991 Y55.242 E0.22618
M107
G1 X244.754 Y55.242 F18000
M107
G1 F1800
G1 X247.758 Y58.246 E0.38442
M107
G1 X247.758 Y59.482 F18000
M107
G1 F1800
G1 X243.518 Y55.242 E0.54266
M107
G1 X242.281 Y55.242 F18000
M107
G1 F1800
G1 X247.758 Y60.719 E0.7009
M107
G1 X247.758 Y61.955 F18000
M107
G1 F1800
G1 X241.045 Y55.242 E0.85914
M107
G1 X239.808 Y55.242 F18000
M107
G1 F1800
G1 X247.758 Y63.192 E1.01738
M107
G1 X247.758 Y64.428 F18000
M107
G1 F1800
G1 X238.572 Y55.242 E1.17563
M107
G1 X237.335 Y55.242 F18000
M107
G1 F1800
G1 X247.758 Y65.665 E1.33387
M107
G1 X247.758 Y66.901 F18000
M107
G1 F1800
G1 X236.099 Y55.242 E1.49211
M107
G1 X234.862 Y55.242 F18000
M107
G1 F1800
G1 X247.758 Y68.138 E1.65035
M107
G1 X247.758 Y69.374 F18000
M107
G1 F1800
G1 X233.626 Y55.242 E1.80859
M107
G1 X232.389 Y55.242 F18000
M107
G1 F1800
G1 X247.758 Y70.611 E1.96683
M107
M73 P20 R10
G1 X247.758 Y71.847 F18000
M107
G1 F1800
G1 X231.153 Y55.242 E2.12507
M107
G1 X229.916 Y55.242 F18000
M107
G1 F1800
G1 X247.758 Y73.084 E2.28331
M107
G1 X247.758 Y74.32 F18000
M107
G1 F1800
G1 X228.68 Y55.242 E2.44155
M107
G1 X227.443 Y55.242 F18000
M107
G1 F1800
G1 X247.758 Y75.557 E2.59979
M107
G1 X247.758 Y76.793 F18000
M107
G1 F1800
G1 X226.207 Y55.242 E2.75803
M107
G1 X224.97 Y55.242 F18000
M107
G1 F1800
G1 X247.758 Y78.03 E2.91627
M107
G1 X247.758 Y79.266 F18000
M107
G1 F1800
G1 X223.734 Y55.242 E3.07451
M107
G1 X222.497 Y55.242 F18000
M107
G1 F1800
G1 X247.758 Y80.503 E3.23275
M107
M73 P21 R10
G1 X247.758 Y81.739 F18000
M107
G1 F1800
G1 X221.261 Y55.242 E3.391
M107
G1 X220.024 Y55.242 F18000
M107
G1 F1800
G1 X247.758 Y82.976 E3.54924
M107
G1 X247.758 Y84.213 F18000
M107
G1 F1800
G1 X218.787 Y55.242 E3.70748
M107
G1 X217.551 Y55.242 F18000
M107
G1 F1800
G1 X247.758 Y85.449 E3.86572
M107
G1 X247.758 Y86.686 F18000
M107
G1 F1800
G1 X216.314 Y55.242 E4.02396
M107
G1 X215.078 Y55.242 F18000
M107
G1 F1800
G1 X247.758 Y87.922 E4.1822
M107
M73 P22 R10
G1 X247.758 Y89.159 F18000
M107
G1 F1800
G1 X213.841 Y55.242 E4.34044
M107
G1 X212.605 Y55.242 F18000
M107
G1 F1800
G1 X247.758 Y90.395 E4.49868
M107
G1 X247.758 Y91.632 F18000
M107
G1 F1800
G1 X211.368 Y55.242 E4.65692
M107
G1 X210.132 Y55.242 F18000
M107
G1 F1800
G1 X247.758 Y92.868 E4.81516
M107
M73 P23 R10
G1 X247.758 Y94.105 F18000
M107
G1 F1800
G1 X208.895 Y55.242 E4.9734
M107
G1 X207.659 Y55.242 F18000
M107
G1 F1800
G1 X247.758 Y95.341 E5.13164
M107
G1 X247.758 Y96.578 F18000
M107
G1 F1800
G1 X206.422 Y55.242 E5.28988
M107
G1 X205.186 Y55.242 F18000
M107
G1 F1800
G1 X247.758 Y97.814 E5.44813
M107
G1 X247.758 Y99.051 F18000
M107
G1 F1800
G1 X203.949 Y55.242 E5.60637
M107
M73 P24 R10
G1 X202.713 Y55.242 F18000
M107
G1 F1800
G1 X247.758 Y100.287 E5.76461
M107
G1 X247.758 Y101.524 F18000
M107
G1 F1800
G1 X201.476 Y55.242 E5.92285
M107
G1 X200.24 Y55.242 F18000
M107
G1 F1800
G1 X247.758 Y102.76 E6.08109
M107
M73 P25 R10
G1 X247.758 Y103.997 F18000
M107
G1 F1800
G1 X199.003 Y55.242 E6.23933
M107
G1 X197.767 Y55.242 F18000
M107
G1 F1800
G1 X247.758 Y105.233 E6.39757
M107
G1 X247.758 Y106.47 F18000
M107
G1 F1800
G1 X196.53 Y55.242 E6.55581
M107
G1 X195.294 Y55.242 F18000
M107
G1 F1800
G1 X247.758 Y107.706 E6.71405
M107
M73 P26 R10
G1 X247.758 Y108.943 F18000
M107
G1 F1800
G1 X194.057 Y55.242 E6.87229
M107
G1 X192.821 Y55.242 F18000
M107
G1 F1800
G1 X247.758 Y110.179 E7.03053
M107
G1 X247.758 Y111.416 F18000
M107
G1 F1800
G1 X191.584 Y55.242 E7.18877
M107
M73 P27 R10
G1 X190.348 Y55.242 F18000
M107
G1 F1800
G1 X247.758 Y112.652 E7.34701
M107
M73 P27 R9
G1 X247.758 Y113.889 F18000
M107
G1 F1800
G1 X189.111 Y55.242 E7.50526
M107
G1 X187.875 Y55.242 F18000
M107
G1 F1800
G1 X247.758 Y115.125 E7.6635
M107
M73 P28 R9
G1 X247.758 Y116.362 F18000
M107
G1 F1800
G1 X186.638 Y55.242 E7.82174
M107
G1 X185.402 Y55.242 F18000
M107
G1 F1800
G1 X247.758 Y117.598 E7.97998
M107
G1 X247.758 Y118.835 F18000
M107
M73 P29 R9
G1 F1800
G1 X184.165 Y55.242 E8.13822
M107
G1 X182.929 Y55.242 F18000
M107
G1 F1800
G1 X247.758 Y120.071 E8.29646
M107
G1 X247.758 Y121.308 F18000
M107
G1 F1800
G1 X181.692 Y55.242 E8.4547
M107
M73 P30 R9
G1 X180.455 Y55.242 F18000
M107
G1 F1800
G1 X247.758 Y122.545 E8.61294
M107
G1 X247.758 Y123.781 F18000
M107
G1 F1800
G1 X179.219 Y55.242 E8.77118
M107
G1 X177.982 Y55.242 F18000
M107
G1 F1800
G1 X247.758 Y125.018 E8.92942
M107
M73 P31 R9
G1 X247.758 Y126.254 F18000
M107
G1 F1800
G1 X176.746 Y55.242 E9.08766
M107
G1 X175.509 Y55.242 F18000
M107
G1 F1800
G1 X247.758 Y127.491 E9.2459
M107
M73 P32 R9
G1 X247.758 Y128.727 F18000
M107
G1 F1800
G1 X174.273 Y55.242 E9.40414
M107
G1 X173.036 Y55.242 F18000
M107
G1 F1800
G1 X247.758 Y129.964 E9.56238
M107
M73 P33 R9
G1 X247.758 Y131.2 F18000
M107
G1 F1800
G1 X171.8 Y55.242 E9.72063
M107
G1 X170.563 Y55.242 F18000
M107
G1 F1800
G1 X247.758 Y132.437 E9.87887
M107
G1 X247.758 Y133.673 F18000
M107
G1 F1800
G1 X169.327 Y55.242 E10.03711
M107
M73 P34 R9
G1 X168.09 Y55.242 F18000
M107
G1 F1800
G1 X247.758 Y134.91 E10.19535
M107
M73 P34 R8
G1 X247.758 Y136.146 F18000
M107
G1 F1800
G1 X166.854 Y55.242 E10.35359
M107
M73 P35 R8
G1 X165.617 Y55.242 F18000
M107
G1 F1800
G1 X247.758 Y137.383 E10.51183
M107
G1 X247.758 Y138.619 F18000
M107
G1 F1800
G1 X164.381 Y55.242 E10.67007
M107
M73 P36 R8
G1 X163.144 Y55.242 F18000
M107
G1 F1800
G1 X247.758 Y139.856 E10.82831
M107
G1 X247.758 Y141.092 F18000
M107
G1 F1800
G1 X161.908 Y55.242 E10.98655
M107
M73 P37 R8
G1 X160.671 Y55.242 F18000
M107
G1 F1800
G1 X247.758 Y142.329 E11.14479
M107
G1 X247.758 Y143.565 F18000
M107
G1 F1800
G1 X159.435 Y55.242 E11.30303
M107
M73 P38 R8
G1 X158.242 Y55.285 F18000
M107
G1 F1800
G1 X247.758 Y144.802 E11.4557
M107
G1 X247.758 Y146.038 F18000
M107
G1 F1800
G1 X158.242 Y56.522 E11.4557
M107
M73 P39 R8
G1 X158.242 Y57.758 F18000
M107
G1 F1800
G1 X247.758 Y147.275 E11.4557
M107
G1 X247.758 Y148.511 F18000
M107
G1 F1800
G1 X158.242 Y58.995 E11.4557
M107
M73 P40 R8
G1 X158.242 Y60.231 F18000
M107
G1 F1800
G1 X247.758 Y149.748 E11.4557
M107
G1 X247.758 Y150.984 F18000
M107
G1 F1800
G1 X158.242 Y61.468 E11.4557
M107
M73 P41 R8
G1 X158.242 Y62.704 F18000
M107
G1 F1800
G1 X247.758 Y152.221 E11.4557
M107
M73 P41 R7
G1 X247.758 Y153.457 F18000
M107
G1 F1800
G1 X158.242 Y63.941 E11.4557
M107
M73 P42 R7
G1 X158.242 Y65.177 F18000
M107
G1 F1800
G1 X247.758 Y154.694 E11.4557
M107
M73 P43 R7
G1 X247.758 Y155.93 F18000
M107
G1 F1800
G1 X158.242 Y66.414 E11.4557
M107
G1 X158.242 Y67.65 F18000
M107
G1 F1800
G1 X247.758 Y157.167 E11.4557
M107
M73 P44 R7
G1 X247.758 Y158.403 F18000
M107
G1 F1800
G1 X158.242 Y68.887 E11.4557
M107
G1 X158.242 Y70.123 F18000
M107
G1 F1800
G1 X247.758 Y159.64 E11.4557
M107
M73 P45 R7
G1 X247.758 Y160.877 F18000
M107
G1 F1800
G1 X158.242 Y71.36 E11.4557
M107
G1 X158.242 Y72.597 F18000
M107
G1 F1800
G1 X247.758 Y162.113 E11.4557
M107
M73 P46 R7
G1 X247.758 Y163.35 F18000
M107
G1 F1800
G1 X158.242 Y73.833 E11.4557
M107
G1 X158.242 Y75.07 F18000
M107
G1 F1800
G1 X247.758 Y164.586 E11.4557
M107
M73 P47 R7
G1 X247.758 Y165.823 F18000
M107
G1 F1800
G1 X158.242 Y76.306 E11.4557
M107
G1 X158.242 Y77.543 F18000
M107
G1 F1800
G1 X247.758 Y167.059 E11.4557
M107
M73 P48 R7
G1 X247.758 Y168.296 F18000
M107
G1 F1800
G1 X158.242 Y78.779 E11.4557
M107
G1 X158.242 Y80.016 F18000
M107
G1 F1800
G1 X247.758 Y169.532 E11.4557
M107
M73 P49 R6
G1 X247.758 Y170.769 F18000
M107
G1 F1800
G1 X158.242 Y81.252 E11.4557
M107
G1 X158.242 Y82.489 F18000
M107
G1 F1800
G1 X247.758 Y172.005 E11.4557
M107
M73 P50 R6
G1 X247.758 Y173.242 F18000
M107
G1 F1800
G1 X158.242 Y83.725 E11.4557
M107
G1 X158.242 Y84.962 F18000
M107
G1 F1800
G1 X247.758 Y174.478 E11.4557
M107
M73 P51 R6
G1 X247.758 Y175.715 F18000
M107
G1 F1800
G1 X158.242 Y86.198 E11.4557
M107
G1 X158.242 Y87.435 F18000
M107
G1 F1800
G1 X247.758 Y176.951 E11.4557
M107
M73 P52 R6
G1 X247.758 Y178.188 F18000
M107
G1 F1800
G1 X158.242 Y88.671 E11.4557
M107
G1 X158.242 Y89.908 F18000
M107
G1 F1800
G1 X247.758 Y179.424 E11.4557
M107
M73 P53 R6
G1 X247.758 Y180.661 F18000
M107
G1 F1800
G1 X158.242 Y91.144 E11.4557
M107
G1 X158.242 Y92.381 F18000
M107
G1 F1800
G1 X247.758 Y181.897 E11.4557
M107
M73 P54 R6
G1 X247.758 Y183.134 F18000
M107
G1 F1800
G1 X158.242 Y93.617 E11.4557
M107
M73 P55 R6
G1 X158.242 Y94.854 F18000
M107
G1 F1800
G1 X247.758 Y184.37 E11.4557
M107
G1 X247.758 Y185.607 F18000
M107
G1 F1800
G1 X158.242 Y96.09 E11.4557
M107
M73 P56 R6
G1 X158.242 Y97.327 F18000
M107
G1 F1800
G1 X247.758 Y186.843 E11.4557
M107
M73 P56 R5
G1 X247.758 Y188.08 F18000
M107
G1 F1800
G1 X158.242 Y98.563 E11.4557
M107
M73 P57 R5
G1 X158.242 Y99.8 F18000
M107
G1 F1800
G1 X247.758 Y189.316 E11.4557
M107
G1 X247.758 Y190.553 F18000
M107
G1 F1800
G1 X158.242 Y101.036 E11.4557
M107
M73 P58 R5
G1 X158.242 Y102.273 F18000
M107
G1 F1800
G1 X247.758 Y191.789 E11.4557
M107
G1 X247.758 Y193.026 F18000
M107
G1 F1800
G1 X158.242 Y103.509 E11.4557
M107
M73 P59 R5
G1 X158.242 Y104.746 F18000
M107
G1 F1800
G1 X247.758 Y194.262 E11.4557
M107
G1 X247.758 Y195.499 F18000
M107
G1 F1800
G1 X158.242 Y105.982 E11.4557
M107
M73 P60 R5
G1 X158.242 Y107.219 F18000
M107
G1 F1800
G1 X247.758 Y196.735 E11.4557
M107
G1 X247.758 Y197.972 F18000
M107
G1 F1800
G1 X158.242 Y108.455 E11.4557
M107
M73 P61 R5
G1 X158.242 Y109.692 F18000
M107
G1 F1800
G1 X247.758 Y199.209 E11.4557
M107
G1 X247.758 Y200.445 F18000
M107
G1 F1800
G1 X158.242 Y110.929 E11.4557
M107
M73 P62 R5
G1 X158.242 Y112.165 F18000
M107
G1 F1800
G1 X247.758 Y201.682 E11.4557
M107
G1 X247.758 Y202.918 F18000
M107
G1 F1800
G1 X158.242 Y113.402 E11.4557
M107
M73 P63 R5
G1 X158.242 Y114.638 F18000
M107
G1 F1800
G1 X247.758 Y204.155 E11.4557
M107
M73 P63 R4
G1 X247.758 Y205.391 F18000
M107
G1 F1800
G1 X158.242 Y115.875 E11.4557
M107
M73 P64 R4
G1 X158.242 Y117.111 F18000
M107
G1 F1800
G1 X247.758 Y206.628 E11.4557
M107
G1 X247.758 Y207.864 F18000
M107
G1 F1800
G1 X158.242 Y118.348 E11.4557
M107
M73 P65 R4
G1 X158.242 Y119.584 F18000
M107
G1 F1800
G1 X247.758 Y209.101 E11.4557
M107
G1 X247.758 Y210.337 F18000
M107
G1 F1800
G1 X158.242 Y120.821 E11.4557
M107
M73 P66 R4
G1 X158.242 Y122.057 F18000
M107
G1 F1800
G1 X247.758 Y211.574 E11.4557
M107
M73 P67 R4
G1 X247.758 Y212.81 F18000
M107
G1 F1800
G1 X158.242 Y123.294 E11.4557
M107
G1 X158.242 Y124.53 F18000
M107
G1 F1800
G1 X247.758 Y214.047 E11.4557
M107
M73 P68 R4
G1 X247.758 Y215.283 F18000
M107
G1 F1800
G1 X158.242 Y125.767 E11.4557
M107
G1 X158.242 Y127.003 F18000
M107
G1 F1800
G1 X247.758 Y216.52 E11.4557
M107
M73 P69 R4
G1 X247.758 Y217.756 F18000
M107
G1 F1800
G1 X158.242 Y128.24 E11.4557
M107
G1 X158.242 Y129.476 F18000
M107
G1 F1800
G1 X247.758 Y218.993 E11.4557
M107
M73 P70 R4
G1 X247.758 Y220.229 F18000
M107
G1 F1800
G1 X158.242 Y130.713 E11.4557
M107
G1 X158.242 Y131.949 F18000
M107
G1 F1800
G1 X247.758 Y221.466 E11.4557
M107
M73 P71 R3
G1 X247.758 Y222.702 F18000
M107
G1 F1800
G1 X158.242 Y133.186 E11.4557
M107
G1 X158.242 Y134.422 F18000
M107
G1 F1800
G1 X247.758 Y223.939 E11.4557
M107
M73 P72 R3
G1 X247.758 Y225.175 F18000
M107
G1 F1800
G1 X158.242 Y135.659 E11.4557
M107
G1 X158.242 Y136.895 F18000
M107
G1 F1800
G1 X247.758 Y226.412 E11.4557
M107
M73 P73 R3
G1 X247.758 Y227.648 F18000
M107
G1 F1800
G1 X158.242 Y138.132 E11.4557
M107
G1 X158.242 Y139.368 F18000
M107
G1 F1800
G1 X247.758 Y228.885 E11.4557
M107
M73 P74 R3
G1 X247.758 Y230.121 F18000
M107
G1 F1800
G1 X158.242 Y140.605 E11.4557
M107
G1 X158.242 Y141.841 F18000
M107
G1 F1800
G1 X247.758 Y231.358 E11.4557
M107
M73 P75 R3
G1 X247.758 Y232.594 F18000
M107
G1 F1800
G1 X158.242 Y143.078 E11.4557
M107
G1 X158.242 Y144.314 F18000
M107
G1 F1800
G1 X247.758 Y233.831 E11.4557
M107
M73 P76 R3
G1 X247.758 Y235.067 F18000
M107
G1 F1800
G1 X158.242 Y145.551 E11.4557
M107
G1 X158.242 Y146.787 F18000
M107
G1 F1800
G1 X247.758 Y236.304 E11.4557
M107
M73 P77 R3
G1 X247.758 Y237.541 F18000
M107
G1 F1800
G1 X158.242 Y148.024 E11.4557
M107
G1 X158.242 Y149.261 F18000
M107
G1 F1800
G1 X247.758 Y238.777 E11.4557
M107
M73 P78 R2
G1 X247.758 Y240.014 F18000
M107
G1 F1800
G1 X158.242 Y150.497 E11.4557
M107
M73 P79 R2
G1 X158.242 Y151.734 F18000
M107
G1 F1800
G1 X247.758 Y241.25 E11.4557
M107
G1 X247.758 Y242.487 F18000
M107
G1 F1800
G1 X158.242 Y152.97 E11.4557
M107
M73 P80 R2
G1 X158.242 Y154.207 F18000
M107
G1 F1800
G1 X247.758 Y243.723 E11.4557
M107
G1 X247.557 Y244.758 F18000
M107
G1 F1800
G1 X158.242 Y155.443 E11.42993
M107
M73 P81 R2
G1 X158.242 Y156.68 F18000
M107
G1 F1800
G1 X246.32 Y244.758 E11.27169
M107
G1 X245.084 Y244.758 F18000
M107
G1 F1800
G1 X158.242 Y157.916 E11.11345
M107
M73 P82 R2
G1 X158.242 Y159.153 F18000
M107
G1 F1800
G1 X243.847 Y244.758 E10.95521
M107
G1 X242.611 Y244.758 F18000
M107
G1 F1800
G1 X158.242 Y160.389 E10.79697
M107
M73 P83 R2
G1 X158.242 Y161.626 F18000
M107
G1 F1800
G1 X241.374 Y244.758 E10.63873
M107
G1 X240.138 Y244.758 F18000
M107
G1 F1800
G1 X158.242 Y162.862 E10.48049
M107
M73 P84 R2
G1 X158.242 Y164.099 F18000
M107
G1 F1800
G1 X238.901 Y244.758 E10.32225
M107
G1 X237.665 Y244.758 F18000
M107
G1 F1800
G1 X158.242 Y165.335 E10.164
M107
M73 P85 R2
G1 X158.242 Y166.572 F18000
M107
G1 F1800
G1 X236.428 Y244.758 E10.00576
M107
G1 X235.192 Y244.758 F18000
M107
G1 F1800
G1 X158.242 Y167.808 E9.84752
M107
M73 P85 R1
G1 X158.242 Y169.045 F18000
M107
G1 F1800
G1 X233.955 Y244.758 E9.68928
M107
M73 P86 R1
G1 X232.719 Y244.758 F18000
M107
G1 F1800
G1 X158.242 Y170.281 E9.53104
M107
G1 X158.242 Y171.518 F18000
M107
G1 F1800
G1 X231.482 Y244.758 E9.3728
M107
M73 P87 R1
G1 X230.246 Y244.758 F18000
M107
G1 F1800
G1 X158.242 Y172.754 E9.21456
M107
G1 X158.242 Y173.991 F18000
M107
G1 F1800
G1 X229.009 Y244.758 E9.05632
M107
M73 P88 R1
G1 X227.773 Y244.758 F18000
M107
G1 F1800
G1 X158.242 Y175.227 E8.89808
M107
G1 X158.242 Y176.464 F18000
M107
G1 F1800
G1 X226.536 Y244.758 E8.73984
M107
G1 X225.3 Y244.758 F18000
M107
G1 F1800
G1 X158.242 Y177.7 E8.5816
M107
M73 P89 R1
G1 X158.242 Y178.937 F18000
M107
G1 F1800
G1 X224.063 Y244.758 E8.42336
M107
G1 X222.827 Y244.758 F18000
M107
G1 F1800
G1 X158.242 Y180.173 E8.26512
M107
M73 P90 R1
G1 X158.242 Y181.41 F18000
M107
G1 F1800
G1 X221.59 Y244.758 E8.10688
M107
G1 X220.354 Y244.758 F18000
M107
G1 F1800
G1 X158.242 Y182.646 E7.94863
M107
G1 X158.242 Y183.883 F18000
M107
G1 F1800
G1 X219.117 Y244.758 E7.79039
M107
M73 P91 R1
G1 X217.88 Y244.758 F18000
M107
G1 F1800
G1 X158.242 Y185.119 E7.63215
M107
G1 X158.242 Y186.356 F18000
M107
G1 F1800
G1 X216.644 Y244.758 E7.47391
M107
G1 X215.407 Y244.758 F18000
M107
G1 F1800
G1 X158.242 Y187.593 E7.31567
M107
M73 P92 R1
G1 X158.242 Y188.829 F18000
M107
G1 F1800
G1 X214.171 Y244.758 E7.15743
M107
G1 X212.934 Y244.758 F18000
M107
G1 F1800
G1 X158.242 Y190.066 E6.99919
M107
M73 P92 R0
G1 X158.242 Y191.302 F18000
M107
G1 F1800
G1 X211.698 Y244.758 E6.84095
M107
M73 P93 R0
G1 X210.461 Y244.758 F18000
M107
G1 F1800
G1 X158.242 Y192.539 E6.68271
M107
G1 X158.242 Y193.775 F18000
M107
G1 F1800
G1 X209.225 Y244.758 E6.52447
M107
G1 X207.988 Y244.758 F18000
M107
G1 F1800
G1 X158.242 Y195.012 E6.36623
M107
M73 P94 R0
G1 X158.242 Y196.248 F18000
M107
G1 F1800
G1 X206.752 Y244.758 E6.20799
M107
G1 X205.515 Y244.758 F18000
M107
G1 F1800
G1 X158.242 Y197.485 E6.04975
M107
G1 X158.242 Y198.721 F18000
M107
G1 F1800
G1 X204.279 Y244.758 E5.8915
M107
G1 X203.042 Y244.758 F18000
M107
G1 F1800
G1 X158.242 Y199.958 E5.73326
M107
M73 P95 R0
G1 X158.242 Y201.194 F18000
M107
G1 F1800
G1 X201.806 Y244.758 E5.57502
M107
G1 X200.569 Y244.758 F18000
M107
G1 F1800
G1 X158.242 Y202.431 E5.41678
M107
G1 X158.242 Y203.667 F18000
M107
G1 F1800
G1 X199.333 Y244.758 E5.25854
M107
G1 X198.096 Y244.758 F18000
M107
G1 F1800
G1 X158.242 Y204.904 E5.1003
M107
M73 P96 R0
G1 X158.242 Y206.14 F18000
M107
G1 F1800
G1 X196.86 Y244.758 E4.94206
M107
G1 X195.623 Y244.758 F18000
M107
G1 F1800
G1 X158.242 Y207.377 E4.78382
M107
G1 X158.242 Y208.613 F18000
M107
G1 F1800
G1 X194.387 Y244.758 E4.62558
M107
G1 X193.15 Y244.758 F18000
M107
G1 F1800
G1 X158.242 Y209.85 E4.46734
M107
M73 P97 R0
G1 X158.242 Y211.086 F18000
M107
G1 F1800
G1 X191.914 Y244.758 E4.3091
M107
G1 X190.677 Y244.758 F18000
M107
G1 F1800
G1 X158.242 Y212.323 E4.15086
M107
G1 X158.242 Y213.559 F18000
M107
G1 F1800
G1 X189.441 Y244.758 E3.99262
M107
G1 X188.204 Y244.758 F18000
M107
G1 F1800
G1 X158.242 Y214.796 E3.83438
M107
G1 X158.242 Y216.032 F18000
M107
G1 F1800
G1 X186.968 Y244.758 E3.67613
M107
G1 X185.731 Y244.758 F18000
M107
G1 F1800
G1 X158.242 Y217.269 E3.51789
M107
M73 P98 R0
G1 X158.242 Y218.505 F18000
M107
G1 F1800
G1 X184.495 Y244.758 E3.35965
M107
G1 X183.258 Y244.758 F18000
M107
G1 F1800
G1 X158.242 Y219.742 E3.20141
M107
G1 X158.242 Y220.978 F18000
M107
G1 F1800
G1 X182.022 Y244.758 E3.04317
M107
G1 X180.785 Y244.758 F18000
M107
G1 F1800
G1 X158.242 Y222.215 E2.88493
M107
G1 X158.242 Y223.452 F18000
M107
G1 F1800
G1 X179.548 Y244.758 E2.72669
M107
G1 X178.312 Y244.758 F18000
M107
G1 F1800
G1 X158.242 Y224.688 E2.56845
M107
G1 X158.242 Y225.925 F18000
M107
G1 F1800
G1 X177.075 Y244.758 E2.41021
M107
M73 P99 R0
G1 X175.839 Y244.758 F18000
M107
G1 F1800
G1 X158.242 Y227.161 E2.25197
M107
G1 X158.242 Y228.398 F18000
M107
G1 F1800
G1 X174.602 Y244.758 E2.09373
M107
G1 X173.366 Y244.758 F18000
M107
G1 F1800
G1 X158.242 Y229.634 E1.93549
M107
G1 X158.242 Y230.871 F18000
M107
G1 F1800
G1 X172.129 Y244.758 E1.77725
M107
G1 X170.893 Y244.758 F18000
M107
G1 F1800
G1 X158.242 Y232.107 E1.619
M107
G1 X158.242 Y233.344 F18000
M107
G1 F1800
G1 X169.656 Y244.758 E1.46076
M107
G1 X168.42 Y244.758 F18000
M107
G1 F1800
G1 X158.242 Y234.58 E1.30252
M107
G1 X158.242 Y235.817 F18000
M107
G1 F1800
G1 X167.183 Y244.758 E1.14428
M107
G1 X165.947 Y244.758 F18000
M107
G1 F1800
G1 X158.242 Y237.053 E0.98604
M107
G1 X158.242 Y238.29 F18000
M107
G1 F1800
G1 X164.71 Y244.758 E0.8278
M107
G1 X163.474 Y244.758 F18000
M107
G1 F1800
G1 X158.242 Y239.526 E0.66956
M107
G1 X158.242 Y240.763 F18000
M107
G1 F1800
G1 X162.237 Y244.758 E0.51132
M107
G1 X161.001 Y244.758 F18000
M107
G1 F1800
G1 X158.242 Y241.999 E0.35308
M107
G1 X158.242 Y243.236 F18000
M107
G1 F1800
G1 X159.764 Y244.758 E0.19484
M107
G1 E-0.75 F3000
M204 S1500
G1 Z0.75 F18000
; stop printing object 100x200x0_25.stl id:0 copy 0
EXCLUDE_OBJECT_END NAME=100x200x0_25_stl_id_0_copy_0
M107
;TYPE:Custom
print_end    ;end script from macro
M73 P100 R0
; filament used [mm] = 2122.59
; filament used [cm3] = 5.11
; filament used [g] = 5.41
; filament cost = 0.14
; total filament used [g] = 5.41
; total filament cost = 0.14
; total layers count = 1
; estimated printing time (normal mode) = 13m 44s

; SuperSlicer_config = begin
; allow_empty_layers = 0
; arc_fitting = 0
; arc_fitting_tolerance = 5%
; avoid_crossing_not_first_layer = 1
; avoid_crossing_perimeters = 0
; avoid_crossing_perimeters_max_detour = 0
; avoid_crossing_top = 1
; bed_custom_model = 
; bed_custom_texture = 
; bed_shape = 0x0,300x0,300x300,0x300
; bed_temperature = 110
; before_layer_gcode = ;BEFORE_LAYER_CHANGE\n;[layer_z]\n\n
; between_objects_gcode = 
; bottom_fill_pattern = monotonicgapfill
; bottom_solid_layers = 4
; bottom_solid_min_thickness = 1
; bridge_acceleration = 3000
; bridge_angle = 0
; bridge_fan_speed = -1
; bridge_fill_pattern = monotonic
; bridge_flow_ratio = 70%
; bridge_internal_acceleration = 0
; bridge_internal_fan_speed = -1
; bridge_overlap = 90%
; bridge_overlap_min = 80%
; bridge_speed = 60
; bridge_speed_internal = 150%
; bridge_type = nozzle
; bridged_infill_margin = 300%
; brim_acceleration = 0
; brim_ears = 0
; brim_ears_detection_length = 1
; brim_ears_max_angle = 120
; brim_ears_pattern = concentric
; brim_inside_holes = 0
; brim_per_object = 0
; brim_separation = 0
; brim_speed = 50%
; brim_width = 0
; brim_width_interior = 0
; chamber_temperature = 45
; clip_multipart_objects = 1
; color_change_gcode = M600
; compatible_printers_condition_cummulative = "printer_model=~/.*Voron_v2.*/ and nozzle_diameter[0]==0.8";"printer_model=~/.*Voron.*/ and printer_notes=~/.*E3DV6.*/"
; complete_objects = 0
; complete_objects_one_skirt = 0
; complete_objects_sort = object
; cooling_tube_length = 5
; cooling_tube_retraction = 91.5
; curve_smoothing_angle_concave = 160
; curve_smoothing_angle_convex = 160
; curve_smoothing_cutoff_dist = 4
; curve_smoothing_precision = 0
; default_acceleration = 3000
; default_fan_speed = 0
; default_filament_profile = "Basic PLA @VORON"
; default_print_profile = 0.3mm 0.8nozzle
; default_speed = 100
; deretract_speed = 30
; disable_fan_first_layers = 3
; dont_support_bridges = 0
; draft_shield = disabled
; duplicate_distance = 6
; end_filament_gcode = ""
; end_gcode = print_end    ;end script from macro
; enforce_full_fill_volume = 1
; enforce_retract_first_layer = 1
; ensure_vertical_shell_thickness = 1
; exact_last_layer_height = 0
; external_infill_margin = 150%
; external_perimeter_acceleration = 0
; external_perimeter_cut_corners = 0%
; external_perimeter_extrusion_change_odd_layers = 0
; external_perimeter_extrusion_spacing = 
; external_perimeter_extrusion_width = 93%
; external_perimeter_fan_speed = -1
; external_perimeter_overlap = 100%
; external_perimeter_speed = 40
; external_perimeters_first = 1
; external_perimeters_hole = 1
; external_perimeters_nothole = 1
; external_perimeters_vase = 0
; extra_loading_move = -2
; extra_perimeters = 0
; extra_perimeters_odd_layers = 0
; extra_perimeters_overhangs = 0
; extruder_clearance_height = 20
; extruder_clearance_radius = 70
; extruder_colour = #FFE3CA
; extruder_fan_offset = 0%
; extruder_offset = 0x0
; extruder_temperature_offset = 0
; extrusion_axis = E
; extrusion_multiplier = 1
; extrusion_spacing = 
; extrusion_width = 107%
; fan_below_layer_time = 0
; fan_kickstart = 0
; fan_percentage = 0
; fan_printer_min_speed = 0
; fan_speedup_overhangs = 1
; fan_speedup_time = 0
; feature_gcode = 
; filament_colour = #000000
; filament_cooling_final_speed = 3.4
; filament_cooling_initial_speed = 2.2
; filament_cooling_moves = 4
; filament_cooling_zone_pause = 0
; filament_cost = 26
; filament_custom_variables = ""
; filament_density = 1.06
; filament_diameter = 1.75
; filament_dip_extraction_speed = 70
; filament_dip_insertion_speed = 33
; filament_enable_toolchange_part_fan = 0
; filament_enable_toolchange_temp = 0
; filament_load_time = 0
; filament_loading_speed = 28
; filament_loading_speed_start = 3
; filament_max_overlap = 100%
; filament_max_speed = 0
; filament_max_volumetric_speed = 15
; filament_max_wipe_tower_speed = 0
; filament_melt_zone_pause = 0
; filament_minimal_purge_on_wipe_tower = 15
; filament_notes = ""
; filament_ramming_parameters = "120 100 5.70968 6.03226 7 8.25806 9 9.19355 9.3871 9.77419 10.129 10.3226 10.4516 10.5161| 0.05 5.69677 0.45 6.15484 0.95 8.76774 1.45 9.20323 1.95 9.95806 2.45 10.3871 2.95 10.5677 3.45 7.6 3.95 7.6 4.45 7.6 4.95 7.6"
; filament_settings_id = "ABS+ eSun @VORON - Bob 2024 04 30 a 260C"
; filament_shrink = 100%
; filament_skinnydip_distance = 31
; filament_soluble = 0
; filament_spool_weight = 0
; filament_toolchange_delay = 0
; filament_toolchange_part_fan_speed = 50
; filament_toolchange_temp = 200
; filament_type = ABS+
; filament_unload_time = 0
; filament_unloading_speed = 90
; filament_unloading_speed_start = 100
; filament_use_fast_skinnydip = 0
; filament_use_skinnydip = 0
; filament_vendor = (Unknown)
; filament_wipe_advanced_pigment = 0.5
; fill_angle = 45
; fill_angle_cross = 1
; fill_angle_increment = 0
; fill_density = 18%
; fill_pattern = gyroid
; fill_smooth_distribution = 15%
; fill_smooth_width = 50%
; fill_top_flow_ratio = 100%
; first_layer_acceleration = 1000
; first_layer_acceleration_over_raft = 0
; first_layer_bed_temperature = 110
; first_layer_extrusion_spacing = 
; first_layer_extrusion_width = 116%
; first_layer_flow_ratio = 100%
; first_layer_height = 0.25
; first_layer_infill_speed = 30
; first_layer_min_speed = 30
; first_layer_size_compensation = -0.1
; first_layer_size_compensation_layers = 1
; first_layer_speed = 30
; first_layer_speed_over_raft = 30
; first_layer_temperature = 260
; full_fan_speed_layer = 0
; fuzzy_skin = none
; fuzzy_skin_point_dist = 200%
; fuzzy_skin_thickness = 150%
; gap_fill_acceleration = 0
; gap_fill_enabled = 1
; gap_fill_extension = 0
; gap_fill_fan_speed = -1
; gap_fill_flow_match_perimeter = 0%
; gap_fill_last = 0
; gap_fill_max_width = 0
; gap_fill_min_area = 100%
; gap_fill_min_length = 0
; gap_fill_min_width = 0
; gap_fill_overlap = 100%
; gap_fill_speed = 40
; gcode_ascii = 0
; gcode_comments = 0
; gcode_filename_illegal_char = [<>:"/\\\\|?*]
; gcode_flavor = klipper
; gcode_label_objects = 1
; gcode_precision_e = 5
; gcode_precision_xyz = 3
; gcode_resolution = 0
; gcode_substitutions = 
; high_current_on_filament_swap = 0
; hole_size_compensation = -0.05
; hole_size_threshold = 100
; hole_to_polyhole = 0
; hole_to_polyhole_threshold = 0.01
; hole_to_polyhole_twisted = 1
; host_type = octoprint
; infill_acceleration = 4000
; infill_anchor = 600%
; infill_anchor_max = 0
; infill_connection = connected
; infill_connection_bottom = notconnected
; infill_connection_bridge = connected
; infill_connection_solid = notconnected
; infill_connection_top = notconnected
; infill_dense = 1
; infill_dense_algo = autosmall
; infill_every_layers = 1
; infill_extruder = 1
; infill_extrusion_change_odd_layers = 0
; infill_extrusion_spacing = 
; infill_extrusion_width = 149%
; infill_fan_speed = -1
; infill_first = 0
; infill_only_where_needed = 0
; infill_overlap = 20%
; infill_speed = 125
; inherits_cummulative = "0.15mm 0.8nozzle V2";"Basic ABS @VORON";"Voron_v2_300_afterburner 0.8 nozzle"
; init_z_rotate = 0
; interface_shells = 0
; ironing = 0
; ironing_acceleration = 0
; ironing_angle = -1
; ironing_flowrate = 15%
; ironing_spacing = 0.1
; ironing_speed = 50%
; ironing_type = top
; layer_gcode = ;AFTER_LAYER_CHANGE\n;[layer_z]
; layer_height = 0.2
; lift_min = 0
; machine_limits_usage = time_estimate_only
; machine_max_acceleration_e = 10000
; machine_max_acceleration_extruding = 1500
; machine_max_acceleration_retracting = 1500
; machine_max_acceleration_travel = 10000,1250
; machine_max_acceleration_x = 9000
; machine_max_acceleration_y = 9000
; machine_max_acceleration_z = 500
; machine_max_feedrate_e = 120
; machine_max_feedrate_x = 500
; machine_max_feedrate_y = 500
; machine_max_feedrate_z = 12
; machine_max_jerk_e = 2.5
; machine_max_jerk_x = 5
; machine_max_jerk_y = 5
; machine_max_jerk_z = 0.2
; machine_min_extruding_rate = 0
; machine_min_travel_rate = 0
; max_fan_speed = 0
; max_gcode_per_second = 1500
; max_layer_height = 75%
; max_print_height = 300
; max_print_speed = 250
; max_speed_reduction = 90%
; max_volumetric_extrusion_rate_slope_negative = 0
; max_volumetric_extrusion_rate_slope_positive = 0
; max_volumetric_speed = 14
; milling_after_z = 200%
; milling_extra_size = 150%
; milling_post_process = 0
; milling_speed = 30
; milling_toolchange_end_gcode = 
; milling_toolchange_start_gcode = 
; min_bead_width = 85%
; min_feature_size = 25%
; min_layer_height = 0.0875
; min_length = 0
; min_print_speed = 15
; min_skirt_length = 10
; min_width_top_surface = 100%
; mmu_segmented_region_max_width = 0
; model_precision = 0.0001
; no_perimeter_unsupported_algo = none
; notes = TODO: check the size of the extruder and the y-bar clearance. Optimize & test supports.
; nozzle_diameter = 0.8
; only_one_perimeter_first_layer = 0
; only_one_perimeter_top = 0
; only_one_perimeter_top_other_algo = 0
; only_retract_when_crossing_perimeters = 0
; ooze_prevention = 0
; output_filename_format = [input_filename_base].gcode
; over_bridge_flow_ratio = 110%
; overhangs_acceleration = 0
; overhangs_fan_speed = -1
; overhangs_reverse = 1
; overhangs_reverse_threshold = 300%
; overhangs_speed = 100%
; overhangs_speed_enforce = 0
; overhangs_width = 110%
; overhangs_width_speed = 50%
; parallel_objects_step = 0
; parking_pos_retraction = 92
; pause_print_gcode = M601
; perimeter_acceleration = 2000
; perimeter_bonding = 0%
; perimeter_extruder = 1
; perimeter_extrusion_change_odd_layers = 0
; perimeter_extrusion_spacing = 
; perimeter_extrusion_width = 0
; perimeter_fan_speed = -1
; perimeter_generator = classic
; perimeter_loop = 0
; perimeter_loop_seam = rear
; perimeter_overlap = 100%
; perimeter_round_corners = 0
; perimeter_speed = 100
; perimeters = 6
; physical_printer_settings_id = 
; post_process = 
; print_custom_variables = 
; print_extrusion_multiplier = 100%
; print_retract_length = -1
; print_retract_lift = -1
; print_settings_id = 0.20mm 0.8nozzle V2 - 2024 04 30 a  ellis widths after EM
; print_temperature = 0
; printer_custom_variables = 
; printer_model = Voron_v2_300_afterburner
; printer_notes = Unoffical profile.\nE3DV6
; printer_settings_id = Voron_v2_300_afterburner 0.8 nozzle 2024 04 24 a (as per Ellis PIF)
; printer_technology = FFF
; printer_variant = 0.8
; printer_vendor = 
; raft_contact_distance = 0.1
; raft_expansion = 1.5
; raft_first_layer_density = 90%
; raft_first_layer_expansion = 3
; raft_interface_layer_height = 0
; raft_layer_height = 0
; raft_layers = 0
; remaining_times = 1
; remaining_times_type = m73
; resolution = 0.0125
; resolution_internal = 0.1
; retract_before_travel = 2
; retract_before_wipe = 0%
; retract_layer_change = 0
; retract_length = 0.75
; retract_length_toolchange = 10
; retract_lift = 0.5
; retract_lift_above = 0
; retract_lift_before_travel = 2
; retract_lift_below = 500
; retract_lift_first_layer = 0
; retract_lift_top = "All surfaces"
; retract_restart_extra = 0
; retract_restart_extra_toolchange = 0
; retract_speed = 50
; seam_angle_cost = 80%
; seam_gap = 0
; seam_gap_external = 0
; seam_notch_all = 0
; seam_notch_angle = 250
; seam_notch_inner = 0
; seam_notch_outer = 0
; seam_position = cost
; seam_travel_cost = 20%
; seam_visibility = 1
; silent_mode = 0
; single_extruder_multi_material = 0
; single_extruder_multi_material_priming = 1
; skirt_brim = 0
; skirt_distance = 3
; skirt_distance_from_brim = 1
; skirt_extrusion_width = 0
; skirt_height = 1
; skirts = 1
; slice_closing_radius = 0.049
; slicing_mode = regular
; slowdown_below_layer_time = 15
; small_perimeter_max_length = 20
; small_perimeter_min_length = 6
; small_perimeter_speed = 30
; solid_fill_pattern = monotonic
; solid_infill_acceleration = 0
; solid_infill_below_area = 0
; solid_infill_every_layers = 0
; solid_infill_extruder = 1
; solid_infill_extrusion_change_odd_layers = 0
; solid_infill_extrusion_spacing = 
; solid_infill_extrusion_width = 130%
; solid_infill_fan_speed = -1
; solid_infill_overlap = 100%
; solid_infill_speed = 100
; solid_over_perimeters = 2
; spiral_vase = 0
; standby_temperature_delta = -5
; start_filament_gcode = ""
; start_gcode = ; M190 S0\n; M109 S0 ; uncomment to remove set&wait temp gcode added automatically after this start gcode\nprint_start EXTRUDER={first_layer_temperature[initial_extruder] + extruder_temperature_offset[initial_extruder]} BED=[first_layer_bed_temperature] CHAMBER=[chamber_temperature]
; start_gcode_manual = 0
; support_material = 0
; support_material_acceleration = 0
; support_material_angle = 0
; support_material_angle_height = 0
; support_material_auto = 1
; support_material_bottom_contact_distance = 0.15
; support_material_bottom_interface_layers = -1
; support_material_buildplate_only = 1
; support_material_closing_radius = 2
; support_material_contact_distance = 0.15
; support_material_contact_distance_type = filament
; support_material_enforce_layers = 0
; support_material_extruder = 0
; support_material_extrusion_width = 100%
; support_material_fan_speed = -1
; support_material_interface_acceleration = 0
; support_material_interface_angle = 90
; support_material_interface_angle_increment = 0
; support_material_interface_contact_loops = 0
; support_material_interface_extruder = 0
; support_material_interface_fan_speed = -1
; support_material_interface_layer_height = 0
; support_material_interface_layers = 1
; support_material_interface_pattern = sawtooth
; support_material_interface_spacing = 0.3
; support_material_interface_speed = 70
; support_material_layer_height = 0
; support_material_pattern = rectilinear
; support_material_spacing = 1.2
; support_material_speed = 90
; support_material_style = grid
; support_material_synchronize_layers = 0
; support_material_threshold = 30
; support_material_with_sheath = 0
; support_material_xy_spacing = 0.6
; temperature = 260
; template_custom_gcode = 
; thin_perimeters = 100%
; thin_perimeters_all = 20%
; thin_walls = 1
; thin_walls_acceleration = 0
; thin_walls_merge = 1
; thin_walls_min_width = 50%
; thin_walls_overlap = 50%
; thin_walls_speed = 40
; threads = 16
; thumbnails = 64x64,400x300
; thumbnails_color = #018aff
; thumbnails_custom_color = 0
; thumbnails_end_file = 0
; thumbnails_format = PNG
; thumbnails_tag_format = 0
; thumbnails_with_bed = 1
; time_cost = 0
; time_estimation_compensation = 100%
; time_start_gcode = 20
; time_toolchange = 30
; tool_name = ""
; toolchange_gcode = 
; top_fan_speed = -1
; top_fill_pattern = monotonicgapfill
; top_infill_extrusion_spacing = 
; top_infill_extrusion_width = 93%
; top_solid_infill_acceleration = 0
; top_solid_infill_speed = 50
; top_solid_layers = 5
; top_solid_min_thickness = 1
; travel_acceleration = 1500
; travel_deceleration_use_target = 1
; travel_speed = 300
; travel_speed_z = 0
; use_firmware_retraction = 0
; use_relative_e_distances = 1
; use_volumetric_e = 0
; variable_layer_height = 1
; wall_distribution_count = 1
; wall_transition_angle = 10
; wall_transition_filter_deviation = 25%
; wall_transition_length = 100%
; wipe = 0
; wipe_advanced = 0
; wipe_advanced_algo = linear
; wipe_advanced_multiplier = 60
; wipe_advanced_nozzle_melted_volume = 120
; wipe_extra_perimeter = 0
; wipe_inside_depth = 50%
; wipe_inside_end = 1
; wipe_inside_start = 0
; wipe_into_infill = 0
; wipe_into_objects = 0
; wipe_only_crossing = 1
; wipe_speed = 0
; wipe_tower = 1
; wipe_tower_bridging = 10
; wipe_tower_brim_width = 2
; wipe_tower_no_sparse_layers = 0
; wipe_tower_rotation_angle = 0
; wipe_tower_speed = 80
; wipe_tower_width = 60
; wipe_tower_wipe_starting_speed = 33%
; wipe_tower_x = 180
; wipe_tower_y = 140
; wiping_volumes_extruders = 70,70
; wiping_volumes_matrix = 0
; xy_inner_size_compensation = 0
; xy_size_compensation = 0
; z_offset = 0
; z_step = 0.00625
; SuperSlicer_config = end
