
; ### Ellis' Pressure Advance / Linear Advance Calibration Tool ###
;
; Original Marlin linear advance calibration tool by Sineos [https://github.com/Sineos]
; Heavily modified/rewritten by Andrew Ellis [https://github.com/AndrewEllis93]
;
; -------------------------------------------
; Generated: Fri May 03 2024 20:54:50 GMT+0200 (Central European Summer Time)
; -------------------------------------------
;
; Advanced Mode: false
;
; Printer:
;  - Firmware: klipper
;  - Bed Shape: Rect
;  - Bed Size X: 300 mm
;  - Bed Size Y: 300 mm
;  - Origin Bed Center: false
;  - Travel Speed: 120 mm/s
;  - Nozzle Diameter: 0.8 mm
;  - Filament Diameter: 1.75 mm
;  - Extrusion Multiplier: 1
;
; Retraction / Z Hop:
;  - Retraction Distance: 0.75 mm
;  - Retract Speed: 50 mm/s
;  - Unretract Speed: 30 mm/s
;  - Z Hop Enable: true
;  - Z Hop Height: 0.5mm
;
; First Layer Settings:
;  - First Layer Height: 0.25 mm
;  - First Layer Printing Speed: 30 mm/s
;  - First Layer Fan Speed: 0%
;  - Anchor Option: anchor_frame
;
; Print Settings:
;  - Layer Height: 0.2 mm
;  - Print Speed: 100 mm/s
;  - Acceleration: 750 mm/s^2
;  - Fan Speed: 0%
;
; Pressure Advance Stepping:
;  - PA Start Value: 0.015
;  - PA End Value: 0.022
;  - PA Increment: 0.0005
;
; Start / End G-code:
;  - Hotend Temp: 250C
;  - Bed Temp: 100C
;  - Don't Add G28: false
;  - Don't Add Heating G-Codes: false
;  - Entered Start G-code: 
;       G28 ; Home all axes
;       M190 S100 ; Set & wait for bed temp
;       M109 S250 ; Set & wait for hotend temp
;       PRINT_START ; Start macro
;       ; START_PRINT ; Start macro (alternate / official start macro name)
;  - Entered End G-code: 
;       PRINT_END ; End macro. Change name to match yours
;
; Calculated Values:
;  - Print Size X: 104.79 mm
;  - Print Size Y: 57.55 mm
;  - Number of Patterns to Print: 15
;  - PA Values: 0.015, 0.0155, 0.016, 0.0165, 0.017, 0.0175, 0.018, 0.0185, 0.019, 0.0195, 0.02, 0.0205, 0.021, 0.0215, 0.022
;
; Prepare printing
;


M73 P0 R41
M107
print_start EXTRUDER=250 BED=100 CHAMBER=45
M107
G21 ; Millimeter units
G90 ; Absolute XYZ
M83 ; Relative E
G92 E0 ; Reset extruder distance
M104 S250 ; set temperature
M109 S250 ; set temperature and wait for it to be reached
M190 S100 ; set bed temperature and wait for it to be reached


;
;  Begin printing
;
M106 S0 ; Set fan speed
SET_VELOCITY_LIMIT ACCEL=750 ; Set printing acceleration
G1 E-0.75 F3000 ; Retract
G0 Z5 F7200 ; Z raise
G0 X97.6053 Y121.2268 F7200 ; Move to start position
G0 Z0.25 F7200 ; Move to start layer height
G1 E0.75 F1800 ; Un-retract
SET_PRESSURE_ADVANCE ADVANCE=0.015 ; Set pressure advance to start value
M117 PA 0.015
G1 X97.6053 Y163.6532 E4.70229 F1800 ; Draw perimeter (up)
G1 X202.3947 Y163.6532 E11.61423 F1800 ; Draw perimeter (right)
G1 X202.3947 Y121.2268 E4.70229 F1800 ; Draw perimeter (down)
G1 X97.6053 Y121.2268 E11.61423 F1800 ; Draw perimeter (left)
G0 X98.6717 Y122.2931 F7200 ; Step inwards to print next perimeter
G1 X98.6717 Y162.5869 E4.46592 F1800 ; Draw perimeter (up)
G1 X201.3283 Y162.5869 E11.37786 F1800 ; Draw perimeter (right)
G1 X201.3283 Y122.2931 E4.46592 F1800 ; Draw perimeter (down)
G1 X98.6717 Y122.2931 E11.37786 F1800 ; Draw perimeter (left)
G0 X99.738 Y123.3595 F7200 ; Step inwards to print next perimeter
G1 X99.738 Y161.5205 E4.22954 F1800 ; Draw perimeter (up)
G1 X200.262 Y161.5205 E11.14148 F1800 ; Draw perimeter (right)
G1 X200.262 Y123.3595 E4.22954 F1800 ; Draw perimeter (down)
G1 X99.738 Y123.3595 E11.14148 F1800 ; Draw perimeter (left)
G0 X100.8044 Y124.4258 F7200 ; Step inwards to print next perimeter
G1 X100.8044 Y160.4542 E3.99317 F1800 ; Draw perimeter (up)
G1 X199.1956 Y160.4542 E10.90511 F1800 ; Draw perimeter (right)
G1 X199.1956 Y124.4258 E3.99317 F1800 ; Draw perimeter (down)
G1 X100.8044 Y124.4258 E10.90511 F1800 ; Draw perimeter (left)
G1 E-0.75 F3000 ; Retract
G1 Z0.75 F7200 ; Z hop
G0 X97.6053 Y164.7196 F7200 ; Move to box start
G1 Z0.25 F7200 ; Z hop return
G1 E0.75 F1800 ; Un-retract
G1 X97.6053 Y179.7859 E1.66987 F1800 ; Draw perimeter (up)
G1 X178.8779 Y179.7859 E9.00778 F1800 ; Draw perimeter (right)
G1 X178.8779 Y164.7196 E1.66987 F1800 ; Draw perimeter (down)
G1 X97.6053 Y164.7196 E9.00778 F1800 ; Draw perimeter (left)
G0 X98.6717 Y165.7859 F7200 ; Step inwards to print next perimeter
G1 X98.6717 Y178.7196 E1.43349 F1800 ; Draw perimeter (up)
G1 X177.8116 Y178.7196 E8.7714 F1800 ; Draw perimeter (right)
G1 X177.8116 Y165.7859 E1.43349 F1800 ; Draw perimeter (down)
G1 X98.6717 Y165.7859 E8.7714 F1800 ; Draw perimeter (left)
G0 X99.738 Y166.8523 F7200 ; Step inwards to print next perimeter
G1 X99.738 Y177.6532 E1.19711 F1800 ; Draw perimeter (up)
G1 X176.7452 Y177.6532 E8.53503 F1800 ; Draw perimeter (right)
G1 X176.7452 Y166.8523 E1.19711 F1800 ; Draw perimeter (down)
G1 X99.738 Y166.8523 E8.53503 F1800 ; Draw perimeter (left)
G0 X100.8044 Y167.9186 F7200 ; Step inwards to print next perimeter
G1 X100.8044 Y176.5869 E0.96074 F1800 ; Draw perimeter (up)
G1 X175.6789 Y176.5869 E8.29865 F1800 ; Draw perimeter (right)
G1 X175.6789 Y167.9186 E0.96074 F1800 ; Draw perimeter (down)
G1 X100.8044 Y167.9186 E8.29865 F1800 ; Draw perimeter (left)
G0 X101.5511 Y168.6653 F7200 ; Move to fill start
G0 X103.0591 Y168.6653 F7200 ; Move
G1 X101.5511 Y170.1733 E0.23638 F1800 ; Fill
G0 X101.5511 Y171.6814 F7200 ; Move
G1 X104.5672 Y168.6653 E0.47275 F1800 ; Fill
G0 X106.0752 Y168.6653 F7200 ; Move
G1 X101.5511 Y173.1894 E0.70913 F1800 ; Fill
G0 X101.5511 Y174.6975 F7200 ; Move
G1 X107.5832 Y168.6653 E0.9455 F1800 ; Fill
G0 X109.0913 Y168.6653 F7200 ; Move
G1 X101.9164 Y175.8402 E1.12462 F1800 ; Fill
G0 X103.4244 Y175.8402 F7200 ; Move
G1 X110.5993 Y168.6653 E1.12462 F1800 ; Fill
G0 X112.1074 Y168.6653 F7200 ; Move
G1 X104.9325 Y175.8402 E1.12462 F1800 ; Fill
G0 X106.4405 Y175.8402 F7200 ; Move
G1 X113.6154 Y168.6653 E1.12462 F1800 ; Fill
G0 X115.1235 Y168.6653 F7200 ; Move
G1 X107.9486 Y175.8402 E1.12462 F1800 ; Fill
G0 X109.4566 Y175.8402 F7200 ; Move
G1 X116.6315 Y168.6653 E1.12462 F1800 ; Fill
G0 X118.1396 Y168.6653 F7200 ; Move
G1 X110.9646 Y175.8402 E1.12462 F1800 ; Fill
G0 X112.4727 Y175.8402 F7200 ; Move
G1 X119.6476 Y168.6653 E1.12462 F1800 ; Fill
G0 X121.1557 Y168.6653 F7200 ; Move
G1 X113.9807 Y175.8402 E1.12462 F1800 ; Fill
G0 X115.4888 Y175.8402 F7200 ; Move
G1 X122.6637 Y168.6653 E1.12462 F1800 ; Fill
G0 X124.1718 Y168.6653 F7200 ; Move
G1 X116.9968 Y175.8402 E1.12462 F1800 ; Fill
G0 X118.5049 Y175.8402 F7200 ; Move
G1 X125.6798 Y168.6653 E1.12462 F1800 ; Fill
G0 X127.1878 Y168.6653 F7200 ; Move
G1 X120.0129 Y175.8402 E1.12462 F1800 ; Fill
G0 X121.521 Y175.8402 F7200 ; Move
G1 X128.6959 Y168.6653 E1.12462 F1800 ; Fill
G0 X130.2039 Y168.6653 F7200 ; Move
G1 X123.029 Y175.8402 E1.12462 F1800 ; Fill
G0 X124.5371 Y175.8402 F7200 ; Move
G1 X131.712 Y168.6653 E1.12462 F1800 ; Fill
G0 X133.22 Y168.6653 F7200 ; Move
G1 X126.0451 Y175.8402 E1.12462 F1800 ; Fill
G0 X127.5532 Y175.8402 F7200 ; Move
G1 X134.7281 Y168.6653 E1.12462 F1800 ; Fill
G0 X136.2361 Y168.6653 F7200 ; Move
G1 X129.0612 Y175.8402 E1.12462 F1800 ; Fill
G0 X130.5692 Y175.8402 F7200 ; Move
G1 X137.7442 Y168.6653 E1.12462 F1800 ; Fill
G0 X139.2522 Y168.6653 F7200 ; Move
G1 X132.0773 Y175.8402 E1.12462 F1800 ; Fill
G0 X133.5853 Y175.8402 F7200 ; Move
G1 X140.7603 Y168.6653 E1.12462 F1800 ; Fill
G0 X142.2683 Y168.6653 F7200 ; Move
G1 X135.0934 Y175.8402 E1.12462 F1800 ; Fill
G0 X136.6014 Y175.8402 F7200 ; Move
G1 X143.7764 Y168.6653 E1.12462 F1800 ; Fill
G0 X145.2844 Y168.6653 F7200 ; Move
G1 X138.1095 Y175.8402 E1.12462 F1800 ; Fill
G0 X139.6175 Y175.8402 F7200 ; Move
G1 X146.7924 Y168.6653 E1.12462 F1800 ; Fill
G0 X148.3005 Y168.6653 F7200 ; Move
G1 X141.1256 Y175.8402 E1.12462 F1800 ; Fill
G0 X142.6336 Y175.8402 F7200 ; Move
G1 X149.8085 Y168.6653 E1.12462 F1800 ; Fill
G0 X151.3166 Y168.6653 F7200 ; Move
G1 X144.1417 Y175.8402 E1.12462 F1800 ; Fill
G0 X145.6497 Y175.8402 F7200 ; Move
G1 X152.8246 Y168.6653 E1.12462 F1800 ; Fill
G0 X154.3327 Y168.6653 F7200 ; Move
G1 X147.1578 Y175.8402 E1.12462 F1800 ; Fill
G0 X148.6658 Y175.8402 F7200 ; Move
G1 X155.8407 Y168.6653 E1.12462 F1800 ; Fill
G0 X157.3488 Y168.6653 F7200 ; Move
G1 X150.1738 Y175.8402 E1.12462 F1800 ; Fill
G0 X151.6819 Y175.8402 F7200 ; Move
G1 X158.8568 Y168.6653 E1.12462 F1800 ; Fill
G0 X160.3649 Y168.6653 F7200 ; Move
G1 X153.1899 Y175.8402 E1.12462 F1800 ; Fill
G0 X154.698 Y175.8402 F7200 ; Move
G1 X161.8729 Y168.6653 E1.12462 F1800 ; Fill
G0 X163.3809 Y168.6653 F7200 ; Move
G1 X156.206 Y175.8402 E1.12462 F1800 ; Fill
G0 X157.7141 Y175.8402 F7200 ; Move
G1 X164.889 Y168.6653 E1.12462 F1800 ; Fill
G0 X166.397 Y168.6653 F7200 ; Move
G1 X159.2221 Y175.8402 E1.12462 F1800 ; Fill
G0 X160.7302 Y175.8402 F7200 ; Move
G1 X167.9051 Y168.6653 E1.12462 F1800 ; Fill
G0 X169.4131 Y168.6653 F7200 ; Move
G1 X162.2382 Y175.8402 E1.12462 F1800 ; Fill
G0 X163.7463 Y175.8402 F7200 ; Move
G1 X170.9212 Y168.6653 E1.12462 F1800 ; Fill
G0 X172.4292 Y168.6653 F7200 ; Move
G1 X165.2543 Y175.8402 E1.12462 F1800 ; Fill
G0 X166.7624 Y175.8402 F7200 ; Move
G1 X173.9373 Y168.6653 E1.12462 F1800 ; Fill
G0 X174.9322 Y169.1784 F7200 ; Move
G1 X168.2704 Y175.8402 E1.04419 F1800 ; Fill
G0 X169.7784 Y175.8402 F7200 ; Move
G1 X174.9322 Y170.6864 E0.80782 F1800 ; Fill
G0 X174.9322 Y172.1945 F7200 ; Move
G1 X171.2865 Y175.8402 E0.57144 F1800 ; Fill
G0 X172.7945 Y175.8402 F7200 ; Move
G1 X174.9322 Y173.7025 E0.33507 F1800 ; Fill
G0 X174.9322 Y175.2106 F7200 ; Move
G1 X174.3026 Y175.8402 E0.09869 F1800 ; Fill
G0 Z0.25 F7200 ; Move to layer height
G1 E-0.75 F3000 ; Retract
G1 Z0.75 F7200 ; Z hop
G0 X103.899 Y125.1725 F7200 ; Move to pattern start

G1 Z0.25 F7200 ; Z hop return
G1 E0.75 F1800 ; Un-retract
SET_PRESSURE_ADVANCE ADVANCE=0.015 ; Set pressure advance
M117 PA 0.015
G1 X121.1665 Y142.44 E2.14817 F1800 ; Print pattern wall
G1 X103.899 Y159.7075 E2.14817 F1800 ; Print pattern wall
G1 E-0.75 F3000 ; Retract
G1 Z0.75 F7200 ; Z hop
G0 X105.1111 Y125.1725 F7200 ; Move to start next pattern wall
G1 Z0.25 F7200 ; Z hop return
G1 E0.75 F1800 ; Un-retract
G1 X122.3786 Y142.44 E2.14817 F1800 ; Print pattern wall
G1 X105.1111 Y159.7075 E2.14817 F1800 ; Print pattern wall
G1 E-0.75 F3000 ; Retract
G1 Z0.75 F7200 ; Z hop
G0 X106.3232 Y125.1725 F7200 ; Move to start next pattern wall
G1 Z0.25 F7200 ; Z hop return
G1 E0.75 F1800 ; Un-retract
G1 X123.5906 Y142.44 E2.14817 F1800 ; Print pattern wall
G1 X106.3232 Y159.7075 E2.14817 F1800 ; Print pattern wall
G1 E-0.75 F3000 ; Retract
G1 Z0.75 F7200 ; Z hop
G0 X109.2232 Y125.1725 F7200 ; Move to next pattern
G1 Z0.25 F7200 ; Z hop return
G1 E0.75 F1800 ; Un-retract
SET_PRESSURE_ADVANCE ADVANCE=0.0155 ; Set pressure advance
M117 PA 0.0155
G1 X126.4906 Y142.44 E2.14817 F1800 ; Print pattern wall
G1 X109.2232 Y159.7075 E2.14817 F1800 ; Print pattern wall
G1 E-0.75 F3000 ; Retract
G1 Z0.75 F7200 ; Z hop
G0 X110.4353 Y125.1725 F7200 ; Move to start next pattern wall
G1 Z0.25 F7200 ; Z hop return
G1 E0.75 F1800 ; Un-retract
G1 X127.7027 Y142.44 E2.14817 F1800 ; Print pattern wall
G1 X110.4353 Y159.7075 E2.14817 F1800 ; Print pattern wall
G1 E-0.75 F3000 ; Retract
G1 Z0.75 F7200 ; Z hop
G0 X111.6473 Y125.1725 F7200 ; Move to start next pattern wall
G1 Z0.25 F7200 ; Z hop return
G1 E0.75 F1800 ; Un-retract
G1 X128.9148 Y142.44 E2.14817 F1800 ; Print pattern wall
G1 X111.6473 Y159.7075 E2.14817 F1800 ; Print pattern wall
G1 E-0.75 F3000 ; Retract
G1 Z0.75 F7200 ; Z hop
G0 X114.5473 Y125.1725 F7200 ; Move to next pattern
G1 Z0.25 F7200 ; Z hop return
G1 E0.75 F1800 ; Un-retract
SET_PRESSURE_ADVANCE ADVANCE=0.016 ; Set pressure advance
M117 PA 0.016
G1 X131.8148 Y142.44 E2.14817 F1800 ; Print pattern wall
G1 X114.5473 Y159.7075 E2.14817 F1800 ; Print pattern wall
G1 E-0.75 F3000 ; Retract
G1 Z0.75 F7200 ; Z hop
G0 X115.7594 Y125.1725 F7200 ; Move to start next pattern wall
G1 Z0.25 F7200 ; Z hop return
G1 E0.75 F1800 ; Un-retract
G1 X133.0269 Y142.44 E2.14817 F1800 ; Print pattern wall
G1 X115.7594 Y159.7075 E2.14817 F1800 ; Print pattern wall
G1 E-0.75 F3000 ; Retract
G1 Z0.75 F7200 ; Z hop
G0 X116.9715 Y125.1725 F7200 ; Move to start next pattern wall
G1 Z0.25 F7200 ; Z hop return
G1 E0.75 F1800 ; Un-retract
G1 X134.239 Y142.44 E2.14817 F1800 ; Print pattern wall
G1 X116.9715 Y159.7075 E2.14817 F1800 ; Print pattern wall
G1 E-0.75 F3000 ; Retract
G1 Z0.75 F7200 ; Z hop
G0 X119.8715 Y125.1725 F7200 ; Move to next pattern
G1 Z0.25 F7200 ; Z hop return
G1 E0.75 F1800 ; Un-retract
SET_PRESSURE_ADVANCE ADVANCE=0.0165 ; Set pressure advance
M117 PA 0.0165
G1 X137.139 Y142.44 E2.14817 F1800 ; Print pattern wall
G1 X119.8715 Y159.7075 E2.14817 F1800 ; Print pattern wall
G1 E-0.75 F3000 ; Retract
G1 Z0.75 F7200 ; Z hop
G0 X121.0836 Y125.1725 F7200 ; Move to start next pattern wall
G1 Z0.25 F7200 ; Z hop return
G1 E0.75 F1800 ; Un-retract
G1 X138.3511 Y142.44 E2.14817 F1800 ; Print pattern wall
G1 X121.0836 Y159.7075 E2.14817 F1800 ; Print pattern wall
G1 E-0.75 F3000 ; Retract
G1 Z0.75 F7200 ; Z hop
G0 X122.2957 Y125.1725 F7200 ; Move to start next pattern wall
G1 Z0.25 F7200 ; Z hop return
G1 E0.75 F1800 ; Un-retract
G1 X139.5632 Y142.44 E2.14817 F1800 ; Print pattern wall
G1 X122.2957 Y159.7075 E2.14817 F1800 ; Print pattern wall
G1 E-0.75 F3000 ; Retract
G1 Z0.75 F7200 ; Z hop
G0 X125.1957 Y125.1725 F7200 ; Move to next pattern
G1 Z0.25 F7200 ; Z hop return
G1 E0.75 F1800 ; Un-retract
SET_PRESSURE_ADVANCE ADVANCE=0.017 ; Set pressure advance
M117 PA 0.017
G1 X142.4632 Y142.44 E2.14817 F1800 ; Print pattern wall
G1 X125.1957 Y159.7075 E2.14817 F1800 ; Print pattern wall
G1 E-0.75 F3000 ; Retract
G1 Z0.75 F7200 ; Z hop
G0 X126.4078 Y125.1725 F7200 ; Move to start next pattern wall
G1 Z0.25 F7200 ; Z hop return
G1 E0.75 F1800 ; Un-retract
G1 X143.6753 Y142.44 E2.14817 F1800 ; Print pattern wall
G1 X126.4078 Y159.7075 E2.14817 F1800 ; Print pattern wall
G1 E-0.75 F3000 ; Retract
G1 Z0.75 F7200 ; Z hop
G0 X127.6199 Y125.1725 F7200 ; Move to start next pattern wall
G1 Z0.25 F7200 ; Z hop return
G1 E0.75 F1800 ; Un-retract
G1 X144.8874 Y142.44 E2.14817 F1800 ; Print pattern wall
G1 X127.6199 Y159.7075 E2.14817 F1800 ; Print pattern wall
G1 E-0.75 F3000 ; Retract
G1 Z0.75 F7200 ; Z hop
G0 X130.5199 Y125.1725 F7200 ; Move to next pattern
G1 Z0.25 F7200 ; Z hop return
G1 E0.75 F1800 ; Un-retract
SET_PRESSURE_ADVANCE ADVANCE=0.0175 ; Set pressure advance
M117 PA 0.0175
G1 X147.7874 Y142.44 E2.14817 F1800 ; Print pattern wall
G1 X130.5199 Y159.7075 E2.14817 F1800 ; Print pattern wall
G1 E-0.75 F3000 ; Retract
G1 Z0.75 F7200 ; Z hop
G0 X131.732 Y125.1725 F7200 ; Move to start next pattern wall
G1 Z0.25 F7200 ; Z hop return
G1 E0.75 F1800 ; Un-retract
G1 X148.9995 Y142.44 E2.14817 F1800 ; Print pattern wall
G1 X131.732 Y159.7075 E2.14817 F1800 ; Print pattern wall
G1 E-0.75 F3000 ; Retract
G1 Z0.75 F7200 ; Z hop
G0 X132.9441 Y125.1725 F7200 ; Move to start next pattern wall
G1 Z0.25 F7200 ; Z hop return
G1 E0.75 F1800 ; Un-retract
G1 X150.2116 Y142.44 E2.14817 F1800 ; Print pattern wall
G1 X132.9441 Y159.7075 E2.14817 F1800 ; Print pattern wall
G1 E-0.75 F3000 ; Retract
G1 Z0.75 F7200 ; Z hop
G0 X135.8441 Y125.1725 F7200 ; Move to next pattern
G1 Z0.25 F7200 ; Z hop return
G1 E0.75 F1800 ; Un-retract
SET_PRESSURE_ADVANCE ADVANCE=0.018 ; Set pressure advance
M117 PA 0.018
G1 X153.1116 Y142.44 E2.14817 F1800 ; Print pattern wall
G1 X135.8441 Y159.7075 E2.14817 F1800 ; Print pattern wall
G1 E-0.75 F3000 ; Retract
G1 Z0.75 F7200 ; Z hop
G0 X137.0562 Y125.1725 F7200 ; Move to start next pattern wall
G1 Z0.25 F7200 ; Z hop return
G1 E0.75 F1800 ; Un-retract
G1 X154.3237 Y142.44 E2.14817 F1800 ; Print pattern wall
G1 X137.0562 Y159.7075 E2.14817 F1800 ; Print pattern wall
G1 E-0.75 F3000 ; Retract
G1 Z0.75 F7200 ; Z hop
G0 X138.2683 Y125.1725 F7200 ; Move to start next pattern wall
G1 Z0.25 F7200 ; Z hop return
G1 E0.75 F1800 ; Un-retract
G1 X155.5358 Y142.44 E2.14817 F1800 ; Print pattern wall
G1 X138.2683 Y159.7075 E2.14817 F1800 ; Print pattern wall
G1 E-0.75 F3000 ; Retract
G1 Z0.75 F7200 ; Z hop
G0 X141.1683 Y125.1725 F7200 ; Move to next pattern
G1 Z0.25 F7200 ; Z hop return
G1 E0.75 F1800 ; Un-retract
SET_PRESSURE_ADVANCE ADVANCE=0.0185 ; Set pressure advance
M117 PA 0.0185
G1 X158.4358 Y142.44 E2.14817 F1800 ; Print pattern wall
G1 X141.1683 Y159.7075 E2.14817 F1800 ; Print pattern wall
G1 E-0.75 F3000 ; Retract
G1 Z0.75 F7200 ; Z hop
G0 X142.3804 Y125.1725 F7200 ; Move to start next pattern wall
G1 Z0.25 F7200 ; Z hop return
G1 E0.75 F1800 ; Un-retract
G1 X159.6479 Y142.44 E2.14817 F1800 ; Print pattern wall
G1 X142.3804 Y159.7075 E2.14817 F1800 ; Print pattern wall
G1 E-0.75 F3000 ; Retract
G1 Z0.75 F7200 ; Z hop
G0 X143.5925 Y125.1725 F7200 ; Move to start next pattern wall
G1 Z0.25 F7200 ; Z hop return
G1 E0.75 F1800 ; Un-retract
G1 X160.86 Y142.44 E2.14817 F1800 ; Print pattern wall
G1 X143.5925 Y159.7075 E2.14817 F1800 ; Print pattern wall
G1 E-0.75 F3000 ; Retract
G1 Z0.75 F7200 ; Z hop
G0 X146.4925 Y125.1725 F7200 ; Move to next pattern
G1 Z0.25 F7200 ; Z hop return
G1 E0.75 F1800 ; Un-retract
SET_PRESSURE_ADVANCE ADVANCE=0.019 ; Set pressure advance
M117 PA 0.019
G1 X163.76 Y142.44 E2.14817 F1800 ; Print pattern wall
G1 X146.4925 Y159.7075 E2.14817 F1800 ; Print pattern wall
G1 E-0.75 F3000 ; Retract
G1 Z0.75 F7200 ; Z hop
G0 X147.7046 Y125.1725 F7200 ; Move to start next pattern wall
G1 Z0.25 F7200 ; Z hop return
G1 E0.75 F1800 ; Un-retract
G1 X164.972 Y142.44 E2.14817 F1800 ; Print pattern wall
G1 X147.7046 Y159.7075 E2.14817 F1800 ; Print pattern wall
G1 E-0.75 F3000 ; Retract
G1 Z0.75 F7200 ; Z hop
G0 X148.9167 Y125.1725 F7200 ; Move to start next pattern wall
G1 Z0.25 F7200 ; Z hop return
G1 E0.75 F1800 ; Un-retract
G1 X166.1841 Y142.44 E2.14817 F1800 ; Print pattern wall
G1 X148.9167 Y159.7075 E2.14817 F1800 ; Print pattern wall
G1 E-0.75 F3000 ; Retract
G1 Z0.75 F7200 ; Z hop
G0 X151.8167 Y125.1725 F7200 ; Move to next pattern
G1 Z0.25 F7200 ; Z hop return
G1 E0.75 F1800 ; Un-retract
SET_PRESSURE_ADVANCE ADVANCE=0.0195 ; Set pressure advance
M117 PA 0.0195
G1 X169.0841 Y142.44 E2.14817 F1800 ; Print pattern wall
G1 X151.8167 Y159.7075 E2.14817 F1800 ; Print pattern wall
G1 E-0.75 F3000 ; Retract
G1 Z0.75 F7200 ; Z hop
G0 X153.0287 Y125.1725 F7200 ; Move to start next pattern wall
G1 Z0.25 F7200 ; Z hop return
G1 E0.75 F1800 ; Un-retract
G1 X170.2962 Y142.44 E2.14817 F1800 ; Print pattern wall
G1 X153.0287 Y159.7075 E2.14817 F1800 ; Print pattern wall
G1 E-0.75 F3000 ; Retract
G1 Z0.75 F7200 ; Z hop
G0 X154.2408 Y125.1725 F7200 ; Move to start next pattern wall
G1 Z0.25 F7200 ; Z hop return
G1 E0.75 F1800 ; Un-retract
G1 X171.5083 Y142.44 E2.14817 F1800 ; Print pattern wall
G1 X154.2408 Y159.7075 E2.14817 F1800 ; Print pattern wall
G1 E-0.75 F3000 ; Retract
G1 Z0.75 F7200 ; Z hop
G0 X157.1408 Y125.1725 F7200 ; Move to next pattern
G1 Z0.25 F7200 ; Z hop return
G1 E0.75 F1800 ; Un-retract
SET_PRESSURE_ADVANCE ADVANCE=0.02 ; Set pressure advance
M117 PA 0.02
G1 X174.4083 Y142.44 E2.14817 F1800 ; Print pattern wall
G1 X157.1408 Y159.7075 E2.14817 F1800 ; Print pattern wall
G1 E-0.75 F3000 ; Retract
G1 Z0.75 F7200 ; Z hop
G0 X158.3529 Y125.1725 F7200 ; Move to start next pattern wall
G1 Z0.25 F7200 ; Z hop return
G1 E0.75 F1800 ; Un-retract
G1 X175.6204 Y142.44 E2.14817 F1800 ; Print pattern wall
G1 X158.3529 Y159.7075 E2.14817 F1800 ; Print pattern wall
G1 E-0.75 F3000 ; Retract
G1 Z0.75 F7200 ; Z hop
G0 X159.565 Y125.1725 F7200 ; Move to start next pattern wall
G1 Z0.25 F7200 ; Z hop return
G1 E0.75 F1800 ; Un-retract
G1 X176.8325 Y142.44 E2.14817 F1800 ; Print pattern wall
G1 X159.565 Y159.7075 E2.14817 F1800 ; Print pattern wall
G1 E-0.75 F3000 ; Retract
G1 Z0.75 F7200 ; Z hop
G0 X162.465 Y125.1725 F7200 ; Move to next pattern
G1 Z0.25 F7200 ; Z hop return
G1 E0.75 F1800 ; Un-retract
SET_PRESSURE_ADVANCE ADVANCE=0.0205 ; Set pressure advance
M117 PA 0.0205
G1 X179.7325 Y142.44 E2.14817 F1800 ; Print pattern wall
G1 X162.465 Y159.7075 E2.14817 F1800 ; Print pattern wall
G1 E-0.75 F3000 ; Retract
G1 Z0.75 F7200 ; Z hop
G0 X163.6771 Y125.1725 F7200 ; Move to start next pattern wall
G1 Z0.25 F7200 ; Z hop return
G1 E0.75 F1800 ; Un-retract
G1 X180.9446 Y142.44 E2.14817 F1800 ; Print pattern wall
G1 X163.6771 Y159.7075 E2.14817 F1800 ; Print pattern wall
G1 E-0.75 F3000 ; Retract
G1 Z0.75 F7200 ; Z hop
G0 X164.8892 Y125.1725 F7200 ; Move to start next pattern wall
G1 Z0.25 F7200 ; Z hop return
G1 E0.75 F1800 ; Un-retract
G1 X182.1567 Y142.44 E2.14817 F1800 ; Print pattern wall
G1 X164.8892 Y159.7075 E2.14817 F1800 ; Print pattern wall
G1 E-0.75 F3000 ; Retract
G1 Z0.75 F7200 ; Z hop
G0 X167.7892 Y125.1725 F7200 ; Move to next pattern
G1 Z0.25 F7200 ; Z hop return
G1 E0.75 F1800 ; Un-retract
SET_PRESSURE_ADVANCE ADVANCE=0.021 ; Set pressure advance
M117 PA 0.021
G1 X185.0567 Y142.44 E2.14817 F1800 ; Print pattern wall
G1 X167.7892 Y159.7075 E2.14817 F1800 ; Print pattern wall
G1 E-0.75 F3000 ; Retract
G1 Z0.75 F7200 ; Z hop
G0 X169.0013 Y125.1725 F7200 ; Move to start next pattern wall
G1 Z0.25 F7200 ; Z hop return
G1 E0.75 F1800 ; Un-retract
G1 X186.2688 Y142.44 E2.14817 F1800 ; Print pattern wall
G1 X169.0013 Y159.7075 E2.14817 F1800 ; Print pattern wall
G1 E-0.75 F3000 ; Retract
G1 Z0.75 F7200 ; Z hop
G0 X170.2134 Y125.1725 F7200 ; Move to start next pattern wall
G1 Z0.25 F7200 ; Z hop return
G1 E0.75 F1800 ; Un-retract
G1 X187.4809 Y142.44 E2.14817 F1800 ; Print pattern wall
G1 X170.2134 Y159.7075 E2.14817 F1800 ; Print pattern wall
G1 E-0.75 F3000 ; Retract
G1 Z0.75 F7200 ; Z hop
G0 X173.1134 Y125.1725 F7200 ; Move to next pattern
G1 Z0.25 F7200 ; Z hop return
G1 E0.75 F1800 ; Un-retract
SET_PRESSURE_ADVANCE ADVANCE=0.0215 ; Set pressure advance
M117 PA 0.0215
G1 X190.3809 Y142.44 E2.14817 F1800 ; Print pattern wall
G1 X173.1134 Y159.7075 E2.14817 F1800 ; Print pattern wall
G1 E-0.75 F3000 ; Retract
G1 Z0.75 F7200 ; Z hop
G0 X174.3255 Y125.1725 F7200 ; Move to start next pattern wall
G1 Z0.25 F7200 ; Z hop return
G1 E0.75 F1800 ; Un-retract
G1 X191.593 Y142.44 E2.14817 F1800 ; Print pattern wall
G1 X174.3255 Y159.7075 E2.14817 F1800 ; Print pattern wall
G1 E-0.75 F3000 ; Retract
G1 Z0.75 F7200 ; Z hop
G0 X175.5376 Y125.1725 F7200 ; Move to start next pattern wall
G1 Z0.25 F7200 ; Z hop return
G1 E0.75 F1800 ; Un-retract
G1 X192.8051 Y142.44 E2.14817 F1800 ; Print pattern wall
G1 X175.5376 Y159.7075 E2.14817 F1800 ; Print pattern wall
G1 E-0.75 F3000 ; Retract
G1 Z0.75 F7200 ; Z hop
G0 X178.4376 Y125.1725 F7200 ; Move to next pattern
G1 Z0.25 F7200 ; Z hop return
G1 E0.75 F1800 ; Un-retract
SET_PRESSURE_ADVANCE ADVANCE=0.022 ; Set pressure advance
M117 PA 0.022
G1 X195.7051 Y142.44 E2.14817 F1800 ; Print pattern wall
G1 X178.4376 Y159.7075 E2.14817 F1800 ; Print pattern wall
G1 E-0.75 F3000 ; Retract
G1 Z0.75 F7200 ; Z hop
G0 X179.6497 Y125.1725 F7200 ; Move to start next pattern wall
G1 Z0.25 F7200 ; Z hop return
G1 E0.75 F1800 ; Un-retract
G1 X196.9172 Y142.44 E2.14817 F1800 ; Print pattern wall
G1 X179.6497 Y159.7075 E2.14817 F1800 ; Print pattern wall
G1 E-0.75 F3000 ; Retract
G1 Z0.75 F7200 ; Z hop
G0 X180.8618 Y125.1725 F7200 ; Move to start next pattern wall
G1 Z0.25 F7200 ; Z hop return
G1 E0.75 F1800 ; Un-retract
G1 X198.1293 Y142.44 E2.14817 F1800 ; Print pattern wall
G1 X180.8618 Y159.7075 E2.14817 F1800 ; Print pattern wall
G1 E-0.75 F3000 ; Retract
G1 Z0.75 F7200 ; Z hop
G0 X103.899 Y125.1725 F7200 ; Move back to start position
G1 Z0.25 F7200 ; Z hop return
G1 E0.75 F1800 ; Un-retract
M106 S0 ; Set fan speed
G0 Z0.45 F7200 ; Move to layer height
SET_PRESSURE_ADVANCE ADVANCE=0.015 ; Set pressure advance to start value for numbering
M117 PA 0.015
G1 E-0.75 F3000 ; Retract
G1 Z0.95 F7200 ; Z hop
G0 X99.1653 Y165.5532 F7200 ; Move
G1 Z0.45 F7200 ; Z hop return
G1 E0.75 F1800 ; Un-retract
G1 X101.1653 Y165.5532 E0.14253 F1800 ; Glyph: 0
G1 X103.1653 Y165.5532 E0.14253 F1800 ; Glyph: 0
G1 X103.1653 Y167.5532 E0.14253 F1800 ; Glyph: 0
G1 X101.1653 Y167.5532 E0.14253 F1800 ; Glyph: 0
G1 X99.1653 Y167.5532 E0.14253 F1800 ; Glyph: 0
G1 X99.1653 Y165.5532 E0.14253 F1800 ; Glyph: 0
G1 E-0.75 F3000 ; Retract
G1 Z0.95 F7200 ; Z hop
G0 X103.1653 Y168.5532 F7200 ; Move
G1 Z0.45 F7200 ; Z hop return
G1 E0.75 F1800 ; Un-retract
G1 X102.4153 Y168.5532 E0.05345 F1800 ; Glyph: .
G1 E-0.75 F3000 ; Retract
G1 Z0.95 F7200 ; Z hop
G0 X99.1653 Y169.5532 F7200 ; Move
G1 Z0.45 F7200 ; Z hop return
G1 E0.75 F1800 ; Un-retract
G1 X101.1653 Y169.5532 E0.14253 F1800 ; Glyph: 0
G1 X103.1653 Y169.5532 E0.14253 F1800 ; Glyph: 0
G1 X103.1653 Y171.5532 E0.14253 F1800 ; Glyph: 0
G1 X101.1653 Y171.5532 E0.14253 F1800 ; Glyph: 0
G1 X99.1653 Y171.5532 E0.14253 F1800 ; Glyph: 0
G1 X99.1653 Y169.5532 E0.14253 F1800 ; Glyph: 0
G1 E-0.75 F3000 ; Retract
G1 Z0.95 F7200 ; Z hop
G0 X99.1653 Y172.5532 F7200 ; Move
G1 Z0.45 F7200 ; Z hop return
G1 E0.75 F1800 ; Un-retract
G1 X101.1653 Y172.5532 E0.14253 F1800 ; Glyph: 1
G1 X103.1653 Y172.5532 E0.14253 F1800 ; Glyph: 1
G1 E-0.75 F3000 ; Retract
G1 Z0.95 F7200 ; Z hop
G0 X99.1653 Y175.5532 F7200 ; Move
G1 Z0.45 F7200 ; Z hop return
G1 E0.75 F1800 ; Un-retract
G1 X99.1653 Y173.5532 E0.14253 F1800 ; Glyph: 5
G1 X101.1653 Y173.5532 E0.14253 F1800 ; Glyph: 5
G1 X101.1653 Y175.5532 E0.14253 F1800 ; Glyph: 5
G1 X103.1653 Y175.5532 E0.14253 F1800 ; Glyph: 5
G1 X103.1653 Y173.5532 E0.14253 F1800 ; Glyph: 5
G1 E-0.75 F3000 ; Retract
G1 Z0.95 F7200 ; Z hop
G0 X109.8137 Y165.5532 F7200 ; Move
G1 Z0.45 F7200 ; Z hop return
G1 E0.75 F1800 ; Un-retract
G1 X111.8137 Y165.5532 E0.14253 F1800 ; Glyph: 0
G1 X113.8137 Y165.5532 E0.14253 F1800 ; Glyph: 0
G1 X113.8137 Y167.5532 E0.14253 F1800 ; Glyph: 0
G1 X111.8137 Y167.5532 E0.14253 F1800 ; Glyph: 0
G1 X109.8137 Y167.5532 E0.14253 F1800 ; Glyph: 0
G1 X109.8137 Y165.5532 E0.14253 F1800 ; Glyph: 0
G1 E-0.75 F3000 ; Retract
G1 Z0.95 F7200 ; Z hop
G0 X113.8137 Y168.5532 F7200 ; Move
G1 Z0.45 F7200 ; Z hop return
G1 E0.75 F1800 ; Un-retract
G1 X113.0637 Y168.5532 E0.05345 F1800 ; Glyph: .
G1 E-0.75 F3000 ; Retract
G1 Z0.95 F7200 ; Z hop
G0 X109.8137 Y169.5532 F7200 ; Move
G1 Z0.45 F7200 ; Z hop return
G1 E0.75 F1800 ; Un-retract
G1 X111.8137 Y169.5532 E0.14253 F1800 ; Glyph: 0
G1 X113.8137 Y169.5532 E0.14253 F1800 ; Glyph: 0
G1 X113.8137 Y171.5532 E0.14253 F1800 ; Glyph: 0
G1 X111.8137 Y171.5532 E0.14253 F1800 ; Glyph: 0
G1 X109.8137 Y171.5532 E0.14253 F1800 ; Glyph: 0
G1 X109.8137 Y169.5532 E0.14253 F1800 ; Glyph: 0
G1 E-0.75 F3000 ; Retract
G1 Z0.95 F7200 ; Z hop
G0 X109.8137 Y172.5532 F7200 ; Move
G1 Z0.45 F7200 ; Z hop return
G1 E0.75 F1800 ; Un-retract
G1 X111.8137 Y172.5532 E0.14253 F1800 ; Glyph: 1
G1 X113.8137 Y172.5532 E0.14253 F1800 ; Glyph: 1
G1 E-0.75 F3000 ; Retract
G1 Z0.95 F7200 ; Z hop
G0 X109.8137 Y175.5532 F7200 ; Move
G1 Z0.45 F7200 ; Z hop return
G1 E0.75 F1800 ; Un-retract
G1 X109.8137 Y173.5532 E0.14253 F1800 ; Glyph: 6
G1 X111.8137 Y173.5532 E0.14253 F1800 ; Glyph: 6
G1 X113.8137 Y173.5532 E0.14253 F1800 ; Glyph: 6
G1 X113.8137 Y175.5532 E0.14253 F1800 ; Glyph: 6
G1 X111.8137 Y175.5532 E0.14253 F1800 ; Glyph: 6
G1 X111.8137 Y173.5532 E0.14253 F1800 ; Glyph: 6
G1 E-0.75 F3000 ; Retract
G1 Z0.95 F7200 ; Z hop
G0 X120.4621 Y165.5532 F7200 ; Move
G1 Z0.45 F7200 ; Z hop return
G1 E0.75 F1800 ; Un-retract
G1 X122.4621 Y165.5532 E0.14253 F1800 ; Glyph: 0
G1 X124.4621 Y165.5532 E0.14253 F1800 ; Glyph: 0
G1 X124.4621 Y167.5532 E0.14253 F1800 ; Glyph: 0
G1 X122.4621 Y167.5532 E0.14253 F1800 ; Glyph: 0
G1 X120.4621 Y167.5532 E0.14253 F1800 ; Glyph: 0
G1 X120.4621 Y165.5532 E0.14253 F1800 ; Glyph: 0
G1 E-0.75 F3000 ; Retract
G1 Z0.95 F7200 ; Z hop
G0 X124.4621 Y168.5532 F7200 ; Move
G1 Z0.45 F7200 ; Z hop return
G1 E0.75 F1800 ; Un-retract
G1 X123.7121 Y168.5532 E0.05345 F1800 ; Glyph: .
G1 E-0.75 F3000 ; Retract
G1 Z0.95 F7200 ; Z hop
G0 X120.4621 Y169.5532 F7200 ; Move
G1 Z0.45 F7200 ; Z hop return
G1 E0.75 F1800 ; Un-retract
G1 X122.4621 Y169.5532 E0.14253 F1800 ; Glyph: 0
G1 X124.4621 Y169.5532 E0.14253 F1800 ; Glyph: 0
G1 X124.4621 Y171.5532 E0.14253 F1800 ; Glyph: 0
G1 X122.4621 Y171.5532 E0.14253 F1800 ; Glyph: 0
G1 X120.4621 Y171.5532 E0.14253 F1800 ; Glyph: 0
G1 X120.4621 Y169.5532 E0.14253 F1800 ; Glyph: 0
G1 E-0.75 F3000 ; Retract
G1 Z0.95 F7200 ; Z hop
G0 X120.4621 Y172.5532 F7200 ; Move
G1 Z0.45 F7200 ; Z hop return
G1 E0.75 F1800 ; Un-retract
G1 X122.4621 Y172.5532 E0.14253 F1800 ; Glyph: 1
G1 X124.4621 Y172.5532 E0.14253 F1800 ; Glyph: 1
G1 E-0.75 F3000 ; Retract
G1 Z0.95 F7200 ; Z hop
G0 X120.4621 Y173.5532 F7200 ; Move
G1 Z0.45 F7200 ; Z hop return
G1 E0.75 F1800 ; Un-retract
G1 X120.4621 Y175.5532 E0.14253 F1800 ; Glyph: 7
G1 X122.4621 Y175.5532 E0.14253 F1800 ; Glyph: 7
G1 X124.4621 Y175.5532 E0.14253 F1800 ; Glyph: 7
G1 E-0.75 F3000 ; Retract
G1 Z0.95 F7200 ; Z hop
G0 X131.1105 Y165.5532 F7200 ; Move
G1 Z0.45 F7200 ; Z hop return
G1 E0.75 F1800 ; Un-retract
G1 X133.1105 Y165.5532 E0.14253 F1800 ; Glyph: 0
G1 X135.1105 Y165.5532 E0.14253 F1800 ; Glyph: 0
G1 X135.1105 Y167.5532 E0.14253 F1800 ; Glyph: 0
G1 X133.1105 Y167.5532 E0.14253 F1800 ; Glyph: 0
G1 X131.1105 Y167.5532 E0.14253 F1800 ; Glyph: 0
G1 X131.1105 Y165.5532 E0.14253 F1800 ; Glyph: 0
G1 E-0.75 F3000 ; Retract
G1 Z0.95 F7200 ; Z hop
G0 X135.1105 Y168.5532 F7200 ; Move
G1 Z0.45 F7200 ; Z hop return
G1 E0.75 F1800 ; Un-retract
G1 X134.3605 Y168.5532 E0.05345 F1800 ; Glyph: .
G1 E-0.75 F3000 ; Retract
G1 Z0.95 F7200 ; Z hop
G0 X131.1105 Y169.5532 F7200 ; Move
G1 Z0.45 F7200 ; Z hop return
G1 E0.75 F1800 ; Un-retract
G1 X133.1105 Y169.5532 E0.14253 F1800 ; Glyph: 0
G1 X135.1105 Y169.5532 E0.14253 F1800 ; Glyph: 0
G1 X135.1105 Y171.5532 E0.14253 F1800 ; Glyph: 0
G1 X133.1105 Y171.5532 E0.14253 F1800 ; Glyph: 0
G1 X131.1105 Y171.5532 E0.14253 F1800 ; Glyph: 0
G1 X131.1105 Y169.5532 E0.14253 F1800 ; Glyph: 0
G1 E-0.75 F3000 ; Retract
G1 Z0.95 F7200 ; Z hop
G0 X131.1105 Y172.5532 F7200 ; Move
G1 Z0.45 F7200 ; Z hop return
G1 E0.75 F1800 ; Un-retract
G1 X133.1105 Y172.5532 E0.14253 F1800 ; Glyph: 1
G1 X135.1105 Y172.5532 E0.14253 F1800 ; Glyph: 1
G1 E-0.75 F3000 ; Retract
G1 Z0.95 F7200 ; Z hop
G0 X131.1105 Y173.5532 F7200 ; Move
G1 Z0.45 F7200 ; Z hop return
G1 E0.75 F1800 ; Un-retract
G1 X133.1105 Y173.5532 E0.14253 F1800 ; Glyph: 8
G1 X135.1105 Y173.5532 E0.14253 F1800 ; Glyph: 8
G1 X135.1105 Y175.5532 E0.14253 F1800 ; Glyph: 8
G1 X133.1105 Y175.5532 E0.14253 F1800 ; Glyph: 8
G1 X131.1105 Y175.5532 E0.14253 F1800 ; Glyph: 8
G1 X131.1105 Y173.5532 E0.14253 F1800 ; Glyph: 8
G0 X133.1105 Y173.5532 F7200 ; Move
G1 X133.1105 Y175.5532 E0.14253 F1800 ; Glyph: 8
G1 E-0.75 F3000 ; Retract
G1 Z0.95 F7200 ; Z hop
G0 X141.7588 Y165.5532 F7200 ; Move
G1 Z0.45 F7200 ; Z hop return
G1 E0.75 F1800 ; Un-retract
G1 X143.7588 Y165.5532 E0.14253 F1800 ; Glyph: 0
G1 X145.7588 Y165.5532 E0.14253 F1800 ; Glyph: 0
G1 X145.7588 Y167.5532 E0.14253 F1800 ; Glyph: 0
G1 X143.7588 Y167.5532 E0.14253 F1800 ; Glyph: 0
G1 X141.7588 Y167.5532 E0.14253 F1800 ; Glyph: 0
G1 X141.7588 Y165.5532 E0.14253 F1800 ; Glyph: 0
G1 E-0.75 F3000 ; Retract
G1 Z0.95 F7200 ; Z hop
G0 X145.7588 Y168.5532 F7200 ; Move
G1 Z0.45 F7200 ; Z hop return
G1 E0.75 F1800 ; Un-retract
G1 X145.0088 Y168.5532 E0.05345 F1800 ; Glyph: .
G1 E-0.75 F3000 ; Retract
G1 Z0.95 F7200 ; Z hop
G0 X141.7588 Y169.5532 F7200 ; Move
G1 Z0.45 F7200 ; Z hop return
G1 E0.75 F1800 ; Un-retract
G1 X143.7588 Y169.5532 E0.14253 F1800 ; Glyph: 0
G1 X145.7588 Y169.5532 E0.14253 F1800 ; Glyph: 0
G1 X145.7588 Y171.5532 E0.14253 F1800 ; Glyph: 0
G1 X143.7588 Y171.5532 E0.14253 F1800 ; Glyph: 0
G1 X141.7588 Y171.5532 E0.14253 F1800 ; Glyph: 0
G1 X141.7588 Y169.5532 E0.14253 F1800 ; Glyph: 0
G1 E-0.75 F3000 ; Retract
G1 Z0.95 F7200 ; Z hop
G0 X141.7588 Y172.5532 F7200 ; Move
G1 Z0.45 F7200 ; Z hop return
G1 E0.75 F1800 ; Un-retract
G1 X143.7588 Y172.5532 E0.14253 F1800 ; Glyph: 1
G1 X145.7588 Y172.5532 E0.14253 F1800 ; Glyph: 1
G0 X145.7588 Y173.5532 F7200 ; Move
G1 X145.7588 Y175.5532 E0.14253 F1800 ; Glyph: 9
G1 X143.7588 Y175.5532 E0.14253 F1800 ; Glyph: 9
G1 X141.7588 Y175.5532 E0.14253 F1800 ; Glyph: 9
G1 X141.7588 Y173.5532 E0.14253 F1800 ; Glyph: 9
G1 X143.7588 Y173.5532 E0.14253 F1800 ; Glyph: 9
G1 X143.7588 Y175.5532 E0.14253 F1800 ; Glyph: 9
G1 E-0.75 F3000 ; Retract
G1 Z0.95 F7200 ; Z hop
G0 X152.4072 Y165.5532 F7200 ; Move
G1 Z0.45 F7200 ; Z hop return
G1 E0.75 F1800 ; Un-retract
G1 X154.4072 Y165.5532 E0.14253 F1800 ; Glyph: 0
G1 X156.4072 Y165.5532 E0.14253 F1800 ; Glyph: 0
G1 X156.4072 Y167.5532 E0.14253 F1800 ; Glyph: 0
G1 X154.4072 Y167.5532 E0.14253 F1800 ; Glyph: 0
G1 X152.4072 Y167.5532 E0.14253 F1800 ; Glyph: 0
G1 X152.4072 Y165.5532 E0.14253 F1800 ; Glyph: 0
G1 E-0.75 F3000 ; Retract
G1 Z0.95 F7200 ; Z hop
G0 X156.4072 Y168.5532 F7200 ; Move
G1 Z0.45 F7200 ; Z hop return
G1 E0.75 F1800 ; Un-retract
G1 X155.6572 Y168.5532 E0.05345 F1800 ; Glyph: .
G1 E-0.75 F3000 ; Retract
G1 Z0.95 F7200 ; Z hop
G0 X152.4072 Y169.5532 F7200 ; Move
G1 Z0.45 F7200 ; Z hop return
G1 E0.75 F1800 ; Un-retract
G1 X154.4072 Y169.5532 E0.14253 F1800 ; Glyph: 0
G1 X156.4072 Y169.5532 E0.14253 F1800 ; Glyph: 0
G1 X156.4072 Y171.5532 E0.14253 F1800 ; Glyph: 0
G1 X154.4072 Y171.5532 E0.14253 F1800 ; Glyph: 0
G1 X152.4072 Y171.5532 E0.14253 F1800 ; Glyph: 0
G1 X152.4072 Y169.5532 E0.14253 F1800 ; Glyph: 0
G1 E-0.75 F3000 ; Retract
G1 Z0.95 F7200 ; Z hop
G0 X152.4072 Y172.5532 F7200 ; Move
G1 Z0.45 F7200 ; Z hop return
G1 E0.75 F1800 ; Un-retract
G1 X152.4072 Y174.5532 E0.14253 F1800 ; Glyph: 2
G1 X154.4072 Y174.5532 E0.14253 F1800 ; Glyph: 2
G1 X154.4072 Y172.5532 E0.14253 F1800 ; Glyph: 2
G1 X156.4072 Y172.5532 E0.14253 F1800 ; Glyph: 2
G1 X156.4072 Y174.5532 E0.14253 F1800 ; Glyph: 2
G1 E-0.75 F3000 ; Retract
G1 Z0.95 F7200 ; Z hop
G0 X163.0556 Y165.5532 F7200 ; Move
G1 Z0.45 F7200 ; Z hop return
G1 E0.75 F1800 ; Un-retract
G1 X165.0556 Y165.5532 E0.14253 F1800 ; Glyph: 0
G1 X167.0556 Y165.5532 E0.14253 F1800 ; Glyph: 0
G1 X167.0556 Y167.5532 E0.14253 F1800 ; Glyph: 0
G1 X165.0556 Y167.5532 E0.14253 F1800 ; Glyph: 0
G1 X163.0556 Y167.5532 E0.14253 F1800 ; Glyph: 0
G1 X163.0556 Y165.5532 E0.14253 F1800 ; Glyph: 0
G1 E-0.75 F3000 ; Retract
G1 Z0.95 F7200 ; Z hop
G0 X167.0556 Y168.5532 F7200 ; Move
G1 Z0.45 F7200 ; Z hop return
G1 E0.75 F1800 ; Un-retract
G1 X166.3056 Y168.5532 E0.05345 F1800 ; Glyph: .
G1 E-0.75 F3000 ; Retract
G1 Z0.95 F7200 ; Z hop
G0 X163.0556 Y169.5532 F7200 ; Move
G1 Z0.45 F7200 ; Z hop return
G1 E0.75 F1800 ; Un-retract
G1 X165.0556 Y169.5532 E0.14253 F1800 ; Glyph: 0
G1 X167.0556 Y169.5532 E0.14253 F1800 ; Glyph: 0
G1 X167.0556 Y171.5532 E0.14253 F1800 ; Glyph: 0
G1 X165.0556 Y171.5532 E0.14253 F1800 ; Glyph: 0
G1 X163.0556 Y171.5532 E0.14253 F1800 ; Glyph: 0
G1 X163.0556 Y169.5532 E0.14253 F1800 ; Glyph: 0
G1 E-0.75 F3000 ; Retract
G1 Z0.95 F7200 ; Z hop
G0 X163.0556 Y172.5532 F7200 ; Move
G1 Z0.45 F7200 ; Z hop return
G1 E0.75 F1800 ; Un-retract
G1 X163.0556 Y174.5532 E0.14253 F1800 ; Glyph: 2
G1 X165.0556 Y174.5532 E0.14253 F1800 ; Glyph: 2
G1 X165.0556 Y172.5532 E0.14253 F1800 ; Glyph: 2
G1 X167.0556 Y172.5532 E0.14253 F1800 ; Glyph: 2
G1 X167.0556 Y174.5532 E0.14253 F1800 ; Glyph: 2
G1 E-0.75 F3000 ; Retract
G1 Z0.95 F7200 ; Z hop
G0 X163.0556 Y175.5532 F7200 ; Move
G1 Z0.45 F7200 ; Z hop return
G1 E0.75 F1800 ; Un-retract
G1 X165.0556 Y175.5532 E0.14253 F1800 ; Glyph: 1
G1 X167.0556 Y175.5532 E0.14253 F1800 ; Glyph: 1
G1 E-0.75 F3000 ; Retract
G1 Z0.95 F7200 ; Z hop
G0 X173.704 Y165.5532 F7200 ; Move
G1 Z0.45 F7200 ; Z hop return
G1 E0.75 F1800 ; Un-retract
G1 X175.704 Y165.5532 E0.14253 F1800 ; Glyph: 0
G1 X177.704 Y165.5532 E0.14253 F1800 ; Glyph: 0
G1 X177.704 Y167.5532 E0.14253 F1800 ; Glyph: 0
G1 X175.704 Y167.5532 E0.14253 F1800 ; Glyph: 0
G1 X173.704 Y167.5532 E0.14253 F1800 ; Glyph: 0
G1 X173.704 Y165.5532 E0.14253 F1800 ; Glyph: 0
G1 E-0.75 F3000 ; Retract
G1 Z0.95 F7200 ; Z hop
G0 X177.704 Y168.5532 F7200 ; Move
G1 Z0.45 F7200 ; Z hop return
G1 E0.75 F1800 ; Un-retract
G1 X176.954 Y168.5532 E0.05345 F1800 ; Glyph: .
G1 E-0.75 F3000 ; Retract
G1 Z0.95 F7200 ; Z hop
G0 X173.704 Y169.5532 F7200 ; Move
G1 Z0.45 F7200 ; Z hop return
G1 E0.75 F1800 ; Un-retract
G1 X175.704 Y169.5532 E0.14253 F1800 ; Glyph: 0
G1 X177.704 Y169.5532 E0.14253 F1800 ; Glyph: 0
G1 X177.704 Y171.5532 E0.14253 F1800 ; Glyph: 0
G1 X175.704 Y171.5532 E0.14253 F1800 ; Glyph: 0
G1 X173.704 Y171.5532 E0.14253 F1800 ; Glyph: 0
G1 X173.704 Y169.5532 E0.14253 F1800 ; Glyph: 0
G1 E-0.75 F3000 ; Retract
G1 Z0.95 F7200 ; Z hop
G0 X173.704 Y172.5532 F7200 ; Move
G1 Z0.45 F7200 ; Z hop return
G1 E0.75 F1800 ; Un-retract
G1 X173.704 Y174.5532 E0.14253 F1800 ; Glyph: 2
G1 X175.704 Y174.5532 E0.14253 F1800 ; Glyph: 2
G1 X175.704 Y172.5532 E0.14253 F1800 ; Glyph: 2
G1 X177.704 Y172.5532 E0.14253 F1800 ; Glyph: 2
G1 X177.704 Y174.5532 E0.14253 F1800 ; Glyph: 2
G1 E-0.75 F3000 ; Retract
G1 Z0.95 F7200 ; Z hop
G0 X173.704 Y175.5532 F7200 ; Move
G1 Z0.45 F7200 ; Z hop return
G1 E0.75 F1800 ; Un-retract
G1 X173.704 Y177.5532 E0.14253 F1800 ; Glyph: 2
G1 X175.704 Y177.5532 E0.14253 F1800 ; Glyph: 2
G1 X175.704 Y175.5532 E0.14253 F1800 ; Glyph: 2
G1 X177.704 Y175.5532 E0.14253 F1800 ; Glyph: 2
G1 X177.704 Y177.5532 E0.14253 F1800 ; Glyph: 2
G1 E-0.75 F3000 ; Retract
G1 Z0.95 F7200 ; Z hop
G0 X99.9533 Y121.2268 F7200 ; Move to pattern start

G1 Z0.45 F7200 ; Z hop return
G1 E0.75 F1800 ; Un-retract
SET_PRESSURE_ADVANCE ADVANCE=0.015 ; Set pressure advance
M117 PA 0.015
G1 X121.1665 Y142.44 E2.13799 F6000 ; Print pattern wall
G1 X99.9533 Y163.6532 E2.13799 F6000 ; Print pattern wall
G1 E-0.75 F3000 ; Retract
G1 Z0.95 F7200 ; Z hop
G0 X101.1653 Y121.2268 F7200 ; Move to start next pattern wall
G1 Z0.45 F7200 ; Z hop return
G1 E0.75 F1800 ; Un-retract
G1 X122.3786 Y142.44 E2.13799 F6000 ; Print pattern wall
G1 X101.1653 Y163.6532 E2.13799 F6000 ; Print pattern wall
G1 E-0.75 F3000 ; Retract
G1 Z0.95 F7200 ; Z hop
G0 X102.3774 Y121.2268 F7200 ; Move to start next pattern wall
G1 Z0.45 F7200 ; Z hop return
G1 E0.75 F1800 ; Un-retract
G1 X123.5906 Y142.44 E2.13799 F6000 ; Print pattern wall
G1 X102.3774 Y163.6532 E2.13799 F6000 ; Print pattern wall
G1 E-0.75 F3000 ; Retract
G1 Z0.95 F7200 ; Z hop
G0 X105.2774 Y121.2268 F7200 ; Move to next pattern
G1 Z0.45 F7200 ; Z hop return
G1 E0.75 F1800 ; Un-retract
SET_PRESSURE_ADVANCE ADVANCE=0.0155 ; Set pressure advance
M117 PA 0.0155
G1 X126.4906 Y142.44 E2.13799 F6000 ; Print pattern wall
G1 X105.2774 Y163.6532 E2.13799 F6000 ; Print pattern wall
G1 E-0.75 F3000 ; Retract
G1 Z0.95 F7200 ; Z hop
G0 X106.4895 Y121.2268 F7200 ; Move to start next pattern wall
G1 Z0.45 F7200 ; Z hop return
G1 E0.75 F1800 ; Un-retract
G1 X127.7027 Y142.44 E2.13799 F6000 ; Print pattern wall
G1 X106.4895 Y163.6532 E2.13799 F6000 ; Print pattern wall
G1 E-0.75 F3000 ; Retract
G1 Z0.95 F7200 ; Z hop
G0 X107.7016 Y121.2268 F7200 ; Move to start next pattern wall
G1 Z0.45 F7200 ; Z hop return
G1 E0.75 F1800 ; Un-retract
G1 X128.9148 Y142.44 E2.13799 F6000 ; Print pattern wall
G1 X107.7016 Y163.6532 E2.13799 F6000 ; Print pattern wall
G1 E-0.75 F3000 ; Retract
G1 Z0.95 F7200 ; Z hop
G0 X110.6016 Y121.2268 F7200 ; Move to next pattern
G1 Z0.45 F7200 ; Z hop return
G1 E0.75 F1800 ; Un-retract
SET_PRESSURE_ADVANCE ADVANCE=0.016 ; Set pressure advance
M117 PA 0.016
G1 X131.8148 Y142.44 E2.13799 F6000 ; Print pattern wall
G1 X110.6016 Y163.6532 E2.13799 F6000 ; Print pattern wall
G1 E-0.75 F3000 ; Retract
G1 Z0.95 F7200 ; Z hop
G0 X111.8137 Y121.2268 F7200 ; Move to start next pattern wall
G1 Z0.45 F7200 ; Z hop return
G1 E0.75 F1800 ; Un-retract
G1 X133.0269 Y142.44 E2.13799 F6000 ; Print pattern wall
G1 X111.8137 Y163.6532 E2.13799 F6000 ; Print pattern wall
G1 E-0.75 F3000 ; Retract
G1 Z0.95 F7200 ; Z hop
G0 X113.0258 Y121.2268 F7200 ; Move to start next pattern wall
G1 Z0.45 F7200 ; Z hop return
G1 E0.75 F1800 ; Un-retract
G1 X134.239 Y142.44 E2.13799 F6000 ; Print pattern wall
G1 X113.0258 Y163.6532 E2.13799 F6000 ; Print pattern wall
G1 E-0.75 F3000 ; Retract
G1 Z0.95 F7200 ; Z hop
G0 X115.9258 Y121.2268 F7200 ; Move to next pattern
G1 Z0.45 F7200 ; Z hop return
G1 E0.75 F1800 ; Un-retract
SET_PRESSURE_ADVANCE ADVANCE=0.0165 ; Set pressure advance
M117 PA 0.0165
G1 X137.139 Y142.44 E2.13799 F6000 ; Print pattern wall
G1 X115.9258 Y163.6532 E2.13799 F6000 ; Print pattern wall
G1 E-0.75 F3000 ; Retract
G1 Z0.95 F7200 ; Z hop
G0 X117.1379 Y121.2268 F7200 ; Move to start next pattern wall
G1 Z0.45 F7200 ; Z hop return
G1 E0.75 F1800 ; Un-retract
G1 X138.3511 Y142.44 E2.13799 F6000 ; Print pattern wall
G1 X117.1379 Y163.6532 E2.13799 F6000 ; Print pattern wall
G1 E-0.75 F3000 ; Retract
G1 Z0.95 F7200 ; Z hop
G0 X118.35 Y121.2268 F7200 ; Move to start next pattern wall
G1 Z0.45 F7200 ; Z hop return
G1 E0.75 F1800 ; Un-retract
G1 X139.5632 Y142.44 E2.13799 F6000 ; Print pattern wall
G1 X118.35 Y163.6532 E2.13799 F6000 ; Print pattern wall
G1 E-0.75 F3000 ; Retract
G1 Z0.95 F7200 ; Z hop
G0 X121.25 Y121.2268 F7200 ; Move to next pattern
G1 Z0.45 F7200 ; Z hop return
G1 E0.75 F1800 ; Un-retract
SET_PRESSURE_ADVANCE ADVANCE=0.017 ; Set pressure advance
M117 PA 0.017
G1 X142.4632 Y142.44 E2.13799 F6000 ; Print pattern wall
G1 X121.25 Y163.6532 E2.13799 F6000 ; Print pattern wall
G1 E-0.75 F3000 ; Retract
G1 Z0.95 F7200 ; Z hop
G0 X122.4621 Y121.2268 F7200 ; Move to start next pattern wall
G1 Z0.45 F7200 ; Z hop return
G1 E0.75 F1800 ; Un-retract
G1 X143.6753 Y142.44 E2.13799 F6000 ; Print pattern wall
G1 X122.4621 Y163.6532 E2.13799 F6000 ; Print pattern wall
G1 E-0.75 F3000 ; Retract
G1 Z0.95 F7200 ; Z hop
G0 X123.6742 Y121.2268 F7200 ; Move to start next pattern wall
G1 Z0.45 F7200 ; Z hop return
G1 E0.75 F1800 ; Un-retract
G1 X144.8874 Y142.44 E2.13799 F6000 ; Print pattern wall
G1 X123.6742 Y163.6532 E2.13799 F6000 ; Print pattern wall
G1 E-0.75 F3000 ; Retract
G1 Z0.95 F7200 ; Z hop
G0 X126.5742 Y121.2268 F7200 ; Move to next pattern
G1 Z0.45 F7200 ; Z hop return
G1 E0.75 F1800 ; Un-retract
SET_PRESSURE_ADVANCE ADVANCE=0.0175 ; Set pressure advance
M117 PA 0.0175
G1 X147.7874 Y142.44 E2.13799 F6000 ; Print pattern wall
G1 X126.5742 Y163.6532 E2.13799 F6000 ; Print pattern wall
G1 E-0.75 F3000 ; Retract
G1 Z0.95 F7200 ; Z hop
G0 X127.7863 Y121.2268 F7200 ; Move to start next pattern wall
G1 Z0.45 F7200 ; Z hop return
G1 E0.75 F1800 ; Un-retract
G1 X148.9995 Y142.44 E2.13799 F6000 ; Print pattern wall
G1 X127.7863 Y163.6532 E2.13799 F6000 ; Print pattern wall
G1 E-0.75 F3000 ; Retract
G1 Z0.95 F7200 ; Z hop
G0 X128.9984 Y121.2268 F7200 ; Move to start next pattern wall
G1 Z0.45 F7200 ; Z hop return
G1 E0.75 F1800 ; Un-retract
G1 X150.2116 Y142.44 E2.13799 F6000 ; Print pattern wall
G1 X128.9984 Y163.6532 E2.13799 F6000 ; Print pattern wall
G1 E-0.75 F3000 ; Retract
G1 Z0.95 F7200 ; Z hop
G0 X131.8984 Y121.2268 F7200 ; Move to next pattern
G1 Z0.45 F7200 ; Z hop return
G1 E0.75 F1800 ; Un-retract
SET_PRESSURE_ADVANCE ADVANCE=0.018 ; Set pressure advance
M117 PA 0.018
G1 X153.1116 Y142.44 E2.13799 F6000 ; Print pattern wall
G1 X131.8984 Y163.6532 E2.13799 F6000 ; Print pattern wall
G1 E-0.75 F3000 ; Retract
G1 Z0.95 F7200 ; Z hop
G0 X133.1105 Y121.2268 F7200 ; Move to start next pattern wall
G1 Z0.45 F7200 ; Z hop return
G1 E0.75 F1800 ; Un-retract
G1 X154.3237 Y142.44 E2.13799 F6000 ; Print pattern wall
G1 X133.1105 Y163.6532 E2.13799 F6000 ; Print pattern wall
G1 E-0.75 F3000 ; Retract
G1 Z0.95 F7200 ; Z hop
G0 X134.3226 Y121.2268 F7200 ; Move to start next pattern wall
G1 Z0.45 F7200 ; Z hop return
G1 E0.75 F1800 ; Un-retract
G1 X155.5358 Y142.44 E2.13799 F6000 ; Print pattern wall
G1 X134.3226 Y163.6532 E2.13799 F6000 ; Print pattern wall
G1 E-0.75 F3000 ; Retract
G1 Z0.95 F7200 ; Z hop
G0 X137.2226 Y121.2268 F7200 ; Move to next pattern
G1 Z0.45 F7200 ; Z hop return
G1 E0.75 F1800 ; Un-retract
SET_PRESSURE_ADVANCE ADVANCE=0.0185 ; Set pressure advance
M117 PA 0.0185
G1 X158.4358 Y142.44 E2.13799 F6000 ; Print pattern wall
G1 X137.2226 Y163.6532 E2.13799 F6000 ; Print pattern wall
G1 E-0.75 F3000 ; Retract
G1 Z0.95 F7200 ; Z hop
G0 X138.4347 Y121.2268 F7200 ; Move to start next pattern wall
G1 Z0.45 F7200 ; Z hop return
G1 E0.75 F1800 ; Un-retract
G1 X159.6479 Y142.44 E2.13799 F6000 ; Print pattern wall
G1 X138.4347 Y163.6532 E2.13799 F6000 ; Print pattern wall
G1 E-0.75 F3000 ; Retract
G1 Z0.95 F7200 ; Z hop
G0 X139.6468 Y121.2268 F7200 ; Move to start next pattern wall
G1 Z0.45 F7200 ; Z hop return
G1 E0.75 F1800 ; Un-retract
G1 X160.86 Y142.44 E2.13799 F6000 ; Print pattern wall
G1 X139.6468 Y163.6532 E2.13799 F6000 ; Print pattern wall
G1 E-0.75 F3000 ; Retract
G1 Z0.95 F7200 ; Z hop
G0 X142.5468 Y121.2268 F7200 ; Move to next pattern
G1 Z0.45 F7200 ; Z hop return
G1 E0.75 F1800 ; Un-retract
SET_PRESSURE_ADVANCE ADVANCE=0.019 ; Set pressure advance
M117 PA 0.019
G1 X163.76 Y142.44 E2.13799 F6000 ; Print pattern wall
G1 X142.5468 Y163.6532 E2.13799 F6000 ; Print pattern wall
G1 E-0.75 F3000 ; Retract
G1 Z0.95 F7200 ; Z hop
G0 X143.7588 Y121.2268 F7200 ; Move to start next pattern wall
G1 Z0.45 F7200 ; Z hop return
G1 E0.75 F1800 ; Un-retract
G1 X164.972 Y142.44 E2.13799 F6000 ; Print pattern wall
G1 X143.7588 Y163.6532 E2.13799 F6000 ; Print pattern wall
G1 E-0.75 F3000 ; Retract
G1 Z0.95 F7200 ; Z hop
G0 X144.9709 Y121.2268 F7200 ; Move to start next pattern wall
G1 Z0.45 F7200 ; Z hop return
G1 E0.75 F1800 ; Un-retract
G1 X166.1841 Y142.44 E2.13799 F6000 ; Print pattern wall
G1 X144.9709 Y163.6532 E2.13799 F6000 ; Print pattern wall
G1 E-0.75 F3000 ; Retract
G1 Z0.95 F7200 ; Z hop
G0 X147.8709 Y121.2268 F7200 ; Move to next pattern
G1 Z0.45 F7200 ; Z hop return
G1 E0.75 F1800 ; Un-retract
SET_PRESSURE_ADVANCE ADVANCE=0.0195 ; Set pressure advance
M117 PA 0.0195
G1 X169.0841 Y142.44 E2.13799 F6000 ; Print pattern wall
G1 X147.8709 Y163.6532 E2.13799 F6000 ; Print pattern wall
G1 E-0.75 F3000 ; Retract
G1 Z0.95 F7200 ; Z hop
G0 X149.083 Y121.2268 F7200 ; Move to start next pattern wall
G1 Z0.45 F7200 ; Z hop return
G1 E0.75 F1800 ; Un-retract
G1 X170.2962 Y142.44 E2.13799 F6000 ; Print pattern wall
G1 X149.083 Y163.6532 E2.13799 F6000 ; Print pattern wall
G1 E-0.75 F3000 ; Retract
G1 Z0.95 F7200 ; Z hop
G0 X150.2951 Y121.2268 F7200 ; Move to start next pattern wall
G1 Z0.45 F7200 ; Z hop return
G1 E0.75 F1800 ; Un-retract
G1 X171.5083 Y142.44 E2.13799 F6000 ; Print pattern wall
G1 X150.2951 Y163.6532 E2.13799 F6000 ; Print pattern wall
G1 E-0.75 F3000 ; Retract
G1 Z0.95 F7200 ; Z hop
G0 X153.1951 Y121.2268 F7200 ; Move to next pattern
G1 Z0.45 F7200 ; Z hop return
G1 E0.75 F1800 ; Un-retract
SET_PRESSURE_ADVANCE ADVANCE=0.02 ; Set pressure advance
M117 PA 0.02
G1 X174.4083 Y142.44 E2.13799 F6000 ; Print pattern wall
G1 X153.1951 Y163.6532 E2.13799 F6000 ; Print pattern wall
G1 E-0.75 F3000 ; Retract
G1 Z0.95 F7200 ; Z hop
G0 X154.4072 Y121.2268 F7200 ; Move to start next pattern wall
G1 Z0.45 F7200 ; Z hop return
G1 E0.75 F1800 ; Un-retract
G1 X175.6204 Y142.44 E2.13799 F6000 ; Print pattern wall
G1 X154.4072 Y163.6532 E2.13799 F6000 ; Print pattern wall
G1 E-0.75 F3000 ; Retract
G1 Z0.95 F7200 ; Z hop
G0 X155.6193 Y121.2268 F7200 ; Move to start next pattern wall
G1 Z0.45 F7200 ; Z hop return
G1 E0.75 F1800 ; Un-retract
G1 X176.8325 Y142.44 E2.13799 F6000 ; Print pattern wall
G1 X155.6193 Y163.6532 E2.13799 F6000 ; Print pattern wall
G1 E-0.75 F3000 ; Retract
G1 Z0.95 F7200 ; Z hop
G0 X158.5193 Y121.2268 F7200 ; Move to next pattern
G1 Z0.45 F7200 ; Z hop return
G1 E0.75 F1800 ; Un-retract
SET_PRESSURE_ADVANCE ADVANCE=0.0205 ; Set pressure advance
M117 PA 0.0205
G1 X179.7325 Y142.44 E2.13799 F6000 ; Print pattern wall
G1 X158.5193 Y163.6532 E2.13799 F6000 ; Print pattern wall
G1 E-0.75 F3000 ; Retract
G1 Z0.95 F7200 ; Z hop
G0 X159.7314 Y121.2268 F7200 ; Move to start next pattern wall
G1 Z0.45 F7200 ; Z hop return
G1 E0.75 F1800 ; Un-retract
G1 X180.9446 Y142.44 E2.13799 F6000 ; Print pattern wall
G1 X159.7314 Y163.6532 E2.13799 F6000 ; Print pattern wall
G1 E-0.75 F3000 ; Retract
G1 Z0.95 F7200 ; Z hop
G0 X160.9435 Y121.2268 F7200 ; Move to start next pattern wall
G1 Z0.45 F7200 ; Z hop return
G1 E0.75 F1800 ; Un-retract
G1 X182.1567 Y142.44 E2.13799 F6000 ; Print pattern wall
G1 X160.9435 Y163.6532 E2.13799 F6000 ; Print pattern wall
G1 E-0.75 F3000 ; Retract
G1 Z0.95 F7200 ; Z hop
G0 X163.8435 Y121.2268 F7200 ; Move to next pattern
G1 Z0.45 F7200 ; Z hop return
G1 E0.75 F1800 ; Un-retract
SET_PRESSURE_ADVANCE ADVANCE=0.021 ; Set pressure advance
M117 PA 0.021
G1 X185.0567 Y142.44 E2.13799 F6000 ; Print pattern wall
G1 X163.8435 Y163.6532 E2.13799 F6000 ; Print pattern wall
G1 E-0.75 F3000 ; Retract
G1 Z0.95 F7200 ; Z hop
G0 X165.0556 Y121.2268 F7200 ; Move to start next pattern wall
G1 Z0.45 F7200 ; Z hop return
G1 E0.75 F1800 ; Un-retract
G1 X186.2688 Y142.44 E2.13799 F6000 ; Print pattern wall
G1 X165.0556 Y163.6532 E2.13799 F6000 ; Print pattern wall
G1 E-0.75 F3000 ; Retract
G1 Z0.95 F7200 ; Z hop
G0 X166.2677 Y121.2268 F7200 ; Move to start next pattern wall
G1 Z0.45 F7200 ; Z hop return
G1 E0.75 F1800 ; Un-retract
G1 X187.4809 Y142.44 E2.13799 F6000 ; Print pattern wall
G1 X166.2677 Y163.6532 E2.13799 F6000 ; Print pattern wall
G1 E-0.75 F3000 ; Retract
G1 Z0.95 F7200 ; Z hop
G0 X169.1677 Y121.2268 F7200 ; Move to next pattern
G1 Z0.45 F7200 ; Z hop return
G1 E0.75 F1800 ; Un-retract
SET_PRESSURE_ADVANCE ADVANCE=0.0215 ; Set pressure advance
M117 PA 0.0215
G1 X190.3809 Y142.44 E2.13799 F6000 ; Print pattern wall
G1 X169.1677 Y163.6532 E2.13799 F6000 ; Print pattern wall
G1 E-0.75 F3000 ; Retract
G1 Z0.95 F7200 ; Z hop
G0 X170.3798 Y121.2268 F7200 ; Move to start next pattern wall
G1 Z0.45 F7200 ; Z hop return
G1 E0.75 F1800 ; Un-retract
G1 X191.593 Y142.44 E2.13799 F6000 ; Print pattern wall
G1 X170.3798 Y163.6532 E2.13799 F6000 ; Print pattern wall
G1 E-0.75 F3000 ; Retract
G1 Z0.95 F7200 ; Z hop
G0 X171.5919 Y121.2268 F7200 ; Move to start next pattern wall
G1 Z0.45 F7200 ; Z hop return
G1 E0.75 F1800 ; Un-retract
G1 X192.8051 Y142.44 E2.13799 F6000 ; Print pattern wall
G1 X171.5919 Y163.6532 E2.13799 F6000 ; Print pattern wall
G1 E-0.75 F3000 ; Retract
G1 Z0.95 F7200 ; Z hop
G0 X174.4919 Y121.2268 F7200 ; Move to next pattern
G1 Z0.45 F7200 ; Z hop return
G1 E0.75 F1800 ; Un-retract
SET_PRESSURE_ADVANCE ADVANCE=0.022 ; Set pressure advance
M117 PA 0.022
G1 X195.7051 Y142.44 E2.13799 F6000 ; Print pattern wall
G1 X174.4919 Y163.6532 E2.13799 F6000 ; Print pattern wall
G1 E-0.75 F3000 ; Retract
G1 Z0.95 F7200 ; Z hop
G0 X175.704 Y121.2268 F7200 ; Move to start next pattern wall
G1 Z0.45 F7200 ; Z hop return
G1 E0.75 F1800 ; Un-retract
G1 X196.9172 Y142.44 E2.13799 F6000 ; Print pattern wall
G1 X175.704 Y163.6532 E2.13799 F6000 ; Print pattern wall
G1 E-0.75 F3000 ; Retract
G1 Z0.95 F7200 ; Z hop
G0 X176.9161 Y121.2268 F7200 ; Move to start next pattern wall
G1 Z0.45 F7200 ; Z hop return
G1 E0.75 F1800 ; Un-retract
G1 X198.1293 Y142.44 E2.13799 F6000 ; Print pattern wall
G1 X176.9161 Y163.6532 E2.13799 F6000 ; Print pattern wall
G1 E-0.75 F3000 ; Retract
G1 Z0.95 F7200 ; Z hop
G0 X99.9533 Y121.2268 F7200 ; Move back to start position
G1 Z0.45 F7200 ; Z hop return
G1 E0.75 F1800 ; Un-retract
G0 Z0.65 F7200 ; Move to layer height
SET_PRESSURE_ADVANCE ADVANCE=0.015 ; Set pressure advance
M117 PA 0.015
G1 X121.1665 Y142.44 E2.13799 F6000 ; Print pattern wall
G1 X99.9533 Y163.6532 E2.13799 F6000 ; Print pattern wall
G1 E-0.75 F3000 ; Retract
G1 Z1.15 F7200 ; Z hop
G0 X101.1653 Y121.2268 F7200 ; Move to start next pattern wall
G1 Z0.65 F7200 ; Z hop return
G1 E0.75 F1800 ; Un-retract
G1 X122.3786 Y142.44 E2.13799 F6000 ; Print pattern wall
G1 X101.1653 Y163.6532 E2.13799 F6000 ; Print pattern wall
G1 E-0.75 F3000 ; Retract
G1 Z1.15 F7200 ; Z hop
G0 X102.3774 Y121.2268 F7200 ; Move to start next pattern wall
G1 Z0.65 F7200 ; Z hop return
G1 E0.75 F1800 ; Un-retract
G1 X123.5906 Y142.44 E2.13799 F6000 ; Print pattern wall
G1 X102.3774 Y163.6532 E2.13799 F6000 ; Print pattern wall
G1 E-0.75 F3000 ; Retract
G1 Z1.15 F7200 ; Z hop
G0 X105.2774 Y121.2268 F7200 ; Move to next pattern
G1 Z0.65 F7200 ; Z hop return
G1 E0.75 F1800 ; Un-retract
SET_PRESSURE_ADVANCE ADVANCE=0.0155 ; Set pressure advance
M117 PA 0.0155
G1 X126.4906 Y142.44 E2.13799 F6000 ; Print pattern wall
G1 X105.2774 Y163.6532 E2.13799 F6000 ; Print pattern wall
G1 E-0.75 F3000 ; Retract
G1 Z1.15 F7200 ; Z hop
G0 X106.4895 Y121.2268 F7200 ; Move to start next pattern wall
G1 Z0.65 F7200 ; Z hop return
G1 E0.75 F1800 ; Un-retract
G1 X127.7027 Y142.44 E2.13799 F6000 ; Print pattern wall
G1 X106.4895 Y163.6532 E2.13799 F6000 ; Print pattern wall
G1 E-0.75 F3000 ; Retract
G1 Z1.15 F7200 ; Z hop
G0 X107.7016 Y121.2268 F7200 ; Move to start next pattern wall
G1 Z0.65 F7200 ; Z hop return
G1 E0.75 F1800 ; Un-retract
G1 X128.9148 Y142.44 E2.13799 F6000 ; Print pattern wall
G1 X107.7016 Y163.6532 E2.13799 F6000 ; Print pattern wall
G1 E-0.75 F3000 ; Retract
G1 Z1.15 F7200 ; Z hop
G0 X110.6016 Y121.2268 F7200 ; Move to next pattern
G1 Z0.65 F7200 ; Z hop return
G1 E0.75 F1800 ; Un-retract
SET_PRESSURE_ADVANCE ADVANCE=0.016 ; Set pressure advance
M117 PA 0.016
G1 X131.8148 Y142.44 E2.13799 F6000 ; Print pattern wall
G1 X110.6016 Y163.6532 E2.13799 F6000 ; Print pattern wall
G1 E-0.75 F3000 ; Retract
G1 Z1.15 F7200 ; Z hop
G0 X111.8137 Y121.2268 F7200 ; Move to start next pattern wall
G1 Z0.65 F7200 ; Z hop return
G1 E0.75 F1800 ; Un-retract
G1 X133.0269 Y142.44 E2.13799 F6000 ; Print pattern wall
G1 X111.8137 Y163.6532 E2.13799 F6000 ; Print pattern wall
G1 E-0.75 F3000 ; Retract
G1 Z1.15 F7200 ; Z hop
G0 X113.0258 Y121.2268 F7200 ; Move to start next pattern wall
G1 Z0.65 F7200 ; Z hop return
G1 E0.75 F1800 ; Un-retract
G1 X134.239 Y142.44 E2.13799 F6000 ; Print pattern wall
G1 X113.0258 Y163.6532 E2.13799 F6000 ; Print pattern wall
G1 E-0.75 F3000 ; Retract
G1 Z1.15 F7200 ; Z hop
G0 X115.9258 Y121.2268 F7200 ; Move to next pattern
G1 Z0.65 F7200 ; Z hop return
G1 E0.75 F1800 ; Un-retract
SET_PRESSURE_ADVANCE ADVANCE=0.0165 ; Set pressure advance
M117 PA 0.0165
G1 X137.139 Y142.44 E2.13799 F6000 ; Print pattern wall
G1 X115.9258 Y163.6532 E2.13799 F6000 ; Print pattern wall
G1 E-0.75 F3000 ; Retract
G1 Z1.15 F7200 ; Z hop
G0 X117.1379 Y121.2268 F7200 ; Move to start next pattern wall
G1 Z0.65 F7200 ; Z hop return
G1 E0.75 F1800 ; Un-retract
G1 X138.3511 Y142.44 E2.13799 F6000 ; Print pattern wall
G1 X117.1379 Y163.6532 E2.13799 F6000 ; Print pattern wall
G1 E-0.75 F3000 ; Retract
G1 Z1.15 F7200 ; Z hop
G0 X118.35 Y121.2268 F7200 ; Move to start next pattern wall
G1 Z0.65 F7200 ; Z hop return
G1 E0.75 F1800 ; Un-retract
G1 X139.5632 Y142.44 E2.13799 F6000 ; Print pattern wall
G1 X118.35 Y163.6532 E2.13799 F6000 ; Print pattern wall
G1 E-0.75 F3000 ; Retract
G1 Z1.15 F7200 ; Z hop
G0 X121.25 Y121.2268 F7200 ; Move to next pattern
G1 Z0.65 F7200 ; Z hop return
G1 E0.75 F1800 ; Un-retract
SET_PRESSURE_ADVANCE ADVANCE=0.017 ; Set pressure advance
M117 PA 0.017
G1 X142.4632 Y142.44 E2.13799 F6000 ; Print pattern wall
G1 X121.25 Y163.6532 E2.13799 F6000 ; Print pattern wall
G1 E-0.75 F3000 ; Retract
G1 Z1.15 F7200 ; Z hop
G0 X122.4621 Y121.2268 F7200 ; Move to start next pattern wall
G1 Z0.65 F7200 ; Z hop return
G1 E0.75 F1800 ; Un-retract
G1 X143.6753 Y142.44 E2.13799 F6000 ; Print pattern wall
G1 X122.4621 Y163.6532 E2.13799 F6000 ; Print pattern wall
G1 E-0.75 F3000 ; Retract
G1 Z1.15 F7200 ; Z hop
G0 X123.6742 Y121.2268 F7200 ; Move to start next pattern wall
G1 Z0.65 F7200 ; Z hop return
G1 E0.75 F1800 ; Un-retract
G1 X144.8874 Y142.44 E2.13799 F6000 ; Print pattern wall
G1 X123.6742 Y163.6532 E2.13799 F6000 ; Print pattern wall
G1 E-0.75 F3000 ; Retract
G1 Z1.15 F7200 ; Z hop
G0 X126.5742 Y121.2268 F7200 ; Move to next pattern
G1 Z0.65 F7200 ; Z hop return
G1 E0.75 F1800 ; Un-retract
SET_PRESSURE_ADVANCE ADVANCE=0.0175 ; Set pressure advance
M117 PA 0.0175
G1 X147.7874 Y142.44 E2.13799 F6000 ; Print pattern wall
G1 X126.5742 Y163.6532 E2.13799 F6000 ; Print pattern wall
G1 E-0.75 F3000 ; Retract
G1 Z1.15 F7200 ; Z hop
G0 X127.7863 Y121.2268 F7200 ; Move to start next pattern wall
G1 Z0.65 F7200 ; Z hop return
G1 E0.75 F1800 ; Un-retract
G1 X148.9995 Y142.44 E2.13799 F6000 ; Print pattern wall
G1 X127.7863 Y163.6532 E2.13799 F6000 ; Print pattern wall
G1 E-0.75 F3000 ; Retract
G1 Z1.15 F7200 ; Z hop
G0 X128.9984 Y121.2268 F7200 ; Move to start next pattern wall
G1 Z0.65 F7200 ; Z hop return
G1 E0.75 F1800 ; Un-retract
G1 X150.2116 Y142.44 E2.13799 F6000 ; Print pattern wall
G1 X128.9984 Y163.6532 E2.13799 F6000 ; Print pattern wall
G1 E-0.75 F3000 ; Retract
G1 Z1.15 F7200 ; Z hop
G0 X131.8984 Y121.2268 F7200 ; Move to next pattern
G1 Z0.65 F7200 ; Z hop return
G1 E0.75 F1800 ; Un-retract
SET_PRESSURE_ADVANCE ADVANCE=0.018 ; Set pressure advance
M117 PA 0.018
G1 X153.1116 Y142.44 E2.13799 F6000 ; Print pattern wall
G1 X131.8984 Y163.6532 E2.13799 F6000 ; Print pattern wall
G1 E-0.75 F3000 ; Retract
G1 Z1.15 F7200 ; Z hop
G0 X133.1105 Y121.2268 F7200 ; Move to start next pattern wall
G1 Z0.65 F7200 ; Z hop return
G1 E0.75 F1800 ; Un-retract
G1 X154.3237 Y142.44 E2.13799 F6000 ; Print pattern wall
G1 X133.1105 Y163.6532 E2.13799 F6000 ; Print pattern wall
G1 E-0.75 F3000 ; Retract
G1 Z1.15 F7200 ; Z hop
G0 X134.3226 Y121.2268 F7200 ; Move to start next pattern wall
G1 Z0.65 F7200 ; Z hop return
G1 E0.75 F1800 ; Un-retract
G1 X155.5358 Y142.44 E2.13799 F6000 ; Print pattern wall
G1 X134.3226 Y163.6532 E2.13799 F6000 ; Print pattern wall
G1 E-0.75 F3000 ; Retract
G1 Z1.15 F7200 ; Z hop
G0 X137.2226 Y121.2268 F7200 ; Move to next pattern
G1 Z0.65 F7200 ; Z hop return
G1 E0.75 F1800 ; Un-retract
SET_PRESSURE_ADVANCE ADVANCE=0.0185 ; Set pressure advance
M117 PA 0.0185
G1 X158.4358 Y142.44 E2.13799 F6000 ; Print pattern wall
G1 X137.2226 Y163.6532 E2.13799 F6000 ; Print pattern wall
G1 E-0.75 F3000 ; Retract
G1 Z1.15 F7200 ; Z hop
G0 X138.4347 Y121.2268 F7200 ; Move to start next pattern wall
G1 Z0.65 F7200 ; Z hop return
G1 E0.75 F1800 ; Un-retract
G1 X159.6479 Y142.44 E2.13799 F6000 ; Print pattern wall
G1 X138.4347 Y163.6532 E2.13799 F6000 ; Print pattern wall
G1 E-0.75 F3000 ; Retract
G1 Z1.15 F7200 ; Z hop
G0 X139.6468 Y121.2268 F7200 ; Move to start next pattern wall
G1 Z0.65 F7200 ; Z hop return
G1 E0.75 F1800 ; Un-retract
G1 X160.86 Y142.44 E2.13799 F6000 ; Print pattern wall
G1 X139.6468 Y163.6532 E2.13799 F6000 ; Print pattern wall
G1 E-0.75 F3000 ; Retract
G1 Z1.15 F7200 ; Z hop
G0 X142.5468 Y121.2268 F7200 ; Move to next pattern
G1 Z0.65 F7200 ; Z hop return
G1 E0.75 F1800 ; Un-retract
SET_PRESSURE_ADVANCE ADVANCE=0.019 ; Set pressure advance
M117 PA 0.019
G1 X163.76 Y142.44 E2.13799 F6000 ; Print pattern wall
G1 X142.5468 Y163.6532 E2.13799 F6000 ; Print pattern wall
G1 E-0.75 F3000 ; Retract
G1 Z1.15 F7200 ; Z hop
G0 X143.7588 Y121.2268 F7200 ; Move to start next pattern wall
G1 Z0.65 F7200 ; Z hop return
G1 E0.75 F1800 ; Un-retract
G1 X164.972 Y142.44 E2.13799 F6000 ; Print pattern wall
G1 X143.7588 Y163.6532 E2.13799 F6000 ; Print pattern wall
G1 E-0.75 F3000 ; Retract
G1 Z1.15 F7200 ; Z hop
G0 X144.9709 Y121.2268 F7200 ; Move to start next pattern wall
G1 Z0.65 F7200 ; Z hop return
G1 E0.75 F1800 ; Un-retract
G1 X166.1841 Y142.44 E2.13799 F6000 ; Print pattern wall
G1 X144.9709 Y163.6532 E2.13799 F6000 ; Print pattern wall
G1 E-0.75 F3000 ; Retract
G1 Z1.15 F7200 ; Z hop
G0 X147.8709 Y121.2268 F7200 ; Move to next pattern
G1 Z0.65 F7200 ; Z hop return
G1 E0.75 F1800 ; Un-retract
SET_PRESSURE_ADVANCE ADVANCE=0.0195 ; Set pressure advance
M117 PA 0.0195
G1 X169.0841 Y142.44 E2.13799 F6000 ; Print pattern wall
G1 X147.8709 Y163.6532 E2.13799 F6000 ; Print pattern wall
G1 E-0.75 F3000 ; Retract
G1 Z1.15 F7200 ; Z hop
G0 X149.083 Y121.2268 F7200 ; Move to start next pattern wall
G1 Z0.65 F7200 ; Z hop return
G1 E0.75 F1800 ; Un-retract
G1 X170.2962 Y142.44 E2.13799 F6000 ; Print pattern wall
G1 X149.083 Y163.6532 E2.13799 F6000 ; Print pattern wall
G1 E-0.75 F3000 ; Retract
G1 Z1.15 F7200 ; Z hop
G0 X150.2951 Y121.2268 F7200 ; Move to start next pattern wall
G1 Z0.65 F7200 ; Z hop return
G1 E0.75 F1800 ; Un-retract
G1 X171.5083 Y142.44 E2.13799 F6000 ; Print pattern wall
G1 X150.2951 Y163.6532 E2.13799 F6000 ; Print pattern wall
G1 E-0.75 F3000 ; Retract
G1 Z1.15 F7200 ; Z hop
G0 X153.1951 Y121.2268 F7200 ; Move to next pattern
G1 Z0.65 F7200 ; Z hop return
G1 E0.75 F1800 ; Un-retract
SET_PRESSURE_ADVANCE ADVANCE=0.02 ; Set pressure advance
M117 PA 0.02
G1 X174.4083 Y142.44 E2.13799 F6000 ; Print pattern wall
G1 X153.1951 Y163.6532 E2.13799 F6000 ; Print pattern wall
G1 E-0.75 F3000 ; Retract
G1 Z1.15 F7200 ; Z hop
G0 X154.4072 Y121.2268 F7200 ; Move to start next pattern wall
G1 Z0.65 F7200 ; Z hop return
G1 E0.75 F1800 ; Un-retract
G1 X175.6204 Y142.44 E2.13799 F6000 ; Print pattern wall
G1 X154.4072 Y163.6532 E2.13799 F6000 ; Print pattern wall
G1 E-0.75 F3000 ; Retract
G1 Z1.15 F7200 ; Z hop
G0 X155.6193 Y121.2268 F7200 ; Move to start next pattern wall
G1 Z0.65 F7200 ; Z hop return
G1 E0.75 F1800 ; Un-retract
G1 X176.8325 Y142.44 E2.13799 F6000 ; Print pattern wall
G1 X155.6193 Y163.6532 E2.13799 F6000 ; Print pattern wall
G1 E-0.75 F3000 ; Retract
G1 Z1.15 F7200 ; Z hop
G0 X158.5193 Y121.2268 F7200 ; Move to next pattern
G1 Z0.65 F7200 ; Z hop return
G1 E0.75 F1800 ; Un-retract
SET_PRESSURE_ADVANCE ADVANCE=0.0205 ; Set pressure advance
M117 PA 0.0205
G1 X179.7325 Y142.44 E2.13799 F6000 ; Print pattern wall
G1 X158.5193 Y163.6532 E2.13799 F6000 ; Print pattern wall
G1 E-0.75 F3000 ; Retract
G1 Z1.15 F7200 ; Z hop
G0 X159.7314 Y121.2268 F7200 ; Move to start next pattern wall
G1 Z0.65 F7200 ; Z hop return
G1 E0.75 F1800 ; Un-retract
G1 X180.9446 Y142.44 E2.13799 F6000 ; Print pattern wall
G1 X159.7314 Y163.6532 E2.13799 F6000 ; Print pattern wall
G1 E-0.75 F3000 ; Retract
G1 Z1.15 F7200 ; Z hop
G0 X160.9435 Y121.2268 F7200 ; Move to start next pattern wall
G1 Z0.65 F7200 ; Z hop return
G1 E0.75 F1800 ; Un-retract
G1 X182.1567 Y142.44 E2.13799 F6000 ; Print pattern wall
G1 X160.9435 Y163.6532 E2.13799 F6000 ; Print pattern wall
G1 E-0.75 F3000 ; Retract
G1 Z1.15 F7200 ; Z hop
G0 X163.8435 Y121.2268 F7200 ; Move to next pattern
G1 Z0.65 F7200 ; Z hop return
G1 E0.75 F1800 ; Un-retract
SET_PRESSURE_ADVANCE ADVANCE=0.021 ; Set pressure advance
M117 PA 0.021
G1 X185.0567 Y142.44 E2.13799 F6000 ; Print pattern wall
G1 X163.8435 Y163.6532 E2.13799 F6000 ; Print pattern wall
G1 E-0.75 F3000 ; Retract
G1 Z1.15 F7200 ; Z hop
G0 X165.0556 Y121.2268 F7200 ; Move to start next pattern wall
G1 Z0.65 F7200 ; Z hop return
G1 E0.75 F1800 ; Un-retract
G1 X186.2688 Y142.44 E2.13799 F6000 ; Print pattern wall
G1 X165.0556 Y163.6532 E2.13799 F6000 ; Print pattern wall
G1 E-0.75 F3000 ; Retract
G1 Z1.15 F7200 ; Z hop
G0 X166.2677 Y121.2268 F7200 ; Move to start next pattern wall
G1 Z0.65 F7200 ; Z hop return
G1 E0.75 F1800 ; Un-retract
G1 X187.4809 Y142.44 E2.13799 F6000 ; Print pattern wall
G1 X166.2677 Y163.6532 E2.13799 F6000 ; Print pattern wall
G1 E-0.75 F3000 ; Retract
G1 Z1.15 F7200 ; Z hop
G0 X169.1677 Y121.2268 F7200 ; Move to next pattern
G1 Z0.65 F7200 ; Z hop return
G1 E0.75 F1800 ; Un-retract
SET_PRESSURE_ADVANCE ADVANCE=0.0215 ; Set pressure advance
M117 PA 0.0215
G1 X190.3809 Y142.44 E2.13799 F6000 ; Print pattern wall
G1 X169.1677 Y163.6532 E2.13799 F6000 ; Print pattern wall
G1 E-0.75 F3000 ; Retract
G1 Z1.15 F7200 ; Z hop
G0 X170.3798 Y121.2268 F7200 ; Move to start next pattern wall
G1 Z0.65 F7200 ; Z hop return
G1 E0.75 F1800 ; Un-retract
G1 X191.593 Y142.44 E2.13799 F6000 ; Print pattern wall
G1 X170.3798 Y163.6532 E2.13799 F6000 ; Print pattern wall
G1 E-0.75 F3000 ; Retract
G1 Z1.15 F7200 ; Z hop
G0 X171.5919 Y121.2268 F7200 ; Move to start next pattern wall
G1 Z0.65 F7200 ; Z hop return
G1 E0.75 F1800 ; Un-retract
G1 X192.8051 Y142.44 E2.13799 F6000 ; Print pattern wall
G1 X171.5919 Y163.6532 E2.13799 F6000 ; Print pattern wall
G1 E-0.75 F3000 ; Retract
G1 Z1.15 F7200 ; Z hop
G0 X174.4919 Y121.2268 F7200 ; Move to next pattern
G1 Z0.65 F7200 ; Z hop return
G1 E0.75 F1800 ; Un-retract
SET_PRESSURE_ADVANCE ADVANCE=0.022 ; Set pressure advance
M117 PA 0.022
G1 X195.7051 Y142.44 E2.13799 F6000 ; Print pattern wall
G1 X174.4919 Y163.6532 E2.13799 F6000 ; Print pattern wall
G1 E-0.75 F3000 ; Retract
G1 Z1.15 F7200 ; Z hop
G0 X175.704 Y121.2268 F7200 ; Move to start next pattern wall
G1 Z0.65 F7200 ; Z hop return
G1 E0.75 F1800 ; Un-retract
G1 X196.9172 Y142.44 E2.13799 F6000 ; Print pattern wall
G1 X175.704 Y163.6532 E2.13799 F6000 ; Print pattern wall
G1 E-0.75 F3000 ; Retract
G1 Z1.15 F7200 ; Z hop
G0 X176.9161 Y121.2268 F7200 ; Move to start next pattern wall
G1 Z0.65 F7200 ; Z hop return
G1 E0.75 F1800 ; Un-retract
G1 X198.1293 Y142.44 E2.13799 F6000 ; Print pattern wall
G1 X176.9161 Y163.6532 E2.13799 F6000 ; Print pattern wall
G1 E-0.75 F3000 ; Retract
G1 Z1.15 F7200 ; Z hop
G0 X99.9533 Y121.2268 F7200 ; Move back to start position
G1 Z0.65 F7200 ; Z hop return
G1 E0.75 F1800 ; Un-retract
G0 Z0.85 F7200 ; Move to layer height
SET_PRESSURE_ADVANCE ADVANCE=0.015 ; Set pressure advance
M117 PA 0.015
G1 X121.1665 Y142.44 E2.13799 F6000 ; Print pattern wall
G1 X99.9533 Y163.6532 E2.13799 F6000 ; Print pattern wall
G1 E-0.75 F3000 ; Retract
G1 Z1.35 F7200 ; Z hop
G0 X101.1653 Y121.2268 F7200 ; Move to start next pattern wall
G1 Z0.85 F7200 ; Z hop return
G1 E0.75 F1800 ; Un-retract
G1 X122.3786 Y142.44 E2.13799 F6000 ; Print pattern wall
G1 X101.1653 Y163.6532 E2.13799 F6000 ; Print pattern wall
G1 E-0.75 F3000 ; Retract
G1 Z1.35 F7200 ; Z hop
G0 X102.3774 Y121.2268 F7200 ; Move to start next pattern wall
G1 Z0.85 F7200 ; Z hop return
G1 E0.75 F1800 ; Un-retract
G1 X123.5906 Y142.44 E2.13799 F6000 ; Print pattern wall
G1 X102.3774 Y163.6532 E2.13799 F6000 ; Print pattern wall
G1 E-0.75 F3000 ; Retract
G1 Z1.35 F7200 ; Z hop
G0 X105.2774 Y121.2268 F7200 ; Move to next pattern
G1 Z0.85 F7200 ; Z hop return
G1 E0.75 F1800 ; Un-retract
SET_PRESSURE_ADVANCE ADVANCE=0.0155 ; Set pressure advance
M117 PA 0.0155
G1 X126.4906 Y142.44 E2.13799 F6000 ; Print pattern wall
G1 X105.2774 Y163.6532 E2.13799 F6000 ; Print pattern wall
G1 E-0.75 F3000 ; Retract
G1 Z1.35 F7200 ; Z hop
G0 X106.4895 Y121.2268 F7200 ; Move to start next pattern wall
G1 Z0.85 F7200 ; Z hop return
G1 E0.75 F1800 ; Un-retract
G1 X127.7027 Y142.44 E2.13799 F6000 ; Print pattern wall
G1 X106.4895 Y163.6532 E2.13799 F6000 ; Print pattern wall
G1 E-0.75 F3000 ; Retract
G1 Z1.35 F7200 ; Z hop
G0 X107.7016 Y121.2268 F7200 ; Move to start next pattern wall
G1 Z0.85 F7200 ; Z hop return
G1 E0.75 F1800 ; Un-retract
G1 X128.9148 Y142.44 E2.13799 F6000 ; Print pattern wall
G1 X107.7016 Y163.6532 E2.13799 F6000 ; Print pattern wall
G1 E-0.75 F3000 ; Retract
G1 Z1.35 F7200 ; Z hop
G0 X110.6016 Y121.2268 F7200 ; Move to next pattern
G1 Z0.85 F7200 ; Z hop return
G1 E0.75 F1800 ; Un-retract
SET_PRESSURE_ADVANCE ADVANCE=0.016 ; Set pressure advance
M117 PA 0.016
G1 X131.8148 Y142.44 E2.13799 F6000 ; Print pattern wall
G1 X110.6016 Y163.6532 E2.13799 F6000 ; Print pattern wall
G1 E-0.75 F3000 ; Retract
G1 Z1.35 F7200 ; Z hop
G0 X111.8137 Y121.2268 F7200 ; Move to start next pattern wall
G1 Z0.85 F7200 ; Z hop return
G1 E0.75 F1800 ; Un-retract
G1 X133.0269 Y142.44 E2.13799 F6000 ; Print pattern wall
G1 X111.8137 Y163.6532 E2.13799 F6000 ; Print pattern wall
G1 E-0.75 F3000 ; Retract
G1 Z1.35 F7200 ; Z hop
G0 X113.0258 Y121.2268 F7200 ; Move to start next pattern wall
G1 Z0.85 F7200 ; Z hop return
G1 E0.75 F1800 ; Un-retract
G1 X134.239 Y142.44 E2.13799 F6000 ; Print pattern wall
G1 X113.0258 Y163.6532 E2.13799 F6000 ; Print pattern wall
G1 E-0.75 F3000 ; Retract
G1 Z1.35 F7200 ; Z hop
G0 X115.9258 Y121.2268 F7200 ; Move to next pattern
G1 Z0.85 F7200 ; Z hop return
G1 E0.75 F1800 ; Un-retract
SET_PRESSURE_ADVANCE ADVANCE=0.0165 ; Set pressure advance
M117 PA 0.0165
G1 X137.139 Y142.44 E2.13799 F6000 ; Print pattern wall
G1 X115.9258 Y163.6532 E2.13799 F6000 ; Print pattern wall
G1 E-0.75 F3000 ; Retract
G1 Z1.35 F7200 ; Z hop
G0 X117.1379 Y121.2268 F7200 ; Move to start next pattern wall
G1 Z0.85 F7200 ; Z hop return
G1 E0.75 F1800 ; Un-retract
G1 X138.3511 Y142.44 E2.13799 F6000 ; Print pattern wall
G1 X117.1379 Y163.6532 E2.13799 F6000 ; Print pattern wall
G1 E-0.75 F3000 ; Retract
G1 Z1.35 F7200 ; Z hop
G0 X118.35 Y121.2268 F7200 ; Move to start next pattern wall
G1 Z0.85 F7200 ; Z hop return
G1 E0.75 F1800 ; Un-retract
G1 X139.5632 Y142.44 E2.13799 F6000 ; Print pattern wall
G1 X118.35 Y163.6532 E2.13799 F6000 ; Print pattern wall
G1 E-0.75 F3000 ; Retract
G1 Z1.35 F7200 ; Z hop
G0 X121.25 Y121.2268 F7200 ; Move to next pattern
G1 Z0.85 F7200 ; Z hop return
G1 E0.75 F1800 ; Un-retract
SET_PRESSURE_ADVANCE ADVANCE=0.017 ; Set pressure advance
M117 PA 0.017
G1 X142.4632 Y142.44 E2.13799 F6000 ; Print pattern wall
G1 X121.25 Y163.6532 E2.13799 F6000 ; Print pattern wall
G1 E-0.75 F3000 ; Retract
G1 Z1.35 F7200 ; Z hop
G0 X122.4621 Y121.2268 F7200 ; Move to start next pattern wall
G1 Z0.85 F7200 ; Z hop return
G1 E0.75 F1800 ; Un-retract
G1 X143.6753 Y142.44 E2.13799 F6000 ; Print pattern wall
G1 X122.4621 Y163.6532 E2.13799 F6000 ; Print pattern wall
G1 E-0.75 F3000 ; Retract
G1 Z1.35 F7200 ; Z hop
G0 X123.6742 Y121.2268 F7200 ; Move to start next pattern wall
G1 Z0.85 F7200 ; Z hop return
G1 E0.75 F1800 ; Un-retract
G1 X144.8874 Y142.44 E2.13799 F6000 ; Print pattern wall
G1 X123.6742 Y163.6532 E2.13799 F6000 ; Print pattern wall
G1 E-0.75 F3000 ; Retract
G1 Z1.35 F7200 ; Z hop
G0 X126.5742 Y121.2268 F7200 ; Move to next pattern
G1 Z0.85 F7200 ; Z hop return
G1 E0.75 F1800 ; Un-retract
SET_PRESSURE_ADVANCE ADVANCE=0.0175 ; Set pressure advance
M117 PA 0.0175
G1 X147.7874 Y142.44 E2.13799 F6000 ; Print pattern wall
G1 X126.5742 Y163.6532 E2.13799 F6000 ; Print pattern wall
G1 E-0.75 F3000 ; Retract
G1 Z1.35 F7200 ; Z hop
G0 X127.7863 Y121.2268 F7200 ; Move to start next pattern wall
G1 Z0.85 F7200 ; Z hop return
G1 E0.75 F1800 ; Un-retract
G1 X148.9995 Y142.44 E2.13799 F6000 ; Print pattern wall
G1 X127.7863 Y163.6532 E2.13799 F6000 ; Print pattern wall
G1 E-0.75 F3000 ; Retract
G1 Z1.35 F7200 ; Z hop
G0 X128.9984 Y121.2268 F7200 ; Move to start next pattern wall
G1 Z0.85 F7200 ; Z hop return
G1 E0.75 F1800 ; Un-retract
G1 X150.2116 Y142.44 E2.13799 F6000 ; Print pattern wall
G1 X128.9984 Y163.6532 E2.13799 F6000 ; Print pattern wall
G1 E-0.75 F3000 ; Retract
G1 Z1.35 F7200 ; Z hop
G0 X131.8984 Y121.2268 F7200 ; Move to next pattern
G1 Z0.85 F7200 ; Z hop return
G1 E0.75 F1800 ; Un-retract
SET_PRESSURE_ADVANCE ADVANCE=0.018 ; Set pressure advance
M117 PA 0.018
G1 X153.1116 Y142.44 E2.13799 F6000 ; Print pattern wall
G1 X131.8984 Y163.6532 E2.13799 F6000 ; Print pattern wall
G1 E-0.75 F3000 ; Retract
G1 Z1.35 F7200 ; Z hop
G0 X133.1105 Y121.2268 F7200 ; Move to start next pattern wall
G1 Z0.85 F7200 ; Z hop return
G1 E0.75 F1800 ; Un-retract
G1 X154.3237 Y142.44 E2.13799 F6000 ; Print pattern wall
G1 X133.1105 Y163.6532 E2.13799 F6000 ; Print pattern wall
G1 E-0.75 F3000 ; Retract
G1 Z1.35 F7200 ; Z hop
G0 X134.3226 Y121.2268 F7200 ; Move to start next pattern wall
G1 Z0.85 F7200 ; Z hop return
G1 E0.75 F1800 ; Un-retract
G1 X155.5358 Y142.44 E2.13799 F6000 ; Print pattern wall
G1 X134.3226 Y163.6532 E2.13799 F6000 ; Print pattern wall
G1 E-0.75 F3000 ; Retract
G1 Z1.35 F7200 ; Z hop
G0 X137.2226 Y121.2268 F7200 ; Move to next pattern
G1 Z0.85 F7200 ; Z hop return
G1 E0.75 F1800 ; Un-retract
SET_PRESSURE_ADVANCE ADVANCE=0.0185 ; Set pressure advance
M117 PA 0.0185
G1 X158.4358 Y142.44 E2.13799 F6000 ; Print pattern wall
G1 X137.2226 Y163.6532 E2.13799 F6000 ; Print pattern wall
G1 E-0.75 F3000 ; Retract
G1 Z1.35 F7200 ; Z hop
G0 X138.4347 Y121.2268 F7200 ; Move to start next pattern wall
G1 Z0.85 F7200 ; Z hop return
G1 E0.75 F1800 ; Un-retract
G1 X159.6479 Y142.44 E2.13799 F6000 ; Print pattern wall
G1 X138.4347 Y163.6532 E2.13799 F6000 ; Print pattern wall
G1 E-0.75 F3000 ; Retract
G1 Z1.35 F7200 ; Z hop
G0 X139.6468 Y121.2268 F7200 ; Move to start next pattern wall
G1 Z0.85 F7200 ; Z hop return
G1 E0.75 F1800 ; Un-retract
G1 X160.86 Y142.44 E2.13799 F6000 ; Print pattern wall
G1 X139.6468 Y163.6532 E2.13799 F6000 ; Print pattern wall
G1 E-0.75 F3000 ; Retract
G1 Z1.35 F7200 ; Z hop
G0 X142.5468 Y121.2268 F7200 ; Move to next pattern
G1 Z0.85 F7200 ; Z hop return
G1 E0.75 F1800 ; Un-retract
SET_PRESSURE_ADVANCE ADVANCE=0.019 ; Set pressure advance
M117 PA 0.019
G1 X163.76 Y142.44 E2.13799 F6000 ; Print pattern wall
G1 X142.5468 Y163.6532 E2.13799 F6000 ; Print pattern wall
G1 E-0.75 F3000 ; Retract
G1 Z1.35 F7200 ; Z hop
G0 X143.7588 Y121.2268 F7200 ; Move to start next pattern wall
G1 Z0.85 F7200 ; Z hop return
G1 E0.75 F1800 ; Un-retract
G1 X164.972 Y142.44 E2.13799 F6000 ; Print pattern wall
G1 X143.7588 Y163.6532 E2.13799 F6000 ; Print pattern wall
G1 E-0.75 F3000 ; Retract
G1 Z1.35 F7200 ; Z hop
G0 X144.9709 Y121.2268 F7200 ; Move to start next pattern wall
G1 Z0.85 F7200 ; Z hop return
G1 E0.75 F1800 ; Un-retract
G1 X166.1841 Y142.44 E2.13799 F6000 ; Print pattern wall
G1 X144.9709 Y163.6532 E2.13799 F6000 ; Print pattern wall
G1 E-0.75 F3000 ; Retract
G1 Z1.35 F7200 ; Z hop
G0 X147.8709 Y121.2268 F7200 ; Move to next pattern
G1 Z0.85 F7200 ; Z hop return
G1 E0.75 F1800 ; Un-retract
SET_PRESSURE_ADVANCE ADVANCE=0.0195 ; Set pressure advance
M117 PA 0.0195
G1 X169.0841 Y142.44 E2.13799 F6000 ; Print pattern wall
G1 X147.8709 Y163.6532 E2.13799 F6000 ; Print pattern wall
G1 E-0.75 F3000 ; Retract
G1 Z1.35 F7200 ; Z hop
G0 X149.083 Y121.2268 F7200 ; Move to start next pattern wall
G1 Z0.85 F7200 ; Z hop return
G1 E0.75 F1800 ; Un-retract
G1 X170.2962 Y142.44 E2.13799 F6000 ; Print pattern wall
G1 X149.083 Y163.6532 E2.13799 F6000 ; Print pattern wall
G1 E-0.75 F3000 ; Retract
G1 Z1.35 F7200 ; Z hop
G0 X150.2951 Y121.2268 F7200 ; Move to start next pattern wall
G1 Z0.85 F7200 ; Z hop return
G1 E0.75 F1800 ; Un-retract
G1 X171.5083 Y142.44 E2.13799 F6000 ; Print pattern wall
G1 X150.2951 Y163.6532 E2.13799 F6000 ; Print pattern wall
G1 E-0.75 F3000 ; Retract
G1 Z1.35 F7200 ; Z hop
G0 X153.1951 Y121.2268 F7200 ; Move to next pattern
G1 Z0.85 F7200 ; Z hop return
G1 E0.75 F1800 ; Un-retract
SET_PRESSURE_ADVANCE ADVANCE=0.02 ; Set pressure advance
M117 PA 0.02
G1 X174.4083 Y142.44 E2.13799 F6000 ; Print pattern wall
G1 X153.1951 Y163.6532 E2.13799 F6000 ; Print pattern wall
G1 E-0.75 F3000 ; Retract
G1 Z1.35 F7200 ; Z hop
G0 X154.4072 Y121.2268 F7200 ; Move to start next pattern wall
G1 Z0.85 F7200 ; Z hop return
G1 E0.75 F1800 ; Un-retract
G1 X175.6204 Y142.44 E2.13799 F6000 ; Print pattern wall
G1 X154.4072 Y163.6532 E2.13799 F6000 ; Print pattern wall
G1 E-0.75 F3000 ; Retract
G1 Z1.35 F7200 ; Z hop
G0 X155.6193 Y121.2268 F7200 ; Move to start next pattern wall
G1 Z0.85 F7200 ; Z hop return
G1 E0.75 F1800 ; Un-retract
G1 X176.8325 Y142.44 E2.13799 F6000 ; Print pattern wall
G1 X155.6193 Y163.6532 E2.13799 F6000 ; Print pattern wall
G1 E-0.75 F3000 ; Retract
G1 Z1.35 F7200 ; Z hop
G0 X158.5193 Y121.2268 F7200 ; Move to next pattern
G1 Z0.85 F7200 ; Z hop return
G1 E0.75 F1800 ; Un-retract
SET_PRESSURE_ADVANCE ADVANCE=0.0205 ; Set pressure advance
M117 PA 0.0205
G1 X179.7325 Y142.44 E2.13799 F6000 ; Print pattern wall
G1 X158.5193 Y163.6532 E2.13799 F6000 ; Print pattern wall
G1 E-0.75 F3000 ; Retract
G1 Z1.35 F7200 ; Z hop
G0 X159.7314 Y121.2268 F7200 ; Move to start next pattern wall
G1 Z0.85 F7200 ; Z hop return
G1 E0.75 F1800 ; Un-retract
G1 X180.9446 Y142.44 E2.13799 F6000 ; Print pattern wall
G1 X159.7314 Y163.6532 E2.13799 F6000 ; Print pattern wall
G1 E-0.75 F3000 ; Retract
G1 Z1.35 F7200 ; Z hop
G0 X160.9435 Y121.2268 F7200 ; Move to start next pattern wall
G1 Z0.85 F7200 ; Z hop return
G1 E0.75 F1800 ; Un-retract
G1 X182.1567 Y142.44 E2.13799 F6000 ; Print pattern wall
G1 X160.9435 Y163.6532 E2.13799 F6000 ; Print pattern wall
G1 E-0.75 F3000 ; Retract
G1 Z1.35 F7200 ; Z hop
G0 X163.8435 Y121.2268 F7200 ; Move to next pattern
G1 Z0.85 F7200 ; Z hop return
G1 E0.75 F1800 ; Un-retract
SET_PRESSURE_ADVANCE ADVANCE=0.021 ; Set pressure advance
M117 PA 0.021
G1 X185.0567 Y142.44 E2.13799 F6000 ; Print pattern wall
G1 X163.8435 Y163.6532 E2.13799 F6000 ; Print pattern wall
G1 E-0.75 F3000 ; Retract
G1 Z1.35 F7200 ; Z hop
G0 X165.0556 Y121.2268 F7200 ; Move to start next pattern wall
G1 Z0.85 F7200 ; Z hop return
G1 E0.75 F1800 ; Un-retract
G1 X186.2688 Y142.44 E2.13799 F6000 ; Print pattern wall
G1 X165.0556 Y163.6532 E2.13799 F6000 ; Print pattern wall
G1 E-0.75 F3000 ; Retract
G1 Z1.35 F7200 ; Z hop
G0 X166.2677 Y121.2268 F7200 ; Move to start next pattern wall
G1 Z0.85 F7200 ; Z hop return
G1 E0.75 F1800 ; Un-retract
G1 X187.4809 Y142.44 E2.13799 F6000 ; Print pattern wall
G1 X166.2677 Y163.6532 E2.13799 F6000 ; Print pattern wall
G1 E-0.75 F3000 ; Retract
G1 Z1.35 F7200 ; Z hop
G0 X169.1677 Y121.2268 F7200 ; Move to next pattern
G1 Z0.85 F7200 ; Z hop return
G1 E0.75 F1800 ; Un-retract
SET_PRESSURE_ADVANCE ADVANCE=0.0215 ; Set pressure advance
M117 PA 0.0215
G1 X190.3809 Y142.44 E2.13799 F6000 ; Print pattern wall
G1 X169.1677 Y163.6532 E2.13799 F6000 ; Print pattern wall
G1 E-0.75 F3000 ; Retract
G1 Z1.35 F7200 ; Z hop
G0 X170.3798 Y121.2268 F7200 ; Move to start next pattern wall
G1 Z0.85 F7200 ; Z hop return
G1 E0.75 F1800 ; Un-retract
G1 X191.593 Y142.44 E2.13799 F6000 ; Print pattern wall
G1 X170.3798 Y163.6532 E2.13799 F6000 ; Print pattern wall
G1 E-0.75 F3000 ; Retract
G1 Z1.35 F7200 ; Z hop
G0 X171.5919 Y121.2268 F7200 ; Move to start next pattern wall
G1 Z0.85 F7200 ; Z hop return
G1 E0.75 F1800 ; Un-retract
G1 X192.8051 Y142.44 E2.13799 F6000 ; Print pattern wall
G1 X171.5919 Y163.6532 E2.13799 F6000 ; Print pattern wall
G1 E-0.75 F3000 ; Retract
G1 Z1.35 F7200 ; Z hop
G0 X174.4919 Y121.2268 F7200 ; Move to next pattern
G1 Z0.85 F7200 ; Z hop return
G1 E0.75 F1800 ; Un-retract
SET_PRESSURE_ADVANCE ADVANCE=0.022 ; Set pressure advance
M117 PA 0.022
G1 X195.7051 Y142.44 E2.13799 F6000 ; Print pattern wall
G1 X174.4919 Y163.6532 E2.13799 F6000 ; Print pattern wall
G1 E-0.75 F3000 ; Retract
G1 Z1.35 F7200 ; Z hop
G0 X175.704 Y121.2268 F7200 ; Move to start next pattern wall
G1 Z0.85 F7200 ; Z hop return
G1 E0.75 F1800 ; Un-retract
G1 X196.9172 Y142.44 E2.13799 F6000 ; Print pattern wall
G1 X175.704 Y163.6532 E2.13799 F6000 ; Print pattern wall
G1 E-0.75 F3000 ; Retract
G1 Z1.35 F7200 ; Z hop
G0 X176.9161 Y121.2268 F7200 ; Move to start next pattern wall
G1 Z0.85 F7200 ; Z hop return
G1 E0.75 F1800 ; Un-retract
G1 X198.1293 Y142.44 E2.13799 F6000 ; Print pattern wall
G1 X176.9161 Y163.6532 E2.13799 F6000 ; Print pattern wall
SET_PRESSURE_ADVANCE ADVANCE=0.015 ; Set pressure advance back to start value
M117 PA 0.015
G1 E-0.75 F3000 ; Retract
G1 Z1.35 F7200 ; Z hop
G0 Z5.85 F7200 ; Z raise
M104 S0 ; Turn off hotend
M140 S0 ; Turn off bed
M107    ; Turn off fan
;
; End G-code
;
PRINT_END ; End macro. Change name to match yours
;
; FINISH
;
