
; ### Ellis' Pressure Advance / Linear Advance Calibration Tool ###
;
; Original Marlin linear advance calibration tool by Sineos [https://github.com/Sineos]
; Heavily modified/rewritten by Andrew Ellis [https://github.com/AndrewEllis93]
;
; -------------------------------------------
; Generated: Fri May 03 2024 18:34:36 GMT+0200 (Central European Summer Time)
; -------------------------------------------
;
; Advanced Mode: true
;
; Printer:
;  - Firmware: klipper
;  - Bed Shape: Rect
;  - Bed Size X: 300 mm
;  - Bed Size Y: 300 mm
;  - Origin Bed Center: false
;  - Extruder Name: Disabled
;  - Travel Speed: 120 mm/s
;  - Nozzle Diameter: 0.8 mm
;  - Filament Diameter: 1.75 mm
;  - Extrusion Multiplier: 1
;
; Retraction / Z Hop:
;  - Firmware Retraction: false
;  - Retraction Distance: 0.75 mm
;  - Retract Speed: 50 mm/s
;  - Unretract Speed: 30 mm/s
;  - Z Hop Enable: true
;  - Z Hop Height: 0.5mm
;
; First Layer Settings:
;  - First Layer Height: 0.25 mm
;  - First Layer Printing Speed: 30 mm/s
;  - First Layer Fan Speed: 0%
;  - Anchor Option: anchor_frame
;  - Anchor Frame Perimeters: 4
;  - Anchor Line Width: 140 %
;
; Print Settings:
;  - Line Width: 112.5 %
;  - Layer Count: 4
;  - Layer Height: 0.2 mm
;  - Print Speed: 100 mm/s
;  - Acceleration: 750 mm/s^2
;  - Fan Speed: 0%
;
; Pattern Settings (Using defaults):
;  - Wall Count: 3
;  - Side Length: 30 mm
;  - Spacing: 2 mm
;  - Corner Angle: 90 degrees 
;  - Printing Direction: 0 degree
;
; Pressure Advance Stepping:
;  - PA Start Value: 0
;  - PA End Value: 0.08
;  - PA Increment: 0.005
;  - Increment Smooth Time Instead: false
;  - Show on LCD: true
;  - Number Tab: true
;  - No Leading Zeroes: false
;
; Start / End G-code:
;  - Hotend Temp: 250C
;  - Bed Temp: 100C
;  - Don't Add G28: false
;  - Don't Add Heating G-Codes: false
;  - Entered Start G-code: 
;       G28 ; Home all axes
;       M190 S100 ; Set & wait for bed temp
;       M109 S250 ; Set & wait for hotend temp
;       PRINT_START ; Start macro
;       ; START_PRINT ; Start macro (alternate / official start macro name)
;  - Entered End G-code: 
;       PRINT_END ; End macro. Change name to match yours
;
; Calculated Values:
;  - Print Size X: 115.44 mm
;  - Print Size Y: 54.55 mm
;  - Number of Patterns to Print: 17
;  - PA Values: 0, 0.005, 0.01, 0.015, 0.02, 0.025, 0.03, 0.035, 0.04, 0.045, 0.05, 0.055, 0.06, 0.065, 0.07, 0.075, 0.08
;
; Prepare printing
;
;G28 ; Home all axes
;M190 S100 ; Set & wait for bed temp
;M109 S250 ; Set & wait for hotend temp

M73 P0 R41
M107
print_start EXTRUDER=250 BED=100 CHAMBER=45
M107
;PRINT_START ; Start macro
; START_PRINT ; Start macro (alternate / official start macro name)
G21 ; Millimeter units
G90 ; Absolute XYZ
M83 ; Relative E
G92 E0 ; Reset extruder distance
M104 S250 ; set temperature
M109 S250 ; set temperature and wait for it to be reached
M190 S100 ; set bed temperature and wait for it to be reached
;
;  Begin printing
;
M106 S0 ; Set fan speed
SET_VELOCITY_LIMIT ACCEL=750 ; Set printing acceleration
G1 E-0.75 F3000 ; Retract
G0 Z5 F7200 ; Z raise
G0 X92.2811 Y122.7268 F7200 ; Move to start position
G0 Z0.25 F7200 ; Move to start layer height
G1 E0.75 F1800 ; Un-retract
SET_PRESSURE_ADVANCE ADVANCE=0 ; Set pressure advance to start value
M117 PA 0
G1 X92.2811 Y165.1532 E4.70229 F1800 ; Draw perimeter (up)
G1 X207.7189 Y165.1532 E12.79444 F1800 ; Draw perimeter (right)
G1 X207.7189 Y122.7268 E4.70229 F1800 ; Draw perimeter (down)
G1 X92.2811 Y122.7268 E12.79444 F1800 ; Draw perimeter (left)
G0 X93.3475 Y123.7931 F7200 ; Step inwards to print next perimeter
G1 X93.3475 Y164.0869 E4.46592 F1800 ; Draw perimeter (up)
G1 X206.6525 Y164.0869 E12.55806 F1800 ; Draw perimeter (right)
G1 X206.6525 Y123.7931 E4.46592 F1800 ; Draw perimeter (down)
G1 X93.3475 Y123.7931 E12.55806 F1800 ; Draw perimeter (left)
G0 X94.4138 Y124.8595 F7200 ; Step inwards to print next perimeter
G1 X94.4138 Y163.0205 E4.22954 F1800 ; Draw perimeter (up)
G1 X205.5862 Y163.0205 E12.32169 F1800 ; Draw perimeter (right)
G1 X205.5862 Y124.8595 E4.22954 F1800 ; Draw perimeter (down)
G1 X94.4138 Y124.8595 E12.32169 F1800 ; Draw perimeter (left)
G0 X95.4802 Y125.9258 F7200 ; Step inwards to print next perimeter
G1 X95.4802 Y161.9542 E3.99317 F1800 ; Draw perimeter (up)
G1 X204.5198 Y161.9542 E12.08531 F1800 ; Draw perimeter (right)
G1 X204.5198 Y125.9258 E3.99317 F1800 ; Draw perimeter (down)
G1 X95.4802 Y125.9258 E12.08531 F1800 ; Draw perimeter (left)
G1 E-0.75 F3000 ; Retract
G1 Z0.75 F7200 ; Z hop
G0 X92.2811 Y166.2196 F7200 ; Move to box start
G1 Z0.25 F7200 ; Z hop return
G1 E0.75 F1800 ; Un-retract
G1 X92.2811 Y178.2859 E1.33736 F1800 ; Draw perimeter (up)
G1 X184.2021 Y178.2859 E10.18798 F1800 ; Draw perimeter (right)
G1 X184.2021 Y166.2196 E1.33736 F1800 ; Draw perimeter (down)
G1 X92.2811 Y166.2196 E10.18798 F1800 ; Draw perimeter (left)
G0 X93.3475 Y167.2859 F7200 ; Step inwards to print next perimeter
G1 X93.3475 Y177.2196 E1.10099 F1800 ; Draw perimeter (up)
G1 X183.1357 Y177.2196 E9.9516 F1800 ; Draw perimeter (right)
G1 X183.1357 Y167.2859 E1.10099 F1800 ; Draw perimeter (down)
G1 X93.3475 Y167.2859 E9.9516 F1800 ; Draw perimeter (left)
G0 X94.4138 Y168.3523 F7200 ; Step inwards to print next perimeter
G1 X94.4138 Y176.1532 E0.86461 F1800 ; Draw perimeter (up)
G1 X182.0694 Y176.1532 E9.71523 F1800 ; Draw perimeter (right)
G1 X182.0694 Y168.3523 E0.86461 F1800 ; Draw perimeter (down)
G1 X94.4138 Y168.3523 E9.71523 F1800 ; Draw perimeter (left)
G0 X95.4802 Y169.4186 F7200 ; Step inwards to print next perimeter
G1 X95.4802 Y175.0869 E0.62824 F1800 ; Draw perimeter (up)
G1 X181.003 Y175.0869 E9.47885 F1800 ; Draw perimeter (right)
G1 X181.003 Y169.4186 E0.62824 F1800 ; Draw perimeter (down)
G1 X95.4802 Y169.4186 E9.47885 F1800 ; Draw perimeter (left)
G0 X96.2269 Y170.1653 F7200 ; Move to fill start
G0 X97.7349 Y170.1653 F7200 ; Move
G1 X96.2269 Y171.6733 E0.23638 F1800 ; Fill
G0 X96.2269 Y173.1814 F7200 ; Move
G1 X99.243 Y170.1653 E0.47275 F1800 ; Fill
G0 X100.751 Y170.1653 F7200 ; Move
G1 X96.5761 Y174.3402 E0.65439 F1800 ; Fill
G0 X98.0841 Y174.3402 F7200 ; Move
G1 X102.259 Y170.1653 E0.65439 F1800 ; Fill
G0 X103.7671 Y170.1653 F7200 ; Move
G1 X99.5922 Y174.3402 E0.65439 F1800 ; Fill
G0 X101.1002 Y174.3402 F7200 ; Move
G1 X105.2751 Y170.1653 E0.65439 F1800 ; Fill
G0 X106.7832 Y170.1653 F7200 ; Move
G1 X102.6083 Y174.3402 E0.65439 F1800 ; Fill
G0 X104.1163 Y174.3402 F7200 ; Move
G1 X108.2912 Y170.1653 E0.65439 F1800 ; Fill
G0 X109.7993 Y170.1653 F7200 ; Move
G1 X105.6244 Y174.3402 E0.65439 F1800 ; Fill
G0 X107.1324 Y174.3402 F7200 ; Move
G1 X111.3073 Y170.1653 E0.65439 F1800 ; Fill
G0 X112.8154 Y170.1653 F7200 ; Move
G1 X108.6404 Y174.3402 E0.65439 F1800 ; Fill
G0 X110.1485 Y174.3402 F7200 ; Move
G1 X114.3234 Y170.1653 E0.65439 F1800 ; Fill
G0 X115.8315 Y170.1653 F7200 ; Move
G1 X111.6565 Y174.3402 E0.65439 F1800 ; Fill
G0 X113.1646 Y174.3402 F7200 ; Move
G1 X117.3395 Y170.1653 E0.65439 F1800 ; Fill
G0 X118.8476 Y170.1653 F7200 ; Move
G1 X114.6726 Y174.3402 E0.65439 F1800 ; Fill
G0 X116.1807 Y174.3402 F7200 ; Move
G1 X120.3556 Y170.1653 E0.65439 F1800 ; Fill
G0 X121.8636 Y170.1653 F7200 ; Move
G1 X117.6887 Y174.3402 E0.65439 F1800 ; Fill
G0 X119.1968 Y174.3402 F7200 ; Move
G1 X123.3717 Y170.1653 E0.65439 F1800 ; Fill
G0 X124.8797 Y170.1653 F7200 ; Move
G1 X120.7048 Y174.3402 E0.65439 F1800 ; Fill
G0 X122.2129 Y174.3402 F7200 ; Move
G1 X126.3878 Y170.1653 E0.65439 F1800 ; Fill
G0 X127.8958 Y170.1653 F7200 ; Move
G1 X123.7209 Y174.3402 E0.65439 F1800 ; Fill
G0 X125.229 Y174.3402 F7200 ; Move
G1 X129.4039 Y170.1653 E0.65439 F1800 ; Fill
G0 X130.9119 Y170.1653 F7200 ; Move
G1 X126.737 Y174.3402 E0.65439 F1800 ; Fill
G0 X128.245 Y174.3402 F7200 ; Move
G1 X132.42 Y170.1653 E0.65439 F1800 ; Fill
G0 X133.928 Y170.1653 F7200 ; Move
G1 X129.7531 Y174.3402 E0.65439 F1800 ; Fill
G0 X131.2611 Y174.3402 F7200 ; Move
G1 X135.4361 Y170.1653 E0.65439 F1800 ; Fill
G0 X136.9441 Y170.1653 F7200 ; Move
G1 X132.7692 Y174.3402 E0.65439 F1800 ; Fill
G0 X134.2772 Y174.3402 F7200 ; Move
G1 X138.4522 Y170.1653 E0.65439 F1800 ; Fill
G0 X139.9602 Y170.1653 F7200 ; Move
G1 X135.7853 Y174.3402 E0.65439 F1800 ; Fill
G0 X137.2933 Y174.3402 F7200 ; Move
G1 X141.4682 Y170.1653 E0.65439 F1800 ; Fill
G0 X142.9763 Y170.1653 F7200 ; Move
G1 X138.8014 Y174.3402 E0.65439 F1800 ; Fill
G0 X140.3094 Y174.3402 F7200 ; Move
G1 X144.4843 Y170.1653 E0.65439 F1800 ; Fill
G0 X145.9924 Y170.1653 F7200 ; Move
G1 X141.8175 Y174.3402 E0.65439 F1800 ; Fill
G0 X143.3255 Y174.3402 F7200 ; Move
G1 X147.5004 Y170.1653 E0.65439 F1800 ; Fill
G0 X149.0085 Y170.1653 F7200 ; Move
G1 X144.8336 Y174.3402 E0.65439 F1800 ; Fill
G0 X146.3416 Y174.3402 F7200 ; Move
G1 X150.5165 Y170.1653 E0.65439 F1800 ; Fill
G0 X152.0246 Y170.1653 F7200 ; Move
G1 X147.8496 Y174.3402 E0.65439 F1800 ; Fill
G0 X149.3577 Y174.3402 F7200 ; Move
G1 X153.5326 Y170.1653 E0.65439 F1800 ; Fill
G0 X155.0407 Y170.1653 F7200 ; Move
G1 X150.8657 Y174.3402 E0.65439 F1800 ; Fill
G0 X152.3738 Y174.3402 F7200 ; Move
G1 X156.5487 Y170.1653 E0.65439 F1800 ; Fill
G0 X158.0567 Y170.1653 F7200 ; Move
G1 X153.8818 Y174.3402 E0.65439 F1800 ; Fill
G0 X155.3899 Y174.3402 F7200 ; Move
G1 X159.5648 Y170.1653 E0.65439 F1800 ; Fill
G0 X161.0728 Y170.1653 F7200 ; Move
G1 X156.8979 Y174.3402 E0.65439 F1800 ; Fill
G0 X158.406 Y174.3402 F7200 ; Move
G1 X162.5809 Y170.1653 E0.65439 F1800 ; Fill
G0 X164.0889 Y170.1653 F7200 ; Move
G1 X159.914 Y174.3402 E0.65439 F1800 ; Fill
G0 X161.4221 Y174.3402 F7200 ; Move
G1 X165.597 Y170.1653 E0.65439 F1800 ; Fill
G0 X167.105 Y170.1653 F7200 ; Move
G1 X162.9301 Y174.3402 E0.65439 F1800 ; Fill
G0 X164.4382 Y174.3402 F7200 ; Move
G1 X168.6131 Y170.1653 E0.65439 F1800 ; Fill
G0 X170.1211 Y170.1653 F7200 ; Move
G1 X165.9462 Y174.3402 E0.65439 F1800 ; Fill
G0 X167.4542 Y174.3402 F7200 ; Move
G1 X171.6292 Y170.1653 E0.65439 F1800 ; Fill
G0 X173.1372 Y170.1653 F7200 ; Move
G1 X168.9623 Y174.3402 E0.65439 F1800 ; Fill
G0 X170.4703 Y174.3402 F7200 ; Move
G1 X174.6453 Y170.1653 E0.65439 F1800 ; Fill
G0 X176.1533 Y170.1653 F7200 ; Move
G1 X171.9784 Y174.3402 E0.65439 F1800 ; Fill
G0 X173.4864 Y174.3402 F7200 ; Move
G1 X177.6613 Y170.1653 E0.65439 F1800 ; Fill
G0 X179.1694 Y170.1653 F7200 ; Move
G1 X174.9945 Y174.3402 E0.65439 F1800 ; Fill
G0 X176.5025 Y174.3402 F7200 ; Move
G1 X180.2564 Y170.5863 E0.58839 F1800 ; Fill
G0 X180.2564 Y172.0944 F7200 ; Move
G1 X178.0106 Y174.3402 E0.35202 F1800 ; Fill
G0 X179.5186 Y174.3402 F7200 ; Move
G1 X180.2564 Y173.6024 E0.11564 F1800 ; Fill
G0 Z0.25 F7200 ; Move to layer height
G1 E-0.75 F3000 ; Retract
G1 Z0.75 F7200 ; Z hop
G0 X98.5748 Y126.6725 F7200 ; Move to pattern start

G1 Z0.25 F7200 ; Z hop return
G1 E0.75 F1800 ; Un-retract
SET_PRESSURE_ADVANCE ADVANCE=0 ; Set pressure advance
M117 PA 0
G1 X115.8423 Y143.94 E2.14817 F1800 ; Print pattern wall
G1 X98.5748 Y161.2075 E2.14817 F1800 ; Print pattern wall
G1 E-0.75 F3000 ; Retract
G1 Z0.75 F7200 ; Z hop
G0 X99.7869 Y126.6725 F7200 ; Move to start next pattern wall
G1 Z0.25 F7200 ; Z hop return
G1 E0.75 F1800 ; Un-retract
G1 X117.0544 Y143.94 E2.14817 F1800 ; Print pattern wall
G1 X99.7869 Y161.2075 E2.14817 F1800 ; Print pattern wall
G1 E-0.75 F3000 ; Retract
G1 Z0.75 F7200 ; Z hop
G0 X100.999 Y126.6725 F7200 ; Move to start next pattern wall
G1 Z0.25 F7200 ; Z hop return
G1 E0.75 F1800 ; Un-retract
G1 X118.2664 Y143.94 E2.14817 F1800 ; Print pattern wall
G1 X100.999 Y161.2075 E2.14817 F1800 ; Print pattern wall
G1 E-0.75 F3000 ; Retract
G1 Z0.75 F7200 ; Z hop
G0 X103.899 Y126.6725 F7200 ; Move to next pattern
G1 Z0.25 F7200 ; Z hop return
G1 E0.75 F1800 ; Un-retract
SET_PRESSURE_ADVANCE ADVANCE=0.005 ; Set pressure advance
M117 PA 0.005
G1 X121.1664 Y143.94 E2.14817 F1800 ; Print pattern wall
G1 X103.899 Y161.2075 E2.14817 F1800 ; Print pattern wall
G1 E-0.75 F3000 ; Retract
G1 Z0.75 F7200 ; Z hop
G0 X105.1111 Y126.6725 F7200 ; Move to start next pattern wall
G1 Z0.25 F7200 ; Z hop return
G1 E0.75 F1800 ; Un-retract
G1 X122.3785 Y143.94 E2.14817 F1800 ; Print pattern wall
G1 X105.1111 Y161.2075 E2.14817 F1800 ; Print pattern wall
G1 E-0.75 F3000 ; Retract
G1 Z0.75 F7200 ; Z hop
G0 X106.3231 Y126.6725 F7200 ; Move to start next pattern wall
G1 Z0.25 F7200 ; Z hop return
G1 E0.75 F1800 ; Un-retract
G1 X123.5906 Y143.94 E2.14817 F1800 ; Print pattern wall
G1 X106.3231 Y161.2075 E2.14817 F1800 ; Print pattern wall
G1 E-0.75 F3000 ; Retract
G1 Z0.75 F7200 ; Z hop
G0 X109.2231 Y126.6725 F7200 ; Move to next pattern
G1 Z0.25 F7200 ; Z hop return
G1 E0.75 F1800 ; Un-retract
SET_PRESSURE_ADVANCE ADVANCE=0.01 ; Set pressure advance
M117 PA 0.01
G1 X126.4906 Y143.94 E2.14817 F1800 ; Print pattern wall
G1 X109.2231 Y161.2075 E2.14817 F1800 ; Print pattern wall
G1 E-0.75 F3000 ; Retract
G1 Z0.75 F7200 ; Z hop
G0 X110.4352 Y126.6725 F7200 ; Move to start next pattern wall
G1 Z0.25 F7200 ; Z hop return
G1 E0.75 F1800 ; Un-retract
G1 X127.7027 Y143.94 E2.14817 F1800 ; Print pattern wall
G1 X110.4352 Y161.2075 E2.14817 F1800 ; Print pattern wall
G1 E-0.75 F3000 ; Retract
G1 Z0.75 F7200 ; Z hop
G0 X111.6473 Y126.6725 F7200 ; Move to start next pattern wall
G1 Z0.25 F7200 ; Z hop return
G1 E0.75 F1800 ; Un-retract
G1 X128.9148 Y143.94 E2.14817 F1800 ; Print pattern wall
G1 X111.6473 Y161.2075 E2.14817 F1800 ; Print pattern wall
G1 E-0.75 F3000 ; Retract
G1 Z0.75 F7200 ; Z hop
G0 X114.5473 Y126.6725 F7200 ; Move to next pattern
G1 Z0.25 F7200 ; Z hop return
G1 E0.75 F1800 ; Un-retract
SET_PRESSURE_ADVANCE ADVANCE=0.015 ; Set pressure advance
M117 PA 0.015
G1 X131.8148 Y143.94 E2.14817 F1800 ; Print pattern wall
G1 X114.5473 Y161.2075 E2.14817 F1800 ; Print pattern wall
G1 E-0.75 F3000 ; Retract
G1 Z0.75 F7200 ; Z hop
G0 X115.7594 Y126.6725 F7200 ; Move to start next pattern wall
G1 Z0.25 F7200 ; Z hop return
G1 E0.75 F1800 ; Un-retract
G1 X133.0269 Y143.94 E2.14817 F1800 ; Print pattern wall
G1 X115.7594 Y161.2075 E2.14817 F1800 ; Print pattern wall
G1 E-0.75 F3000 ; Retract
G1 Z0.75 F7200 ; Z hop
G0 X116.9715 Y126.6725 F7200 ; Move to start next pattern wall
G1 Z0.25 F7200 ; Z hop return
G1 E0.75 F1800 ; Un-retract
G1 X134.239 Y143.94 E2.14817 F1800 ; Print pattern wall
G1 X116.9715 Y161.2075 E2.14817 F1800 ; Print pattern wall
G1 E-0.75 F3000 ; Retract
G1 Z0.75 F7200 ; Z hop
G0 X119.8715 Y126.6725 F7200 ; Move to next pattern
G1 Z0.25 F7200 ; Z hop return
G1 E0.75 F1800 ; Un-retract
SET_PRESSURE_ADVANCE ADVANCE=0.02 ; Set pressure advance
M117 PA 0.02
G1 X137.139 Y143.94 E2.14817 F1800 ; Print pattern wall
G1 X119.8715 Y161.2075 E2.14817 F1800 ; Print pattern wall
G1 E-0.75 F3000 ; Retract
G1 Z0.75 F7200 ; Z hop
G0 X121.0836 Y126.6725 F7200 ; Move to start next pattern wall
G1 Z0.25 F7200 ; Z hop return
G1 E0.75 F1800 ; Un-retract
G1 X138.3511 Y143.94 E2.14817 F1800 ; Print pattern wall
G1 X121.0836 Y161.2075 E2.14817 F1800 ; Print pattern wall
G1 E-0.75 F3000 ; Retract
G1 Z0.75 F7200 ; Z hop
G0 X122.2957 Y126.6725 F7200 ; Move to start next pattern wall
G1 Z0.25 F7200 ; Z hop return
G1 E0.75 F1800 ; Un-retract
G1 X139.5632 Y143.94 E2.14817 F1800 ; Print pattern wall
G1 X122.2957 Y161.2075 E2.14817 F1800 ; Print pattern wall
G1 E-0.75 F3000 ; Retract
G1 Z0.75 F7200 ; Z hop
G0 X125.1957 Y126.6725 F7200 ; Move to next pattern
G1 Z0.25 F7200 ; Z hop return
G1 E0.75 F1800 ; Un-retract
SET_PRESSURE_ADVANCE ADVANCE=0.025 ; Set pressure advance
M117 PA 0.025
G1 X142.4632 Y143.94 E2.14817 F1800 ; Print pattern wall
G1 X125.1957 Y161.2075 E2.14817 F1800 ; Print pattern wall
G1 E-0.75 F3000 ; Retract
G1 Z0.75 F7200 ; Z hop
G0 X126.4078 Y126.6725 F7200 ; Move to start next pattern wall
G1 Z0.25 F7200 ; Z hop return
G1 E0.75 F1800 ; Un-retract
G1 X143.6753 Y143.94 E2.14817 F1800 ; Print pattern wall
G1 X126.4078 Y161.2075 E2.14817 F1800 ; Print pattern wall
G1 E-0.75 F3000 ; Retract
G1 Z0.75 F7200 ; Z hop
G0 X127.6199 Y126.6725 F7200 ; Move to start next pattern wall
G1 Z0.25 F7200 ; Z hop return
G1 E0.75 F1800 ; Un-retract
G1 X144.8874 Y143.94 E2.14817 F1800 ; Print pattern wall
G1 X127.6199 Y161.2075 E2.14817 F1800 ; Print pattern wall
G1 E-0.75 F3000 ; Retract
G1 Z0.75 F7200 ; Z hop
G0 X130.5199 Y126.6725 F7200 ; Move to next pattern
G1 Z0.25 F7200 ; Z hop return
G1 E0.75 F1800 ; Un-retract
SET_PRESSURE_ADVANCE ADVANCE=0.03 ; Set pressure advance
M117 PA 0.03
G1 X147.7874 Y143.94 E2.14817 F1800 ; Print pattern wall
G1 X130.5199 Y161.2075 E2.14817 F1800 ; Print pattern wall
G1 E-0.75 F3000 ; Retract
G1 Z0.75 F7200 ; Z hop
G0 X131.732 Y126.6725 F7200 ; Move to start next pattern wall
G1 Z0.25 F7200 ; Z hop return
G1 E0.75 F1800 ; Un-retract
G1 X148.9995 Y143.94 E2.14817 F1800 ; Print pattern wall
G1 X131.732 Y161.2075 E2.14817 F1800 ; Print pattern wall
G1 E-0.75 F3000 ; Retract
G1 Z0.75 F7200 ; Z hop
G0 X132.9441 Y126.6725 F7200 ; Move to start next pattern wall
G1 Z0.25 F7200 ; Z hop return
G1 E0.75 F1800 ; Un-retract
G1 X150.2116 Y143.94 E2.14817 F1800 ; Print pattern wall
G1 X132.9441 Y161.2075 E2.14817 F1800 ; Print pattern wall
G1 E-0.75 F3000 ; Retract
G1 Z0.75 F7200 ; Z hop
G0 X135.8441 Y126.6725 F7200 ; Move to next pattern
G1 Z0.25 F7200 ; Z hop return
G1 E0.75 F1800 ; Un-retract
SET_PRESSURE_ADVANCE ADVANCE=0.035 ; Set pressure advance
M117 PA 0.035
G1 X153.1116 Y143.94 E2.14817 F1800 ; Print pattern wall
G1 X135.8441 Y161.2075 E2.14817 F1800 ; Print pattern wall
G1 E-0.75 F3000 ; Retract
G1 Z0.75 F7200 ; Z hop
G0 X137.0562 Y126.6725 F7200 ; Move to start next pattern wall
G1 Z0.25 F7200 ; Z hop return
G1 E0.75 F1800 ; Un-retract
G1 X154.3237 Y143.94 E2.14817 F1800 ; Print pattern wall
G1 X137.0562 Y161.2075 E2.14817 F1800 ; Print pattern wall
G1 E-0.75 F3000 ; Retract
G1 Z0.75 F7200 ; Z hop
G0 X138.2683 Y126.6725 F7200 ; Move to start next pattern wall
G1 Z0.25 F7200 ; Z hop return
G1 E0.75 F1800 ; Un-retract
G1 X155.5358 Y143.94 E2.14817 F1800 ; Print pattern wall
G1 X138.2683 Y161.2075 E2.14817 F1800 ; Print pattern wall
G1 E-0.75 F3000 ; Retract
G1 Z0.75 F7200 ; Z hop
G0 X141.1683 Y126.6725 F7200 ; Move to next pattern
G1 Z0.25 F7200 ; Z hop return
G1 E0.75 F1800 ; Un-retract
SET_PRESSURE_ADVANCE ADVANCE=0.04 ; Set pressure advance
M117 PA 0.04
G1 X158.4358 Y143.94 E2.14817 F1800 ; Print pattern wall
G1 X141.1683 Y161.2075 E2.14817 F1800 ; Print pattern wall
G1 E-0.75 F3000 ; Retract
G1 Z0.75 F7200 ; Z hop
G0 X142.3804 Y126.6725 F7200 ; Move to start next pattern wall
G1 Z0.25 F7200 ; Z hop return
G1 E0.75 F1800 ; Un-retract
G1 X159.6478 Y143.94 E2.14817 F1800 ; Print pattern wall
G1 X142.3804 Y161.2075 E2.14817 F1800 ; Print pattern wall
G1 E-0.75 F3000 ; Retract
G1 Z0.75 F7200 ; Z hop
G0 X143.5925 Y126.6725 F7200 ; Move to start next pattern wall
G1 Z0.25 F7200 ; Z hop return
G1 E0.75 F1800 ; Un-retract
G1 X160.8599 Y143.94 E2.14817 F1800 ; Print pattern wall
G1 X143.5925 Y161.2075 E2.14817 F1800 ; Print pattern wall
G1 E-0.75 F3000 ; Retract
G1 Z0.75 F7200 ; Z hop
G0 X146.4925 Y126.6725 F7200 ; Move to next pattern
G1 Z0.25 F7200 ; Z hop return
G1 E0.75 F1800 ; Un-retract
SET_PRESSURE_ADVANCE ADVANCE=0.045 ; Set pressure advance
M117 PA 0.045
G1 X163.7599 Y143.94 E2.14817 F1800 ; Print pattern wall
G1 X146.4925 Y161.2075 E2.14817 F1800 ; Print pattern wall
G1 E-0.75 F3000 ; Retract
G1 Z0.75 F7200 ; Z hop
G0 X147.7045 Y126.6725 F7200 ; Move to start next pattern wall
G1 Z0.25 F7200 ; Z hop return
G1 E0.75 F1800 ; Un-retract
G1 X164.972 Y143.94 E2.14817 F1800 ; Print pattern wall
G1 X147.7045 Y161.2075 E2.14817 F1800 ; Print pattern wall
G1 E-0.75 F3000 ; Retract
G1 Z0.75 F7200 ; Z hop
G0 X148.9166 Y126.6725 F7200 ; Move to start next pattern wall
G1 Z0.25 F7200 ; Z hop return
G1 E0.75 F1800 ; Un-retract
G1 X166.1841 Y143.94 E2.14817 F1800 ; Print pattern wall
G1 X148.9166 Y161.2075 E2.14817 F1800 ; Print pattern wall
G1 E-0.75 F3000 ; Retract
G1 Z0.75 F7200 ; Z hop
G0 X151.8166 Y126.6725 F7200 ; Move to next pattern
G1 Z0.25 F7200 ; Z hop return
G1 E0.75 F1800 ; Un-retract
SET_PRESSURE_ADVANCE ADVANCE=0.05 ; Set pressure advance
M117 PA 0.05
G1 X169.0841 Y143.94 E2.14817 F1800 ; Print pattern wall
G1 X151.8166 Y161.2075 E2.14817 F1800 ; Print pattern wall
G1 E-0.75 F3000 ; Retract
G1 Z0.75 F7200 ; Z hop
G0 X153.0287 Y126.6725 F7200 ; Move to start next pattern wall
G1 Z0.25 F7200 ; Z hop return
G1 E0.75 F1800 ; Un-retract
G1 X170.2962 Y143.94 E2.14817 F1800 ; Print pattern wall
G1 X153.0287 Y161.2075 E2.14817 F1800 ; Print pattern wall
G1 E-0.75 F3000 ; Retract
G1 Z0.75 F7200 ; Z hop
G0 X154.2408 Y126.6725 F7200 ; Move to start next pattern wall
G1 Z0.25 F7200 ; Z hop return
G1 E0.75 F1800 ; Un-retract
G1 X171.5083 Y143.94 E2.14817 F1800 ; Print pattern wall
G1 X154.2408 Y161.2075 E2.14817 F1800 ; Print pattern wall
G1 E-0.75 F3000 ; Retract
G1 Z0.75 F7200 ; Z hop
G0 X157.1408 Y126.6725 F7200 ; Move to next pattern
G1 Z0.25 F7200 ; Z hop return
G1 E0.75 F1800 ; Un-retract
SET_PRESSURE_ADVANCE ADVANCE=0.055 ; Set pressure advance
M117 PA 0.055
G1 X174.4083 Y143.94 E2.14817 F1800 ; Print pattern wall
G1 X157.1408 Y161.2075 E2.14817 F1800 ; Print pattern wall
G1 E-0.75 F3000 ; Retract
G1 Z0.75 F7200 ; Z hop
G0 X158.3529 Y126.6725 F7200 ; Move to start next pattern wall
G1 Z0.25 F7200 ; Z hop return
G1 E0.75 F1800 ; Un-retract
G1 X175.6204 Y143.94 E2.14817 F1800 ; Print pattern wall
G1 X158.3529 Y161.2075 E2.14817 F1800 ; Print pattern wall
G1 E-0.75 F3000 ; Retract
G1 Z0.75 F7200 ; Z hop
G0 X159.565 Y126.6725 F7200 ; Move to start next pattern wall
G1 Z0.25 F7200 ; Z hop return
G1 E0.75 F1800 ; Un-retract
G1 X176.8325 Y143.94 E2.14817 F1800 ; Print pattern wall
G1 X159.565 Y161.2075 E2.14817 F1800 ; Print pattern wall
G1 E-0.75 F3000 ; Retract
G1 Z0.75 F7200 ; Z hop
G0 X162.465 Y126.6725 F7200 ; Move to next pattern
G1 Z0.25 F7200 ; Z hop return
G1 E0.75 F1800 ; Un-retract
SET_PRESSURE_ADVANCE ADVANCE=0.06 ; Set pressure advance
M117 PA 0.06
G1 X179.7325 Y143.94 E2.14817 F1800 ; Print pattern wall
G1 X162.465 Y161.2075 E2.14817 F1800 ; Print pattern wall
G1 E-0.75 F3000 ; Retract
G1 Z0.75 F7200 ; Z hop
G0 X163.6771 Y126.6725 F7200 ; Move to start next pattern wall
G1 Z0.25 F7200 ; Z hop return
G1 E0.75 F1800 ; Un-retract
G1 X180.9446 Y143.94 E2.14817 F1800 ; Print pattern wall
G1 X163.6771 Y161.2075 E2.14817 F1800 ; Print pattern wall
G1 E-0.75 F3000 ; Retract
G1 Z0.75 F7200 ; Z hop
G0 X164.8892 Y126.6725 F7200 ; Move to start next pattern wall
G1 Z0.25 F7200 ; Z hop return
G1 E0.75 F1800 ; Un-retract
G1 X182.1567 Y143.94 E2.14817 F1800 ; Print pattern wall
G1 X164.8892 Y161.2075 E2.14817 F1800 ; Print pattern wall
G1 E-0.75 F3000 ; Retract
G1 Z0.75 F7200 ; Z hop
G0 X167.7892 Y126.6725 F7200 ; Move to next pattern
G1 Z0.25 F7200 ; Z hop return
G1 E0.75 F1800 ; Un-retract
SET_PRESSURE_ADVANCE ADVANCE=0.065 ; Set pressure advance
M117 PA 0.065
G1 X185.0567 Y143.94 E2.14817 F1800 ; Print pattern wall
G1 X167.7892 Y161.2075 E2.14817 F1800 ; Print pattern wall
G1 E-0.75 F3000 ; Retract
G1 Z0.75 F7200 ; Z hop
G0 X169.0013 Y126.6725 F7200 ; Move to start next pattern wall
G1 Z0.25 F7200 ; Z hop return
G1 E0.75 F1800 ; Un-retract
G1 X186.2688 Y143.94 E2.14817 F1800 ; Print pattern wall
G1 X169.0013 Y161.2075 E2.14817 F1800 ; Print pattern wall
G1 E-0.75 F3000 ; Retract
G1 Z0.75 F7200 ; Z hop
G0 X170.2134 Y126.6725 F7200 ; Move to start next pattern wall
G1 Z0.25 F7200 ; Z hop return
G1 E0.75 F1800 ; Un-retract
G1 X187.4809 Y143.94 E2.14817 F1800 ; Print pattern wall
G1 X170.2134 Y161.2075 E2.14817 F1800 ; Print pattern wall
G1 E-0.75 F3000 ; Retract
G1 Z0.75 F7200 ; Z hop
G0 X173.1134 Y126.6725 F7200 ; Move to next pattern
G1 Z0.25 F7200 ; Z hop return
G1 E0.75 F1800 ; Un-retract
SET_PRESSURE_ADVANCE ADVANCE=0.07 ; Set pressure advance
M117 PA 0.07
G1 X190.3809 Y143.94 E2.14817 F1800 ; Print pattern wall
G1 X173.1134 Y161.2075 E2.14817 F1800 ; Print pattern wall
G1 E-0.75 F3000 ; Retract
G1 Z0.75 F7200 ; Z hop
G0 X174.3255 Y126.6725 F7200 ; Move to start next pattern wall
G1 Z0.25 F7200 ; Z hop return
G1 E0.75 F1800 ; Un-retract
G1 X191.593 Y143.94 E2.14817 F1800 ; Print pattern wall
G1 X174.3255 Y161.2075 E2.14817 F1800 ; Print pattern wall
G1 E-0.75 F3000 ; Retract
G1 Z0.75 F7200 ; Z hop
G0 X175.5376 Y126.6725 F7200 ; Move to start next pattern wall
G1 Z0.25 F7200 ; Z hop return
G1 E0.75 F1800 ; Un-retract
G1 X192.8051 Y143.94 E2.14817 F1800 ; Print pattern wall
G1 X175.5376 Y161.2075 E2.14817 F1800 ; Print pattern wall
G1 E-0.75 F3000 ; Retract
G1 Z0.75 F7200 ; Z hop
G0 X178.4376 Y126.6725 F7200 ; Move to next pattern
G1 Z0.25 F7200 ; Z hop return
G1 E0.75 F1800 ; Un-retract
SET_PRESSURE_ADVANCE ADVANCE=0.075 ; Set pressure advance
M117 PA 0.075
G1 X195.7051 Y143.94 E2.14817 F1800 ; Print pattern wall
G1 X178.4376 Y161.2075 E2.14817 F1800 ; Print pattern wall
G1 E-0.75 F3000 ; Retract
G1 Z0.75 F7200 ; Z hop
G0 X179.6497 Y126.6725 F7200 ; Move to start next pattern wall
G1 Z0.25 F7200 ; Z hop return
G1 E0.75 F1800 ; Un-retract
G1 X196.9172 Y143.94 E2.14817 F1800 ; Print pattern wall
G1 X179.6497 Y161.2075 E2.14817 F1800 ; Print pattern wall
G1 E-0.75 F3000 ; Retract
G1 Z0.75 F7200 ; Z hop
G0 X180.8618 Y126.6725 F7200 ; Move to start next pattern wall
G1 Z0.25 F7200 ; Z hop return
G1 E0.75 F1800 ; Un-retract
G1 X198.1293 Y143.94 E2.14817 F1800 ; Print pattern wall
G1 X180.8618 Y161.2075 E2.14817 F1800 ; Print pattern wall
G1 E-0.75 F3000 ; Retract
G1 Z0.75 F7200 ; Z hop
G0 X183.7618 Y126.6725 F7200 ; Move to next pattern
G1 Z0.25 F7200 ; Z hop return
G1 E0.75 F1800 ; Un-retract
SET_PRESSURE_ADVANCE ADVANCE=0.08 ; Set pressure advance
M117 PA 0.08
G1 X201.0293 Y143.94 E2.14817 F1800 ; Print pattern wall
G1 X183.7618 Y161.2075 E2.14817 F1800 ; Print pattern wall
G1 E-0.75 F3000 ; Retract
G1 Z0.75 F7200 ; Z hop
G0 X184.9739 Y126.6725 F7200 ; Move to start next pattern wall
G1 Z0.25 F7200 ; Z hop return
G1 E0.75 F1800 ; Un-retract
G1 X202.2413 Y143.94 E2.14817 F1800 ; Print pattern wall
G1 X184.9739 Y161.2075 E2.14817 F1800 ; Print pattern wall
G1 E-0.75 F3000 ; Retract
G1 Z0.75 F7200 ; Z hop
G0 X186.186 Y126.6725 F7200 ; Move to start next pattern wall
G1 Z0.25 F7200 ; Z hop return
G1 E0.75 F1800 ; Un-retract
G1 X203.4534 Y143.94 E2.14817 F1800 ; Print pattern wall
G1 X186.186 Y161.2075 E2.14817 F1800 ; Print pattern wall
G1 E-0.75 F3000 ; Retract
G1 Z0.75 F7200 ; Z hop
G0 X98.5748 Y126.6725 F7200 ; Move back to start position
G1 Z0.25 F7200 ; Z hop return
G1 E0.75 F1800 ; Un-retract
M106 S0 ; Set fan speed
G0 Z0.45 F7200 ; Move to layer height
SET_PRESSURE_ADVANCE ADVANCE=0 ; Set pressure advance to start value for numbering
M117 PA 0
G1 E-0.75 F3000 ; Retract
G1 Z0.95 F7200 ; Z hop
G0 X93.8411 Y167.0532 F7200 ; Move
G1 Z0.45 F7200 ; Z hop return
G1 E0.75 F1800 ; Un-retract
G1 X95.8411 Y167.0532 E0.14253 F1800 ; Glyph: 0
G1 X97.8411 Y167.0532 E0.14253 F1800 ; Glyph: 0
G1 X97.8411 Y169.0532 E0.14253 F1800 ; Glyph: 0
G1 X95.8411 Y169.0532 E0.14253 F1800 ; Glyph: 0
G1 X93.8411 Y169.0532 E0.14253 F1800 ; Glyph: 0
G1 X93.8411 Y167.0532 E0.14253 F1800 ; Glyph: 0
G1 E-0.75 F3000 ; Retract
G1 Z0.95 F7200 ; Z hop
G0 X104.4895 Y167.0532 F7200 ; Move
G1 Z0.45 F7200 ; Z hop return
G1 E0.75 F1800 ; Un-retract
G1 X106.4895 Y167.0532 E0.14253 F1800 ; Glyph: 0
G1 X108.4895 Y167.0532 E0.14253 F1800 ; Glyph: 0
G1 X108.4895 Y169.0532 E0.14253 F1800 ; Glyph: 0
G1 X106.4895 Y169.0532 E0.14253 F1800 ; Glyph: 0
G1 X104.4895 Y169.0532 E0.14253 F1800 ; Glyph: 0
G1 X104.4895 Y167.0532 E0.14253 F1800 ; Glyph: 0
G1 E-0.75 F3000 ; Retract
G1 Z0.95 F7200 ; Z hop
G0 X108.4895 Y170.0532 F7200 ; Move
G1 Z0.45 F7200 ; Z hop return
G1 E0.75 F1800 ; Un-retract
G1 X107.7395 Y170.0532 E0.05345 F1800 ; Glyph: .
G1 E-0.75 F3000 ; Retract
G1 Z0.95 F7200 ; Z hop
G0 X104.4895 Y171.0532 F7200 ; Move
G1 Z0.45 F7200 ; Z hop return
G1 E0.75 F1800 ; Un-retract
G1 X106.4895 Y171.0532 E0.14253 F1800 ; Glyph: 0
G1 X108.4895 Y171.0532 E0.14253 F1800 ; Glyph: 0
G1 X108.4895 Y173.0532 E0.14253 F1800 ; Glyph: 0
G1 X106.4895 Y173.0532 E0.14253 F1800 ; Glyph: 0
G1 X104.4895 Y173.0532 E0.14253 F1800 ; Glyph: 0
G1 X104.4895 Y171.0532 E0.14253 F1800 ; Glyph: 0
G1 E-0.75 F3000 ; Retract
G1 Z0.95 F7200 ; Z hop
G0 X104.4895 Y174.0532 F7200 ; Move
G1 Z0.45 F7200 ; Z hop return
G1 E0.75 F1800 ; Un-retract
G1 X106.4895 Y174.0532 E0.14253 F1800 ; Glyph: 1
G1 X108.4895 Y174.0532 E0.14253 F1800 ; Glyph: 1
G1 E-0.75 F3000 ; Retract
G1 Z0.95 F7200 ; Z hop
G0 X115.1379 Y167.0532 F7200 ; Move
G1 Z0.45 F7200 ; Z hop return
G1 E0.75 F1800 ; Un-retract
G1 X117.1379 Y167.0532 E0.14253 F1800 ; Glyph: 0
G1 X119.1379 Y167.0532 E0.14253 F1800 ; Glyph: 0
G1 X119.1379 Y169.0532 E0.14253 F1800 ; Glyph: 0
G1 X117.1379 Y169.0532 E0.14253 F1800 ; Glyph: 0
G1 X115.1379 Y169.0532 E0.14253 F1800 ; Glyph: 0
G1 X115.1379 Y167.0532 E0.14253 F1800 ; Glyph: 0
G1 E-0.75 F3000 ; Retract
G1 Z0.95 F7200 ; Z hop
G0 X119.1379 Y170.0532 F7200 ; Move
G1 Z0.45 F7200 ; Z hop return
G1 E0.75 F1800 ; Un-retract
G1 X118.3879 Y170.0532 E0.05345 F1800 ; Glyph: .
G1 E-0.75 F3000 ; Retract
G1 Z0.95 F7200 ; Z hop
G0 X115.1379 Y171.0532 F7200 ; Move
G1 Z0.45 F7200 ; Z hop return
G1 E0.75 F1800 ; Un-retract
G1 X117.1379 Y171.0532 E0.14253 F1800 ; Glyph: 0
G1 X119.1379 Y171.0532 E0.14253 F1800 ; Glyph: 0
G1 X119.1379 Y173.0532 E0.14253 F1800 ; Glyph: 0
G1 X117.1379 Y173.0532 E0.14253 F1800 ; Glyph: 0
G1 X115.1379 Y173.0532 E0.14253 F1800 ; Glyph: 0
G1 X115.1379 Y171.0532 E0.14253 F1800 ; Glyph: 0
G1 E-0.75 F3000 ; Retract
G1 Z0.95 F7200 ; Z hop
G0 X115.1379 Y174.0532 F7200 ; Move
G1 Z0.45 F7200 ; Z hop return
G1 E0.75 F1800 ; Un-retract
G1 X115.1379 Y176.0532 E0.14253 F1800 ; Glyph: 2
G1 X117.1379 Y176.0532 E0.14253 F1800 ; Glyph: 2
G1 X117.1379 Y174.0532 E0.14253 F1800 ; Glyph: 2
G1 X119.1379 Y174.0532 E0.14253 F1800 ; Glyph: 2
G1 X119.1379 Y176.0532 E0.14253 F1800 ; Glyph: 2
G1 E-0.75 F3000 ; Retract
G1 Z0.95 F7200 ; Z hop
G0 X125.7863 Y167.0532 F7200 ; Move
G1 Z0.45 F7200 ; Z hop return
G1 E0.75 F1800 ; Un-retract
G1 X127.7863 Y167.0532 E0.14253 F1800 ; Glyph: 0
G1 X129.7863 Y167.0532 E0.14253 F1800 ; Glyph: 0
G1 X129.7863 Y169.0532 E0.14253 F1800 ; Glyph: 0
G1 X127.7863 Y169.0532 E0.14253 F1800 ; Glyph: 0
G1 X125.7863 Y169.0532 E0.14253 F1800 ; Glyph: 0
G1 X125.7863 Y167.0532 E0.14253 F1800 ; Glyph: 0
G1 E-0.75 F3000 ; Retract
G1 Z0.95 F7200 ; Z hop
G0 X129.7863 Y170.0532 F7200 ; Move
G1 Z0.45 F7200 ; Z hop return
G1 E0.75 F1800 ; Un-retract
G1 X129.0363 Y170.0532 E0.05345 F1800 ; Glyph: .
G1 E-0.75 F3000 ; Retract
G1 Z0.95 F7200 ; Z hop
G0 X125.7863 Y171.0532 F7200 ; Move
G1 Z0.45 F7200 ; Z hop return
G1 E0.75 F1800 ; Un-retract
G1 X127.7863 Y171.0532 E0.14253 F1800 ; Glyph: 0
G1 X129.7863 Y171.0532 E0.14253 F1800 ; Glyph: 0
G1 X129.7863 Y173.0532 E0.14253 F1800 ; Glyph: 0
G1 X127.7863 Y173.0532 E0.14253 F1800 ; Glyph: 0
G1 X125.7863 Y173.0532 E0.14253 F1800 ; Glyph: 0
G1 X125.7863 Y171.0532 E0.14253 F1800 ; Glyph: 0
G1 E-0.75 F3000 ; Retract
G1 Z0.95 F7200 ; Z hop
G0 X125.7863 Y174.0532 F7200 ; Move
G1 Z0.45 F7200 ; Z hop return
G1 E0.75 F1800 ; Un-retract
G1 X125.7863 Y176.0532 E0.14253 F1800 ; Glyph: 3
G1 X127.7863 Y176.0532 E0.14253 F1800 ; Glyph: 3
G1 X127.7863 Y174.0532 E0.14253 F1800 ; Glyph: 3
G0 X127.7863 Y176.0532 F7200 ; Move
G1 X129.7863 Y176.0532 E0.14253 F1800 ; Glyph: 3
G1 X129.7863 Y174.0532 E0.14253 F1800 ; Glyph: 3
G1 E-0.75 F3000 ; Retract
G1 Z0.95 F7200 ; Z hop
G0 X136.4346 Y167.0532 F7200 ; Move
G1 Z0.45 F7200 ; Z hop return
G1 E0.75 F1800 ; Un-retract
G1 X138.4346 Y167.0532 E0.14253 F1800 ; Glyph: 0
G1 X140.4346 Y167.0532 E0.14253 F1800 ; Glyph: 0
G1 X140.4346 Y169.0532 E0.14253 F1800 ; Glyph: 0
G1 X138.4346 Y169.0532 E0.14253 F1800 ; Glyph: 0
G1 X136.4346 Y169.0532 E0.14253 F1800 ; Glyph: 0
G1 X136.4346 Y167.0532 E0.14253 F1800 ; Glyph: 0
G1 E-0.75 F3000 ; Retract
G1 Z0.95 F7200 ; Z hop
G0 X140.4346 Y170.0532 F7200 ; Move
G1 Z0.45 F7200 ; Z hop return
G1 E0.75 F1800 ; Un-retract
G1 X139.6846 Y170.0532 E0.05345 F1800 ; Glyph: .
G1 E-0.75 F3000 ; Retract
G1 Z0.95 F7200 ; Z hop
G0 X136.4346 Y171.0532 F7200 ; Move
G1 Z0.45 F7200 ; Z hop return
G1 E0.75 F1800 ; Un-retract
G1 X138.4346 Y171.0532 E0.14253 F1800 ; Glyph: 0
G1 X140.4346 Y171.0532 E0.14253 F1800 ; Glyph: 0
G1 X140.4346 Y173.0532 E0.14253 F1800 ; Glyph: 0
G1 X138.4346 Y173.0532 E0.14253 F1800 ; Glyph: 0
G1 X136.4346 Y173.0532 E0.14253 F1800 ; Glyph: 0
G1 X136.4346 Y171.0532 E0.14253 F1800 ; Glyph: 0
G1 E-0.75 F3000 ; Retract
G1 Z0.95 F7200 ; Z hop
G0 X136.4346 Y176.0532 F7200 ; Move
G1 Z0.45 F7200 ; Z hop return
G1 E0.75 F1800 ; Un-retract
G1 X138.4346 Y176.0532 E0.14253 F1800 ; Glyph: 4
G1 X140.4346 Y176.0532 E0.14253 F1800 ; Glyph: 4
G0 X138.4346 Y176.0532 F7200 ; Move
G1 X138.4346 Y174.0532 E0.14253 F1800 ; Glyph: 4
G1 X136.4346 Y174.0532 E0.14253 F1800 ; Glyph: 4
G1 E-0.75 F3000 ; Retract
G1 Z0.95 F7200 ; Z hop
G0 X147.083 Y167.0532 F7200 ; Move
G1 Z0.45 F7200 ; Z hop return
G1 E0.75 F1800 ; Un-retract
G1 X149.083 Y167.0532 E0.14253 F1800 ; Glyph: 0
G1 X151.083 Y167.0532 E0.14253 F1800 ; Glyph: 0
G1 X151.083 Y169.0532 E0.14253 F1800 ; Glyph: 0
G1 X149.083 Y169.0532 E0.14253 F1800 ; Glyph: 0
G1 X147.083 Y169.0532 E0.14253 F1800 ; Glyph: 0
G1 X147.083 Y167.0532 E0.14253 F1800 ; Glyph: 0
G1 E-0.75 F3000 ; Retract
G1 Z0.95 F7200 ; Z hop
G0 X151.083 Y170.0532 F7200 ; Move
G1 Z0.45 F7200 ; Z hop return
G1 E0.75 F1800 ; Un-retract
G1 X150.333 Y170.0532 E0.05345 F1800 ; Glyph: .
G1 E-0.75 F3000 ; Retract
G1 Z0.95 F7200 ; Z hop
G0 X147.083 Y171.0532 F7200 ; Move
G1 Z0.45 F7200 ; Z hop return
G1 E0.75 F1800 ; Un-retract
G1 X149.083 Y171.0532 E0.14253 F1800 ; Glyph: 0
G1 X151.083 Y171.0532 E0.14253 F1800 ; Glyph: 0
G1 X151.083 Y173.0532 E0.14253 F1800 ; Glyph: 0
G1 X149.083 Y173.0532 E0.14253 F1800 ; Glyph: 0
G1 X147.083 Y173.0532 E0.14253 F1800 ; Glyph: 0
G1 X147.083 Y171.0532 E0.14253 F1800 ; Glyph: 0
G1 E-0.75 F3000 ; Retract
G1 Z0.95 F7200 ; Z hop
G0 X147.083 Y176.0532 F7200 ; Move
G1 Z0.45 F7200 ; Z hop return
G1 E0.75 F1800 ; Un-retract
G1 X147.083 Y174.0532 E0.14253 F1800 ; Glyph: 5
G1 X149.083 Y174.0532 E0.14253 F1800 ; Glyph: 5
G1 X149.083 Y176.0532 E0.14253 F1800 ; Glyph: 5
G1 X151.083 Y176.0532 E0.14253 F1800 ; Glyph: 5
G1 X151.083 Y174.0532 E0.14253 F1800 ; Glyph: 5
G1 E-0.75 F3000 ; Retract
G1 Z0.95 F7200 ; Z hop
G0 X157.7314 Y167.0532 F7200 ; Move
G1 Z0.45 F7200 ; Z hop return
G1 E0.75 F1800 ; Un-retract
G1 X159.7314 Y167.0532 E0.14253 F1800 ; Glyph: 0
G1 X161.7314 Y167.0532 E0.14253 F1800 ; Glyph: 0
G1 X161.7314 Y169.0532 E0.14253 F1800 ; Glyph: 0
G1 X159.7314 Y169.0532 E0.14253 F1800 ; Glyph: 0
G1 X157.7314 Y169.0532 E0.14253 F1800 ; Glyph: 0
G1 X157.7314 Y167.0532 E0.14253 F1800 ; Glyph: 0
G1 E-0.75 F3000 ; Retract
G1 Z0.95 F7200 ; Z hop
G0 X161.7314 Y170.0532 F7200 ; Move
G1 Z0.45 F7200 ; Z hop return
G1 E0.75 F1800 ; Un-retract
G1 X160.9814 Y170.0532 E0.05345 F1800 ; Glyph: .
G1 E-0.75 F3000 ; Retract
G1 Z0.95 F7200 ; Z hop
G0 X157.7314 Y171.0532 F7200 ; Move
G1 Z0.45 F7200 ; Z hop return
G1 E0.75 F1800 ; Un-retract
G1 X159.7314 Y171.0532 E0.14253 F1800 ; Glyph: 0
G1 X161.7314 Y171.0532 E0.14253 F1800 ; Glyph: 0
G1 X161.7314 Y173.0532 E0.14253 F1800 ; Glyph: 0
G1 X159.7314 Y173.0532 E0.14253 F1800 ; Glyph: 0
G1 X157.7314 Y173.0532 E0.14253 F1800 ; Glyph: 0
G1 X157.7314 Y171.0532 E0.14253 F1800 ; Glyph: 0
G1 E-0.75 F3000 ; Retract
G1 Z0.95 F7200 ; Z hop
G0 X157.7314 Y176.0532 F7200 ; Move
G1 Z0.45 F7200 ; Z hop return
G1 E0.75 F1800 ; Un-retract
G1 X157.7314 Y174.0532 E0.14253 F1800 ; Glyph: 6
G1 X159.7314 Y174.0532 E0.14253 F1800 ; Glyph: 6
G1 X161.7314 Y174.0532 E0.14253 F1800 ; Glyph: 6
G1 X161.7314 Y176.0532 E0.14253 F1800 ; Glyph: 6
G1 X159.7314 Y176.0532 E0.14253 F1800 ; Glyph: 6
G1 X159.7314 Y174.0532 E0.14253 F1800 ; Glyph: 6
G1 E-0.75 F3000 ; Retract
G1 Z0.95 F7200 ; Z hop
G0 X168.3798 Y167.0532 F7200 ; Move
G1 Z0.45 F7200 ; Z hop return
G1 E0.75 F1800 ; Un-retract
G1 X170.3798 Y167.0532 E0.14253 F1800 ; Glyph: 0
G1 X172.3798 Y167.0532 E0.14253 F1800 ; Glyph: 0
G1 X172.3798 Y169.0532 E0.14253 F1800 ; Glyph: 0
G1 X170.3798 Y169.0532 E0.14253 F1800 ; Glyph: 0
G1 X168.3798 Y169.0532 E0.14253 F1800 ; Glyph: 0
G1 X168.3798 Y167.0532 E0.14253 F1800 ; Glyph: 0
G1 E-0.75 F3000 ; Retract
G1 Z0.95 F7200 ; Z hop
G0 X172.3798 Y170.0532 F7200 ; Move
G1 Z0.45 F7200 ; Z hop return
G1 E0.75 F1800 ; Un-retract
G1 X171.6298 Y170.0532 E0.05345 F1800 ; Glyph: .
G1 E-0.75 F3000 ; Retract
G1 Z0.95 F7200 ; Z hop
G0 X168.3798 Y171.0532 F7200 ; Move
G1 Z0.45 F7200 ; Z hop return
G1 E0.75 F1800 ; Un-retract
G1 X170.3798 Y171.0532 E0.14253 F1800 ; Glyph: 0
G1 X172.3798 Y171.0532 E0.14253 F1800 ; Glyph: 0
G1 X172.3798 Y173.0532 E0.14253 F1800 ; Glyph: 0
G1 X170.3798 Y173.0532 E0.14253 F1800 ; Glyph: 0
G1 X168.3798 Y173.0532 E0.14253 F1800 ; Glyph: 0
G1 X168.3798 Y171.0532 E0.14253 F1800 ; Glyph: 0
G1 E-0.75 F3000 ; Retract
G1 Z0.95 F7200 ; Z hop
G0 X168.3798 Y174.0532 F7200 ; Move
G1 Z0.45 F7200 ; Z hop return
G1 E0.75 F1800 ; Un-retract
G1 X168.3798 Y176.0532 E0.14253 F1800 ; Glyph: 7
G1 X170.3798 Y176.0532 E0.14253 F1800 ; Glyph: 7
G1 X172.3798 Y176.0532 E0.14253 F1800 ; Glyph: 7
G1 E-0.75 F3000 ; Retract
G1 Z0.95 F7200 ; Z hop
G0 X179.0281 Y167.0532 F7200 ; Move
G1 Z0.45 F7200 ; Z hop return
G1 E0.75 F1800 ; Un-retract
G1 X181.0281 Y167.0532 E0.14253 F1800 ; Glyph: 0
G1 X183.0281 Y167.0532 E0.14253 F1800 ; Glyph: 0
G1 X183.0281 Y169.0532 E0.14253 F1800 ; Glyph: 0
G1 X181.0281 Y169.0532 E0.14253 F1800 ; Glyph: 0
G1 X179.0281 Y169.0532 E0.14253 F1800 ; Glyph: 0
G1 X179.0281 Y167.0532 E0.14253 F1800 ; Glyph: 0
G1 E-0.75 F3000 ; Retract
G1 Z0.95 F7200 ; Z hop
G0 X183.0281 Y170.0532 F7200 ; Move
G1 Z0.45 F7200 ; Z hop return
G1 E0.75 F1800 ; Un-retract
G1 X182.2781 Y170.0532 E0.05345 F1800 ; Glyph: .
G1 E-0.75 F3000 ; Retract
G1 Z0.95 F7200 ; Z hop
G0 X179.0281 Y171.0532 F7200 ; Move
G1 Z0.45 F7200 ; Z hop return
G1 E0.75 F1800 ; Un-retract
G1 X181.0281 Y171.0532 E0.14253 F1800 ; Glyph: 0
G1 X183.0281 Y171.0532 E0.14253 F1800 ; Glyph: 0
G1 X183.0281 Y173.0532 E0.14253 F1800 ; Glyph: 0
G1 X181.0281 Y173.0532 E0.14253 F1800 ; Glyph: 0
G1 X179.0281 Y173.0532 E0.14253 F1800 ; Glyph: 0
G1 X179.0281 Y171.0532 E0.14253 F1800 ; Glyph: 0
G1 E-0.75 F3000 ; Retract
G1 Z0.95 F7200 ; Z hop
G0 X179.0281 Y174.0532 F7200 ; Move
G1 Z0.45 F7200 ; Z hop return
G1 E0.75 F1800 ; Un-retract
G1 X181.0281 Y174.0532 E0.14253 F1800 ; Glyph: 8
G1 X183.0281 Y174.0532 E0.14253 F1800 ; Glyph: 8
G1 X183.0281 Y176.0532 E0.14253 F1800 ; Glyph: 8
G1 X181.0281 Y176.0532 E0.14253 F1800 ; Glyph: 8
G1 X179.0281 Y176.0532 E0.14253 F1800 ; Glyph: 8
G1 X179.0281 Y174.0532 E0.14253 F1800 ; Glyph: 8
G0 X181.0281 Y174.0532 F7200 ; Move
G1 X181.0281 Y176.0532 E0.14253 F1800 ; Glyph: 8
G1 E-0.75 F3000 ; Retract
G1 Z0.95 F7200 ; Z hop
G0 X94.6291 Y122.7268 F7200 ; Move to pattern start

G1 Z0.45 F7200 ; Z hop return
G1 E0.75 F1800 ; Un-retract
SET_PRESSURE_ADVANCE ADVANCE=0 ; Set pressure advance
M117 PA 0
G1 X115.8423 Y143.94 E2.13799 F6000 ; Print pattern wall
G1 X94.6291 Y165.1532 E2.13799 F6000 ; Print pattern wall
G1 E-0.75 F3000 ; Retract
G1 Z0.95 F7200 ; Z hop
G0 X95.8411 Y122.7268 F7200 ; Move to start next pattern wall
G1 Z0.45 F7200 ; Z hop return
G1 E0.75 F1800 ; Un-retract
G1 X117.0544 Y143.94 E2.13799 F6000 ; Print pattern wall
G1 X95.8411 Y165.1532 E2.13799 F6000 ; Print pattern wall
G1 E-0.75 F3000 ; Retract
G1 Z0.95 F7200 ; Z hop
G0 X97.0532 Y122.7268 F7200 ; Move to start next pattern wall
G1 Z0.45 F7200 ; Z hop return
G1 E0.75 F1800 ; Un-retract
G1 X118.2664 Y143.94 E2.13799 F6000 ; Print pattern wall
G1 X97.0532 Y165.1532 E2.13799 F6000 ; Print pattern wall
G1 E-0.75 F3000 ; Retract
G1 Z0.95 F7200 ; Z hop
G0 X99.9532 Y122.7268 F7200 ; Move to next pattern
G1 Z0.45 F7200 ; Z hop return
G1 E0.75 F1800 ; Un-retract
SET_PRESSURE_ADVANCE ADVANCE=0.005 ; Set pressure advance
M117 PA 0.005
G1 X121.1664 Y143.94 E2.13799 F6000 ; Print pattern wall
G1 X99.9532 Y165.1532 E2.13799 F6000 ; Print pattern wall
G1 E-0.75 F3000 ; Retract
G1 Z0.95 F7200 ; Z hop
G0 X101.1653 Y122.7268 F7200 ; Move to start next pattern wall
G1 Z0.45 F7200 ; Z hop return
G1 E0.75 F1800 ; Un-retract
G1 X122.3785 Y143.94 E2.13799 F6000 ; Print pattern wall
G1 X101.1653 Y165.1532 E2.13799 F6000 ; Print pattern wall
G1 E-0.75 F3000 ; Retract
G1 Z0.95 F7200 ; Z hop
G0 X102.3774 Y122.7268 F7200 ; Move to start next pattern wall
G1 Z0.45 F7200 ; Z hop return
G1 E0.75 F1800 ; Un-retract
G1 X123.5906 Y143.94 E2.13799 F6000 ; Print pattern wall
G1 X102.3774 Y165.1532 E2.13799 F6000 ; Print pattern wall
G1 E-0.75 F3000 ; Retract
G1 Z0.95 F7200 ; Z hop
G0 X105.2774 Y122.7268 F7200 ; Move to next pattern
G1 Z0.45 F7200 ; Z hop return
G1 E0.75 F1800 ; Un-retract
SET_PRESSURE_ADVANCE ADVANCE=0.01 ; Set pressure advance
M117 PA 0.01
G1 X126.4906 Y143.94 E2.13799 F6000 ; Print pattern wall
G1 X105.2774 Y165.1532 E2.13799 F6000 ; Print pattern wall
G1 E-0.75 F3000 ; Retract
G1 Z0.95 F7200 ; Z hop
G0 X106.4895 Y122.7268 F7200 ; Move to start next pattern wall
G1 Z0.45 F7200 ; Z hop return
G1 E0.75 F1800 ; Un-retract
G1 X127.7027 Y143.94 E2.13799 F6000 ; Print pattern wall
G1 X106.4895 Y165.1532 E2.13799 F6000 ; Print pattern wall
G1 E-0.75 F3000 ; Retract
G1 Z0.95 F7200 ; Z hop
G0 X107.7016 Y122.7268 F7200 ; Move to start next pattern wall
G1 Z0.45 F7200 ; Z hop return
G1 E0.75 F1800 ; Un-retract
G1 X128.9148 Y143.94 E2.13799 F6000 ; Print pattern wall
G1 X107.7016 Y165.1532 E2.13799 F6000 ; Print pattern wall
G1 E-0.75 F3000 ; Retract
G1 Z0.95 F7200 ; Z hop
G0 X110.6016 Y122.7268 F7200 ; Move to next pattern
G1 Z0.45 F7200 ; Z hop return
G1 E0.75 F1800 ; Un-retract
SET_PRESSURE_ADVANCE ADVANCE=0.015 ; Set pressure advance
M117 PA 0.015
G1 X131.8148 Y143.94 E2.13799 F6000 ; Print pattern wall
G1 X110.6016 Y165.1532 E2.13799 F6000 ; Print pattern wall
G1 E-0.75 F3000 ; Retract
G1 Z0.95 F7200 ; Z hop
G0 X111.8137 Y122.7268 F7200 ; Move to start next pattern wall
G1 Z0.45 F7200 ; Z hop return
G1 E0.75 F1800 ; Un-retract
G1 X133.0269 Y143.94 E2.13799 F6000 ; Print pattern wall
G1 X111.8137 Y165.1532 E2.13799 F6000 ; Print pattern wall
G1 E-0.75 F3000 ; Retract
G1 Z0.95 F7200 ; Z hop
G0 X113.0258 Y122.7268 F7200 ; Move to start next pattern wall
G1 Z0.45 F7200 ; Z hop return
G1 E0.75 F1800 ; Un-retract
G1 X134.239 Y143.94 E2.13799 F6000 ; Print pattern wall
G1 X113.0258 Y165.1532 E2.13799 F6000 ; Print pattern wall
G1 E-0.75 F3000 ; Retract
G1 Z0.95 F7200 ; Z hop
G0 X115.9258 Y122.7268 F7200 ; Move to next pattern
G1 Z0.45 F7200 ; Z hop return
G1 E0.75 F1800 ; Un-retract
SET_PRESSURE_ADVANCE ADVANCE=0.02 ; Set pressure advance
M117 PA 0.02
G1 X137.139 Y143.94 E2.13799 F6000 ; Print pattern wall
G1 X115.9258 Y165.1532 E2.13799 F6000 ; Print pattern wall
G1 E-0.75 F3000 ; Retract
G1 Z0.95 F7200 ; Z hop
G0 X117.1379 Y122.7268 F7200 ; Move to start next pattern wall
G1 Z0.45 F7200 ; Z hop return
G1 E0.75 F1800 ; Un-retract
G1 X138.3511 Y143.94 E2.13799 F6000 ; Print pattern wall
G1 X117.1379 Y165.1532 E2.13799 F6000 ; Print pattern wall
G1 E-0.75 F3000 ; Retract
G1 Z0.95 F7200 ; Z hop
G0 X118.35 Y122.7268 F7200 ; Move to start next pattern wall
G1 Z0.45 F7200 ; Z hop return
G1 E0.75 F1800 ; Un-retract
G1 X139.5632 Y143.94 E2.13799 F6000 ; Print pattern wall
G1 X118.35 Y165.1532 E2.13799 F6000 ; Print pattern wall
G1 E-0.75 F3000 ; Retract
G1 Z0.95 F7200 ; Z hop
G0 X121.25 Y122.7268 F7200 ; Move to next pattern
G1 Z0.45 F7200 ; Z hop return
G1 E0.75 F1800 ; Un-retract
SET_PRESSURE_ADVANCE ADVANCE=0.025 ; Set pressure advance
M117 PA 0.025
G1 X142.4632 Y143.94 E2.13799 F6000 ; Print pattern wall
G1 X121.25 Y165.1532 E2.13799 F6000 ; Print pattern wall
G1 E-0.75 F3000 ; Retract
G1 Z0.95 F7200 ; Z hop
G0 X122.4621 Y122.7268 F7200 ; Move to start next pattern wall
G1 Z0.45 F7200 ; Z hop return
G1 E0.75 F1800 ; Un-retract
G1 X143.6753 Y143.94 E2.13799 F6000 ; Print pattern wall
G1 X122.4621 Y165.1532 E2.13799 F6000 ; Print pattern wall
G1 E-0.75 F3000 ; Retract
G1 Z0.95 F7200 ; Z hop
G0 X123.6742 Y122.7268 F7200 ; Move to start next pattern wall
G1 Z0.45 F7200 ; Z hop return
G1 E0.75 F1800 ; Un-retract
G1 X144.8874 Y143.94 E2.13799 F6000 ; Print pattern wall
G1 X123.6742 Y165.1532 E2.13799 F6000 ; Print pattern wall
G1 E-0.75 F3000 ; Retract
G1 Z0.95 F7200 ; Z hop
G0 X126.5742 Y122.7268 F7200 ; Move to next pattern
G1 Z0.45 F7200 ; Z hop return
G1 E0.75 F1800 ; Un-retract
SET_PRESSURE_ADVANCE ADVANCE=0.03 ; Set pressure advance
M117 PA 0.03
G1 X147.7874 Y143.94 E2.13799 F6000 ; Print pattern wall
G1 X126.5742 Y165.1532 E2.13799 F6000 ; Print pattern wall
G1 E-0.75 F3000 ; Retract
G1 Z0.95 F7200 ; Z hop
G0 X127.7863 Y122.7268 F7200 ; Move to start next pattern wall
G1 Z0.45 F7200 ; Z hop return
G1 E0.75 F1800 ; Un-retract
G1 X148.9995 Y143.94 E2.13799 F6000 ; Print pattern wall
G1 X127.7863 Y165.1532 E2.13799 F6000 ; Print pattern wall
G1 E-0.75 F3000 ; Retract
G1 Z0.95 F7200 ; Z hop
G0 X128.9984 Y122.7268 F7200 ; Move to start next pattern wall
G1 Z0.45 F7200 ; Z hop return
G1 E0.75 F1800 ; Un-retract
G1 X150.2116 Y143.94 E2.13799 F6000 ; Print pattern wall
G1 X128.9984 Y165.1532 E2.13799 F6000 ; Print pattern wall
G1 E-0.75 F3000 ; Retract
G1 Z0.95 F7200 ; Z hop
G0 X131.8984 Y122.7268 F7200 ; Move to next pattern
G1 Z0.45 F7200 ; Z hop return
G1 E0.75 F1800 ; Un-retract
SET_PRESSURE_ADVANCE ADVANCE=0.035 ; Set pressure advance
M117 PA 0.035
G1 X153.1116 Y143.94 E2.13799 F6000 ; Print pattern wall
G1 X131.8984 Y165.1532 E2.13799 F6000 ; Print pattern wall
G1 E-0.75 F3000 ; Retract
G1 Z0.95 F7200 ; Z hop
G0 X133.1105 Y122.7268 F7200 ; Move to start next pattern wall
G1 Z0.45 F7200 ; Z hop return
G1 E0.75 F1800 ; Un-retract
G1 X154.3237 Y143.94 E2.13799 F6000 ; Print pattern wall
G1 X133.1105 Y165.1532 E2.13799 F6000 ; Print pattern wall
G1 E-0.75 F3000 ; Retract
G1 Z0.95 F7200 ; Z hop
G0 X134.3226 Y122.7268 F7200 ; Move to start next pattern wall
G1 Z0.45 F7200 ; Z hop return
G1 E0.75 F1800 ; Un-retract
G1 X155.5358 Y143.94 E2.13799 F6000 ; Print pattern wall
G1 X134.3226 Y165.1532 E2.13799 F6000 ; Print pattern wall
G1 E-0.75 F3000 ; Retract
G1 Z0.95 F7200 ; Z hop
G0 X137.2226 Y122.7268 F7200 ; Move to next pattern
G1 Z0.45 F7200 ; Z hop return
G1 E0.75 F1800 ; Un-retract
SET_PRESSURE_ADVANCE ADVANCE=0.04 ; Set pressure advance
M117 PA 0.04
G1 X158.4358 Y143.94 E2.13799 F6000 ; Print pattern wall
G1 X137.2226 Y165.1532 E2.13799 F6000 ; Print pattern wall
G1 E-0.75 F3000 ; Retract
G1 Z0.95 F7200 ; Z hop
G0 X138.4346 Y122.7268 F7200 ; Move to start next pattern wall
G1 Z0.45 F7200 ; Z hop return
G1 E0.75 F1800 ; Un-retract
G1 X159.6478 Y143.94 E2.13799 F6000 ; Print pattern wall
G1 X138.4346 Y165.1532 E2.13799 F6000 ; Print pattern wall
G1 E-0.75 F3000 ; Retract
G1 Z0.95 F7200 ; Z hop
G0 X139.6467 Y122.7268 F7200 ; Move to start next pattern wall
G1 Z0.45 F7200 ; Z hop return
G1 E0.75 F1800 ; Un-retract
G1 X160.8599 Y143.94 E2.13799 F6000 ; Print pattern wall
G1 X139.6467 Y165.1532 E2.13799 F6000 ; Print pattern wall
G1 E-0.75 F3000 ; Retract
G1 Z0.95 F7200 ; Z hop
G0 X142.5467 Y122.7268 F7200 ; Move to next pattern
G1 Z0.45 F7200 ; Z hop return
G1 E0.75 F1800 ; Un-retract
SET_PRESSURE_ADVANCE ADVANCE=0.045 ; Set pressure advance
M117 PA 0.045
G1 X163.7599 Y143.94 E2.13799 F6000 ; Print pattern wall
G1 X142.5467 Y165.1532 E2.13799 F6000 ; Print pattern wall
G1 E-0.75 F3000 ; Retract
G1 Z0.95 F7200 ; Z hop
G0 X143.7588 Y122.7268 F7200 ; Move to start next pattern wall
G1 Z0.45 F7200 ; Z hop return
G1 E0.75 F1800 ; Un-retract
G1 X164.972 Y143.94 E2.13799 F6000 ; Print pattern wall
G1 X143.7588 Y165.1532 E2.13799 F6000 ; Print pattern wall
G1 E-0.75 F3000 ; Retract
G1 Z0.95 F7200 ; Z hop
G0 X144.9709 Y122.7268 F7200 ; Move to start next pattern wall
G1 Z0.45 F7200 ; Z hop return
G1 E0.75 F1800 ; Un-retract
G1 X166.1841 Y143.94 E2.13799 F6000 ; Print pattern wall
G1 X144.9709 Y165.1532 E2.13799 F6000 ; Print pattern wall
G1 E-0.75 F3000 ; Retract
G1 Z0.95 F7200 ; Z hop
G0 X147.8709 Y122.7268 F7200 ; Move to next pattern
G1 Z0.45 F7200 ; Z hop return
G1 E0.75 F1800 ; Un-retract
SET_PRESSURE_ADVANCE ADVANCE=0.05 ; Set pressure advance
M117 PA 0.05
G1 X169.0841 Y143.94 E2.13799 F6000 ; Print pattern wall
G1 X147.8709 Y165.1532 E2.13799 F6000 ; Print pattern wall
G1 E-0.75 F3000 ; Retract
G1 Z0.95 F7200 ; Z hop
G0 X149.083 Y122.7268 F7200 ; Move to start next pattern wall
G1 Z0.45 F7200 ; Z hop return
G1 E0.75 F1800 ; Un-retract
G1 X170.2962 Y143.94 E2.13799 F6000 ; Print pattern wall
G1 X149.083 Y165.1532 E2.13799 F6000 ; Print pattern wall
G1 E-0.75 F3000 ; Retract
G1 Z0.95 F7200 ; Z hop
G0 X150.2951 Y122.7268 F7200 ; Move to start next pattern wall
G1 Z0.45 F7200 ; Z hop return
G1 E0.75 F1800 ; Un-retract
G1 X171.5083 Y143.94 E2.13799 F6000 ; Print pattern wall
G1 X150.2951 Y165.1532 E2.13799 F6000 ; Print pattern wall
G1 E-0.75 F3000 ; Retract
G1 Z0.95 F7200 ; Z hop
G0 X153.1951 Y122.7268 F7200 ; Move to next pattern
G1 Z0.45 F7200 ; Z hop return
G1 E0.75 F1800 ; Un-retract
SET_PRESSURE_ADVANCE ADVANCE=0.055 ; Set pressure advance
M117 PA 0.055
G1 X174.4083 Y143.94 E2.13799 F6000 ; Print pattern wall
G1 X153.1951 Y165.1532 E2.13799 F6000 ; Print pattern wall
G1 E-0.75 F3000 ; Retract
G1 Z0.95 F7200 ; Z hop
G0 X154.4072 Y122.7268 F7200 ; Move to start next pattern wall
G1 Z0.45 F7200 ; Z hop return
G1 E0.75 F1800 ; Un-retract
G1 X175.6204 Y143.94 E2.13799 F6000 ; Print pattern wall
G1 X154.4072 Y165.1532 E2.13799 F6000 ; Print pattern wall
G1 E-0.75 F3000 ; Retract
G1 Z0.95 F7200 ; Z hop
G0 X155.6193 Y122.7268 F7200 ; Move to start next pattern wall
G1 Z0.45 F7200 ; Z hop return
G1 E0.75 F1800 ; Un-retract
G1 X176.8325 Y143.94 E2.13799 F6000 ; Print pattern wall
G1 X155.6193 Y165.1532 E2.13799 F6000 ; Print pattern wall
G1 E-0.75 F3000 ; Retract
G1 Z0.95 F7200 ; Z hop
G0 X158.5193 Y122.7268 F7200 ; Move to next pattern
G1 Z0.45 F7200 ; Z hop return
G1 E0.75 F1800 ; Un-retract
SET_PRESSURE_ADVANCE ADVANCE=0.06 ; Set pressure advance
M117 PA 0.06
G1 X179.7325 Y143.94 E2.13799 F6000 ; Print pattern wall
G1 X158.5193 Y165.1532 E2.13799 F6000 ; Print pattern wall
G1 E-0.75 F3000 ; Retract
G1 Z0.95 F7200 ; Z hop
G0 X159.7314 Y122.7268 F7200 ; Move to start next pattern wall
G1 Z0.45 F7200 ; Z hop return
G1 E0.75 F1800 ; Un-retract
G1 X180.9446 Y143.94 E2.13799 F6000 ; Print pattern wall
G1 X159.7314 Y165.1532 E2.13799 F6000 ; Print pattern wall
G1 E-0.75 F3000 ; Retract
G1 Z0.95 F7200 ; Z hop
G0 X160.9435 Y122.7268 F7200 ; Move to start next pattern wall
G1 Z0.45 F7200 ; Z hop return
G1 E0.75 F1800 ; Un-retract
G1 X182.1567 Y143.94 E2.13799 F6000 ; Print pattern wall
G1 X160.9435 Y165.1532 E2.13799 F6000 ; Print pattern wall
G1 E-0.75 F3000 ; Retract
G1 Z0.95 F7200 ; Z hop
G0 X163.8435 Y122.7268 F7200 ; Move to next pattern
G1 Z0.45 F7200 ; Z hop return
G1 E0.75 F1800 ; Un-retract
SET_PRESSURE_ADVANCE ADVANCE=0.065 ; Set pressure advance
M117 PA 0.065
G1 X185.0567 Y143.94 E2.13799 F6000 ; Print pattern wall
G1 X163.8435 Y165.1532 E2.13799 F6000 ; Print pattern wall
G1 E-0.75 F3000 ; Retract
G1 Z0.95 F7200 ; Z hop
G0 X165.0556 Y122.7268 F7200 ; Move to start next pattern wall
G1 Z0.45 F7200 ; Z hop return
G1 E0.75 F1800 ; Un-retract
G1 X186.2688 Y143.94 E2.13799 F6000 ; Print pattern wall
G1 X165.0556 Y165.1532 E2.13799 F6000 ; Print pattern wall
G1 E-0.75 F3000 ; Retract
G1 Z0.95 F7200 ; Z hop
G0 X166.2677 Y122.7268 F7200 ; Move to start next pattern wall
G1 Z0.45 F7200 ; Z hop return
G1 E0.75 F1800 ; Un-retract
G1 X187.4809 Y143.94 E2.13799 F6000 ; Print pattern wall
G1 X166.2677 Y165.1532 E2.13799 F6000 ; Print pattern wall
G1 E-0.75 F3000 ; Retract
G1 Z0.95 F7200 ; Z hop
G0 X169.1677 Y122.7268 F7200 ; Move to next pattern
G1 Z0.45 F7200 ; Z hop return
G1 E0.75 F1800 ; Un-retract
SET_PRESSURE_ADVANCE ADVANCE=0.07 ; Set pressure advance
M117 PA 0.07
G1 X190.3809 Y143.94 E2.13799 F6000 ; Print pattern wall
G1 X169.1677 Y165.1532 E2.13799 F6000 ; Print pattern wall
G1 E-0.75 F3000 ; Retract
G1 Z0.95 F7200 ; Z hop
G0 X170.3798 Y122.7268 F7200 ; Move to start next pattern wall
G1 Z0.45 F7200 ; Z hop return
G1 E0.75 F1800 ; Un-retract
G1 X191.593 Y143.94 E2.13799 F6000 ; Print pattern wall
G1 X170.3798 Y165.1532 E2.13799 F6000 ; Print pattern wall
G1 E-0.75 F3000 ; Retract
G1 Z0.95 F7200 ; Z hop
G0 X171.5919 Y122.7268 F7200 ; Move to start next pattern wall
G1 Z0.45 F7200 ; Z hop return
G1 E0.75 F1800 ; Un-retract
G1 X192.8051 Y143.94 E2.13799 F6000 ; Print pattern wall
G1 X171.5919 Y165.1532 E2.13799 F6000 ; Print pattern wall
G1 E-0.75 F3000 ; Retract
G1 Z0.95 F7200 ; Z hop
G0 X174.4919 Y122.7268 F7200 ; Move to next pattern
G1 Z0.45 F7200 ; Z hop return
G1 E0.75 F1800 ; Un-retract
SET_PRESSURE_ADVANCE ADVANCE=0.075 ; Set pressure advance
M117 PA 0.075
G1 X195.7051 Y143.94 E2.13799 F6000 ; Print pattern wall
G1 X174.4919 Y165.1532 E2.13799 F6000 ; Print pattern wall
G1 E-0.75 F3000 ; Retract
G1 Z0.95 F7200 ; Z hop
G0 X175.704 Y122.7268 F7200 ; Move to start next pattern wall
G1 Z0.45 F7200 ; Z hop return
G1 E0.75 F1800 ; Un-retract
G1 X196.9172 Y143.94 E2.13799 F6000 ; Print pattern wall
G1 X175.704 Y165.1532 E2.13799 F6000 ; Print pattern wall
G1 E-0.75 F3000 ; Retract
G1 Z0.95 F7200 ; Z hop
G0 X176.9161 Y122.7268 F7200 ; Move to start next pattern wall
G1 Z0.45 F7200 ; Z hop return
G1 E0.75 F1800 ; Un-retract
G1 X198.1293 Y143.94 E2.13799 F6000 ; Print pattern wall
G1 X176.9161 Y165.1532 E2.13799 F6000 ; Print pattern wall
G1 E-0.75 F3000 ; Retract
G1 Z0.95 F7200 ; Z hop
G0 X179.8161 Y122.7268 F7200 ; Move to next pattern
G1 Z0.45 F7200 ; Z hop return
G1 E0.75 F1800 ; Un-retract
SET_PRESSURE_ADVANCE ADVANCE=0.08 ; Set pressure advance
M117 PA 0.08
G1 X201.0293 Y143.94 E2.13799 F6000 ; Print pattern wall
G1 X179.8161 Y165.1532 E2.13799 F6000 ; Print pattern wall
G1 E-0.75 F3000 ; Retract
G1 Z0.95 F7200 ; Z hop
G0 X181.0281 Y122.7268 F7200 ; Move to start next pattern wall
G1 Z0.45 F7200 ; Z hop return
G1 E0.75 F1800 ; Un-retract
G1 X202.2413 Y143.94 E2.13799 F6000 ; Print pattern wall
G1 X181.0281 Y165.1532 E2.13799 F6000 ; Print pattern wall
G1 E-0.75 F3000 ; Retract
G1 Z0.95 F7200 ; Z hop
G0 X182.2402 Y122.7268 F7200 ; Move to start next pattern wall
G1 Z0.45 F7200 ; Z hop return
G1 E0.75 F1800 ; Un-retract
G1 X203.4534 Y143.94 E2.13799 F6000 ; Print pattern wall
G1 X182.2402 Y165.1532 E2.13799 F6000 ; Print pattern wall
G1 E-0.75 F3000 ; Retract
G1 Z0.95 F7200 ; Z hop
G0 X94.6291 Y122.7268 F7200 ; Move back to start position
G1 Z0.45 F7200 ; Z hop return
G1 E0.75 F1800 ; Un-retract
G0 Z0.65 F7200 ; Move to layer height
SET_PRESSURE_ADVANCE ADVANCE=0 ; Set pressure advance
M117 PA 0
G1 X115.8423 Y143.94 E2.13799 F6000 ; Print pattern wall
G1 X94.6291 Y165.1532 E2.13799 F6000 ; Print pattern wall
G1 E-0.75 F3000 ; Retract
G1 Z1.15 F7200 ; Z hop
G0 X95.8411 Y122.7268 F7200 ; Move to start next pattern wall
G1 Z0.65 F7200 ; Z hop return
G1 E0.75 F1800 ; Un-retract
G1 X117.0544 Y143.94 E2.13799 F6000 ; Print pattern wall
G1 X95.8411 Y165.1532 E2.13799 F6000 ; Print pattern wall
G1 E-0.75 F3000 ; Retract
G1 Z1.15 F7200 ; Z hop
G0 X97.0532 Y122.7268 F7200 ; Move to start next pattern wall
G1 Z0.65 F7200 ; Z hop return
G1 E0.75 F1800 ; Un-retract
G1 X118.2664 Y143.94 E2.13799 F6000 ; Print pattern wall
G1 X97.0532 Y165.1532 E2.13799 F6000 ; Print pattern wall
G1 E-0.75 F3000 ; Retract
G1 Z1.15 F7200 ; Z hop
G0 X99.9532 Y122.7268 F7200 ; Move to next pattern
G1 Z0.65 F7200 ; Z hop return
G1 E0.75 F1800 ; Un-retract
SET_PRESSURE_ADVANCE ADVANCE=0.005 ; Set pressure advance
M117 PA 0.005
G1 X121.1664 Y143.94 E2.13799 F6000 ; Print pattern wall
G1 X99.9532 Y165.1532 E2.13799 F6000 ; Print pattern wall
G1 E-0.75 F3000 ; Retract
G1 Z1.15 F7200 ; Z hop
G0 X101.1653 Y122.7268 F7200 ; Move to start next pattern wall
G1 Z0.65 F7200 ; Z hop return
G1 E0.75 F1800 ; Un-retract
G1 X122.3785 Y143.94 E2.13799 F6000 ; Print pattern wall
G1 X101.1653 Y165.1532 E2.13799 F6000 ; Print pattern wall
G1 E-0.75 F3000 ; Retract
G1 Z1.15 F7200 ; Z hop
G0 X102.3774 Y122.7268 F7200 ; Move to start next pattern wall
G1 Z0.65 F7200 ; Z hop return
G1 E0.75 F1800 ; Un-retract
G1 X123.5906 Y143.94 E2.13799 F6000 ; Print pattern wall
G1 X102.3774 Y165.1532 E2.13799 F6000 ; Print pattern wall
G1 E-0.75 F3000 ; Retract
G1 Z1.15 F7200 ; Z hop
G0 X105.2774 Y122.7268 F7200 ; Move to next pattern
G1 Z0.65 F7200 ; Z hop return
G1 E0.75 F1800 ; Un-retract
SET_PRESSURE_ADVANCE ADVANCE=0.01 ; Set pressure advance
M117 PA 0.01
G1 X126.4906 Y143.94 E2.13799 F6000 ; Print pattern wall
G1 X105.2774 Y165.1532 E2.13799 F6000 ; Print pattern wall
G1 E-0.75 F3000 ; Retract
G1 Z1.15 F7200 ; Z hop
G0 X106.4895 Y122.7268 F7200 ; Move to start next pattern wall
G1 Z0.65 F7200 ; Z hop return
G1 E0.75 F1800 ; Un-retract
G1 X127.7027 Y143.94 E2.13799 F6000 ; Print pattern wall
G1 X106.4895 Y165.1532 E2.13799 F6000 ; Print pattern wall
G1 E-0.75 F3000 ; Retract
G1 Z1.15 F7200 ; Z hop
G0 X107.7016 Y122.7268 F7200 ; Move to start next pattern wall
G1 Z0.65 F7200 ; Z hop return
G1 E0.75 F1800 ; Un-retract
G1 X128.9148 Y143.94 E2.13799 F6000 ; Print pattern wall
G1 X107.7016 Y165.1532 E2.13799 F6000 ; Print pattern wall
G1 E-0.75 F3000 ; Retract
G1 Z1.15 F7200 ; Z hop
G0 X110.6016 Y122.7268 F7200 ; Move to next pattern
G1 Z0.65 F7200 ; Z hop return
G1 E0.75 F1800 ; Un-retract
SET_PRESSURE_ADVANCE ADVANCE=0.015 ; Set pressure advance
M117 PA 0.015
G1 X131.8148 Y143.94 E2.13799 F6000 ; Print pattern wall
G1 X110.6016 Y165.1532 E2.13799 F6000 ; Print pattern wall
G1 E-0.75 F3000 ; Retract
G1 Z1.15 F7200 ; Z hop
G0 X111.8137 Y122.7268 F7200 ; Move to start next pattern wall
G1 Z0.65 F7200 ; Z hop return
G1 E0.75 F1800 ; Un-retract
G1 X133.0269 Y143.94 E2.13799 F6000 ; Print pattern wall
G1 X111.8137 Y165.1532 E2.13799 F6000 ; Print pattern wall
G1 E-0.75 F3000 ; Retract
G1 Z1.15 F7200 ; Z hop
G0 X113.0258 Y122.7268 F7200 ; Move to start next pattern wall
G1 Z0.65 F7200 ; Z hop return
G1 E0.75 F1800 ; Un-retract
G1 X134.239 Y143.94 E2.13799 F6000 ; Print pattern wall
G1 X113.0258 Y165.1532 E2.13799 F6000 ; Print pattern wall
G1 E-0.75 F3000 ; Retract
G1 Z1.15 F7200 ; Z hop
G0 X115.9258 Y122.7268 F7200 ; Move to next pattern
G1 Z0.65 F7200 ; Z hop return
G1 E0.75 F1800 ; Un-retract
SET_PRESSURE_ADVANCE ADVANCE=0.02 ; Set pressure advance
M117 PA 0.02
G1 X137.139 Y143.94 E2.13799 F6000 ; Print pattern wall
G1 X115.9258 Y165.1532 E2.13799 F6000 ; Print pattern wall
G1 E-0.75 F3000 ; Retract
G1 Z1.15 F7200 ; Z hop
G0 X117.1379 Y122.7268 F7200 ; Move to start next pattern wall
G1 Z0.65 F7200 ; Z hop return
G1 E0.75 F1800 ; Un-retract
G1 X138.3511 Y143.94 E2.13799 F6000 ; Print pattern wall
G1 X117.1379 Y165.1532 E2.13799 F6000 ; Print pattern wall
G1 E-0.75 F3000 ; Retract
G1 Z1.15 F7200 ; Z hop
G0 X118.35 Y122.7268 F7200 ; Move to start next pattern wall
G1 Z0.65 F7200 ; Z hop return
G1 E0.75 F1800 ; Un-retract
G1 X139.5632 Y143.94 E2.13799 F6000 ; Print pattern wall
G1 X118.35 Y165.1532 E2.13799 F6000 ; Print pattern wall
G1 E-0.75 F3000 ; Retract
G1 Z1.15 F7200 ; Z hop
G0 X121.25 Y122.7268 F7200 ; Move to next pattern
G1 Z0.65 F7200 ; Z hop return
G1 E0.75 F1800 ; Un-retract
SET_PRESSURE_ADVANCE ADVANCE=0.025 ; Set pressure advance
M117 PA 0.025
G1 X142.4632 Y143.94 E2.13799 F6000 ; Print pattern wall
G1 X121.25 Y165.1532 E2.13799 F6000 ; Print pattern wall
G1 E-0.75 F3000 ; Retract
G1 Z1.15 F7200 ; Z hop
G0 X122.4621 Y122.7268 F7200 ; Move to start next pattern wall
G1 Z0.65 F7200 ; Z hop return
G1 E0.75 F1800 ; Un-retract
G1 X143.6753 Y143.94 E2.13799 F6000 ; Print pattern wall
G1 X122.4621 Y165.1532 E2.13799 F6000 ; Print pattern wall
G1 E-0.75 F3000 ; Retract
G1 Z1.15 F7200 ; Z hop
G0 X123.6742 Y122.7268 F7200 ; Move to start next pattern wall
G1 Z0.65 F7200 ; Z hop return
G1 E0.75 F1800 ; Un-retract
G1 X144.8874 Y143.94 E2.13799 F6000 ; Print pattern wall
G1 X123.6742 Y165.1532 E2.13799 F6000 ; Print pattern wall
G1 E-0.75 F3000 ; Retract
G1 Z1.15 F7200 ; Z hop
G0 X126.5742 Y122.7268 F7200 ; Move to next pattern
G1 Z0.65 F7200 ; Z hop return
G1 E0.75 F1800 ; Un-retract
SET_PRESSURE_ADVANCE ADVANCE=0.03 ; Set pressure advance
M117 PA 0.03
G1 X147.7874 Y143.94 E2.13799 F6000 ; Print pattern wall
G1 X126.5742 Y165.1532 E2.13799 F6000 ; Print pattern wall
G1 E-0.75 F3000 ; Retract
G1 Z1.15 F7200 ; Z hop
G0 X127.7863 Y122.7268 F7200 ; Move to start next pattern wall
G1 Z0.65 F7200 ; Z hop return
G1 E0.75 F1800 ; Un-retract
G1 X148.9995 Y143.94 E2.13799 F6000 ; Print pattern wall
G1 X127.7863 Y165.1532 E2.13799 F6000 ; Print pattern wall
G1 E-0.75 F3000 ; Retract
G1 Z1.15 F7200 ; Z hop
G0 X128.9984 Y122.7268 F7200 ; Move to start next pattern wall
G1 Z0.65 F7200 ; Z hop return
G1 E0.75 F1800 ; Un-retract
G1 X150.2116 Y143.94 E2.13799 F6000 ; Print pattern wall
G1 X128.9984 Y165.1532 E2.13799 F6000 ; Print pattern wall
G1 E-0.75 F3000 ; Retract
G1 Z1.15 F7200 ; Z hop
G0 X131.8984 Y122.7268 F7200 ; Move to next pattern
G1 Z0.65 F7200 ; Z hop return
G1 E0.75 F1800 ; Un-retract
SET_PRESSURE_ADVANCE ADVANCE=0.035 ; Set pressure advance
M117 PA 0.035
G1 X153.1116 Y143.94 E2.13799 F6000 ; Print pattern wall
G1 X131.8984 Y165.1532 E2.13799 F6000 ; Print pattern wall
G1 E-0.75 F3000 ; Retract
G1 Z1.15 F7200 ; Z hop
G0 X133.1105 Y122.7268 F7200 ; Move to start next pattern wall
G1 Z0.65 F7200 ; Z hop return
G1 E0.75 F1800 ; Un-retract
G1 X154.3237 Y143.94 E2.13799 F6000 ; Print pattern wall
G1 X133.1105 Y165.1532 E2.13799 F6000 ; Print pattern wall
G1 E-0.75 F3000 ; Retract
G1 Z1.15 F7200 ; Z hop
G0 X134.3226 Y122.7268 F7200 ; Move to start next pattern wall
G1 Z0.65 F7200 ; Z hop return
G1 E0.75 F1800 ; Un-retract
G1 X155.5358 Y143.94 E2.13799 F6000 ; Print pattern wall
G1 X134.3226 Y165.1532 E2.13799 F6000 ; Print pattern wall
G1 E-0.75 F3000 ; Retract
G1 Z1.15 F7200 ; Z hop
G0 X137.2226 Y122.7268 F7200 ; Move to next pattern
G1 Z0.65 F7200 ; Z hop return
G1 E0.75 F1800 ; Un-retract
SET_PRESSURE_ADVANCE ADVANCE=0.04 ; Set pressure advance
M117 PA 0.04
G1 X158.4358 Y143.94 E2.13799 F6000 ; Print pattern wall
G1 X137.2226 Y165.1532 E2.13799 F6000 ; Print pattern wall
G1 E-0.75 F3000 ; Retract
G1 Z1.15 F7200 ; Z hop
G0 X138.4346 Y122.7268 F7200 ; Move to start next pattern wall
G1 Z0.65 F7200 ; Z hop return
G1 E0.75 F1800 ; Un-retract
G1 X159.6478 Y143.94 E2.13799 F6000 ; Print pattern wall
G1 X138.4346 Y165.1532 E2.13799 F6000 ; Print pattern wall
G1 E-0.75 F3000 ; Retract
G1 Z1.15 F7200 ; Z hop
G0 X139.6467 Y122.7268 F7200 ; Move to start next pattern wall
G1 Z0.65 F7200 ; Z hop return
G1 E0.75 F1800 ; Un-retract
G1 X160.8599 Y143.94 E2.13799 F6000 ; Print pattern wall
G1 X139.6467 Y165.1532 E2.13799 F6000 ; Print pattern wall
G1 E-0.75 F3000 ; Retract
G1 Z1.15 F7200 ; Z hop
G0 X142.5467 Y122.7268 F7200 ; Move to next pattern
G1 Z0.65 F7200 ; Z hop return
G1 E0.75 F1800 ; Un-retract
SET_PRESSURE_ADVANCE ADVANCE=0.045 ; Set pressure advance
M117 PA 0.045
G1 X163.7599 Y143.94 E2.13799 F6000 ; Print pattern wall
G1 X142.5467 Y165.1532 E2.13799 F6000 ; Print pattern wall
G1 E-0.75 F3000 ; Retract
G1 Z1.15 F7200 ; Z hop
G0 X143.7588 Y122.7268 F7200 ; Move to start next pattern wall
G1 Z0.65 F7200 ; Z hop return
G1 E0.75 F1800 ; Un-retract
G1 X164.972 Y143.94 E2.13799 F6000 ; Print pattern wall
G1 X143.7588 Y165.1532 E2.13799 F6000 ; Print pattern wall
G1 E-0.75 F3000 ; Retract
G1 Z1.15 F7200 ; Z hop
G0 X144.9709 Y122.7268 F7200 ; Move to start next pattern wall
G1 Z0.65 F7200 ; Z hop return
G1 E0.75 F1800 ; Un-retract
G1 X166.1841 Y143.94 E2.13799 F6000 ; Print pattern wall
G1 X144.9709 Y165.1532 E2.13799 F6000 ; Print pattern wall
G1 E-0.75 F3000 ; Retract
G1 Z1.15 F7200 ; Z hop
G0 X147.8709 Y122.7268 F7200 ; Move to next pattern
G1 Z0.65 F7200 ; Z hop return
G1 E0.75 F1800 ; Un-retract
SET_PRESSURE_ADVANCE ADVANCE=0.05 ; Set pressure advance
M117 PA 0.05
G1 X169.0841 Y143.94 E2.13799 F6000 ; Print pattern wall
G1 X147.8709 Y165.1532 E2.13799 F6000 ; Print pattern wall
G1 E-0.75 F3000 ; Retract
G1 Z1.15 F7200 ; Z hop
G0 X149.083 Y122.7268 F7200 ; Move to start next pattern wall
G1 Z0.65 F7200 ; Z hop return
G1 E0.75 F1800 ; Un-retract
G1 X170.2962 Y143.94 E2.13799 F6000 ; Print pattern wall
G1 X149.083 Y165.1532 E2.13799 F6000 ; Print pattern wall
G1 E-0.75 F3000 ; Retract
G1 Z1.15 F7200 ; Z hop
G0 X150.2951 Y122.7268 F7200 ; Move to start next pattern wall
G1 Z0.65 F7200 ; Z hop return
G1 E0.75 F1800 ; Un-retract
G1 X171.5083 Y143.94 E2.13799 F6000 ; Print pattern wall
G1 X150.2951 Y165.1532 E2.13799 F6000 ; Print pattern wall
G1 E-0.75 F3000 ; Retract
G1 Z1.15 F7200 ; Z hop
G0 X153.1951 Y122.7268 F7200 ; Move to next pattern
G1 Z0.65 F7200 ; Z hop return
G1 E0.75 F1800 ; Un-retract
SET_PRESSURE_ADVANCE ADVANCE=0.055 ; Set pressure advance
M117 PA 0.055
G1 X174.4083 Y143.94 E2.13799 F6000 ; Print pattern wall
G1 X153.1951 Y165.1532 E2.13799 F6000 ; Print pattern wall
G1 E-0.75 F3000 ; Retract
G1 Z1.15 F7200 ; Z hop
G0 X154.4072 Y122.7268 F7200 ; Move to start next pattern wall
G1 Z0.65 F7200 ; Z hop return
G1 E0.75 F1800 ; Un-retract
G1 X175.6204 Y143.94 E2.13799 F6000 ; Print pattern wall
G1 X154.4072 Y165.1532 E2.13799 F6000 ; Print pattern wall
G1 E-0.75 F3000 ; Retract
G1 Z1.15 F7200 ; Z hop
G0 X155.6193 Y122.7268 F7200 ; Move to start next pattern wall
G1 Z0.65 F7200 ; Z hop return
G1 E0.75 F1800 ; Un-retract
G1 X176.8325 Y143.94 E2.13799 F6000 ; Print pattern wall
G1 X155.6193 Y165.1532 E2.13799 F6000 ; Print pattern wall
G1 E-0.75 F3000 ; Retract
G1 Z1.15 F7200 ; Z hop
G0 X158.5193 Y122.7268 F7200 ; Move to next pattern
G1 Z0.65 F7200 ; Z hop return
G1 E0.75 F1800 ; Un-retract
SET_PRESSURE_ADVANCE ADVANCE=0.06 ; Set pressure advance
M117 PA 0.06
G1 X179.7325 Y143.94 E2.13799 F6000 ; Print pattern wall
G1 X158.5193 Y165.1532 E2.13799 F6000 ; Print pattern wall
G1 E-0.75 F3000 ; Retract
G1 Z1.15 F7200 ; Z hop
G0 X159.7314 Y122.7268 F7200 ; Move to start next pattern wall
G1 Z0.65 F7200 ; Z hop return
G1 E0.75 F1800 ; Un-retract
G1 X180.9446 Y143.94 E2.13799 F6000 ; Print pattern wall
G1 X159.7314 Y165.1532 E2.13799 F6000 ; Print pattern wall
G1 E-0.75 F3000 ; Retract
G1 Z1.15 F7200 ; Z hop
G0 X160.9435 Y122.7268 F7200 ; Move to start next pattern wall
G1 Z0.65 F7200 ; Z hop return
G1 E0.75 F1800 ; Un-retract
G1 X182.1567 Y143.94 E2.13799 F6000 ; Print pattern wall
G1 X160.9435 Y165.1532 E2.13799 F6000 ; Print pattern wall
G1 E-0.75 F3000 ; Retract
G1 Z1.15 F7200 ; Z hop
G0 X163.8435 Y122.7268 F7200 ; Move to next pattern
G1 Z0.65 F7200 ; Z hop return
G1 E0.75 F1800 ; Un-retract
SET_PRESSURE_ADVANCE ADVANCE=0.065 ; Set pressure advance
M117 PA 0.065
G1 X185.0567 Y143.94 E2.13799 F6000 ; Print pattern wall
G1 X163.8435 Y165.1532 E2.13799 F6000 ; Print pattern wall
G1 E-0.75 F3000 ; Retract
G1 Z1.15 F7200 ; Z hop
G0 X165.0556 Y122.7268 F7200 ; Move to start next pattern wall
G1 Z0.65 F7200 ; Z hop return
G1 E0.75 F1800 ; Un-retract
G1 X186.2688 Y143.94 E2.13799 F6000 ; Print pattern wall
G1 X165.0556 Y165.1532 E2.13799 F6000 ; Print pattern wall
G1 E-0.75 F3000 ; Retract
G1 Z1.15 F7200 ; Z hop
G0 X166.2677 Y122.7268 F7200 ; Move to start next pattern wall
G1 Z0.65 F7200 ; Z hop return
G1 E0.75 F1800 ; Un-retract
G1 X187.4809 Y143.94 E2.13799 F6000 ; Print pattern wall
G1 X166.2677 Y165.1532 E2.13799 F6000 ; Print pattern wall
G1 E-0.75 F3000 ; Retract
G1 Z1.15 F7200 ; Z hop
G0 X169.1677 Y122.7268 F7200 ; Move to next pattern
G1 Z0.65 F7200 ; Z hop return
G1 E0.75 F1800 ; Un-retract
SET_PRESSURE_ADVANCE ADVANCE=0.07 ; Set pressure advance
M117 PA 0.07
G1 X190.3809 Y143.94 E2.13799 F6000 ; Print pattern wall
G1 X169.1677 Y165.1532 E2.13799 F6000 ; Print pattern wall
G1 E-0.75 F3000 ; Retract
G1 Z1.15 F7200 ; Z hop
G0 X170.3798 Y122.7268 F7200 ; Move to start next pattern wall
G1 Z0.65 F7200 ; Z hop return
G1 E0.75 F1800 ; Un-retract
G1 X191.593 Y143.94 E2.13799 F6000 ; Print pattern wall
G1 X170.3798 Y165.1532 E2.13799 F6000 ; Print pattern wall
G1 E-0.75 F3000 ; Retract
G1 Z1.15 F7200 ; Z hop
G0 X171.5919 Y122.7268 F7200 ; Move to start next pattern wall
G1 Z0.65 F7200 ; Z hop return
G1 E0.75 F1800 ; Un-retract
G1 X192.8051 Y143.94 E2.13799 F6000 ; Print pattern wall
G1 X171.5919 Y165.1532 E2.13799 F6000 ; Print pattern wall
G1 E-0.75 F3000 ; Retract
G1 Z1.15 F7200 ; Z hop
G0 X174.4919 Y122.7268 F7200 ; Move to next pattern
G1 Z0.65 F7200 ; Z hop return
G1 E0.75 F1800 ; Un-retract
SET_PRESSURE_ADVANCE ADVANCE=0.075 ; Set pressure advance
M117 PA 0.075
G1 X195.7051 Y143.94 E2.13799 F6000 ; Print pattern wall
G1 X174.4919 Y165.1532 E2.13799 F6000 ; Print pattern wall
G1 E-0.75 F3000 ; Retract
G1 Z1.15 F7200 ; Z hop
G0 X175.704 Y122.7268 F7200 ; Move to start next pattern wall
G1 Z0.65 F7200 ; Z hop return
G1 E0.75 F1800 ; Un-retract
G1 X196.9172 Y143.94 E2.13799 F6000 ; Print pattern wall
G1 X175.704 Y165.1532 E2.13799 F6000 ; Print pattern wall
G1 E-0.75 F3000 ; Retract
G1 Z1.15 F7200 ; Z hop
G0 X176.9161 Y122.7268 F7200 ; Move to start next pattern wall
G1 Z0.65 F7200 ; Z hop return
G1 E0.75 F1800 ; Un-retract
G1 X198.1293 Y143.94 E2.13799 F6000 ; Print pattern wall
G1 X176.9161 Y165.1532 E2.13799 F6000 ; Print pattern wall
G1 E-0.75 F3000 ; Retract
G1 Z1.15 F7200 ; Z hop
G0 X179.8161 Y122.7268 F7200 ; Move to next pattern
G1 Z0.65 F7200 ; Z hop return
G1 E0.75 F1800 ; Un-retract
SET_PRESSURE_ADVANCE ADVANCE=0.08 ; Set pressure advance
M117 PA 0.08
G1 X201.0293 Y143.94 E2.13799 F6000 ; Print pattern wall
G1 X179.8161 Y165.1532 E2.13799 F6000 ; Print pattern wall
G1 E-0.75 F3000 ; Retract
G1 Z1.15 F7200 ; Z hop
G0 X181.0281 Y122.7268 F7200 ; Move to start next pattern wall
G1 Z0.65 F7200 ; Z hop return
G1 E0.75 F1800 ; Un-retract
G1 X202.2413 Y143.94 E2.13799 F6000 ; Print pattern wall
G1 X181.0281 Y165.1532 E2.13799 F6000 ; Print pattern wall
G1 E-0.75 F3000 ; Retract
G1 Z1.15 F7200 ; Z hop
G0 X182.2402 Y122.7268 F7200 ; Move to start next pattern wall
G1 Z0.65 F7200 ; Z hop return
G1 E0.75 F1800 ; Un-retract
G1 X203.4534 Y143.94 E2.13799 F6000 ; Print pattern wall
G1 X182.2402 Y165.1532 E2.13799 F6000 ; Print pattern wall
G1 E-0.75 F3000 ; Retract
G1 Z1.15 F7200 ; Z hop
G0 X94.6291 Y122.7268 F7200 ; Move back to start position
G1 Z0.65 F7200 ; Z hop return
G1 E0.75 F1800 ; Un-retract
G0 Z0.85 F7200 ; Move to layer height
SET_PRESSURE_ADVANCE ADVANCE=0 ; Set pressure advance
M117 PA 0
G1 X115.8423 Y143.94 E2.13799 F6000 ; Print pattern wall
G1 X94.6291 Y165.1532 E2.13799 F6000 ; Print pattern wall
G1 E-0.75 F3000 ; Retract
G1 Z1.35 F7200 ; Z hop
G0 X95.8411 Y122.7268 F7200 ; Move to start next pattern wall
G1 Z0.85 F7200 ; Z hop return
G1 E0.75 F1800 ; Un-retract
G1 X117.0544 Y143.94 E2.13799 F6000 ; Print pattern wall
G1 X95.8411 Y165.1532 E2.13799 F6000 ; Print pattern wall
G1 E-0.75 F3000 ; Retract
G1 Z1.35 F7200 ; Z hop
G0 X97.0532 Y122.7268 F7200 ; Move to start next pattern wall
G1 Z0.85 F7200 ; Z hop return
G1 E0.75 F1800 ; Un-retract
G1 X118.2664 Y143.94 E2.13799 F6000 ; Print pattern wall
G1 X97.0532 Y165.1532 E2.13799 F6000 ; Print pattern wall
G1 E-0.75 F3000 ; Retract
G1 Z1.35 F7200 ; Z hop
G0 X99.9532 Y122.7268 F7200 ; Move to next pattern
G1 Z0.85 F7200 ; Z hop return
G1 E0.75 F1800 ; Un-retract
SET_PRESSURE_ADVANCE ADVANCE=0.005 ; Set pressure advance
M117 PA 0.005
G1 X121.1664 Y143.94 E2.13799 F6000 ; Print pattern wall
G1 X99.9532 Y165.1532 E2.13799 F6000 ; Print pattern wall
G1 E-0.75 F3000 ; Retract
G1 Z1.35 F7200 ; Z hop
G0 X101.1653 Y122.7268 F7200 ; Move to start next pattern wall
G1 Z0.85 F7200 ; Z hop return
G1 E0.75 F1800 ; Un-retract
G1 X122.3785 Y143.94 E2.13799 F6000 ; Print pattern wall
G1 X101.1653 Y165.1532 E2.13799 F6000 ; Print pattern wall
G1 E-0.75 F3000 ; Retract
G1 Z1.35 F7200 ; Z hop
G0 X102.3774 Y122.7268 F7200 ; Move to start next pattern wall
G1 Z0.85 F7200 ; Z hop return
G1 E0.75 F1800 ; Un-retract
G1 X123.5906 Y143.94 E2.13799 F6000 ; Print pattern wall
G1 X102.3774 Y165.1532 E2.13799 F6000 ; Print pattern wall
G1 E-0.75 F3000 ; Retract
G1 Z1.35 F7200 ; Z hop
G0 X105.2774 Y122.7268 F7200 ; Move to next pattern
G1 Z0.85 F7200 ; Z hop return
G1 E0.75 F1800 ; Un-retract
SET_PRESSURE_ADVANCE ADVANCE=0.01 ; Set pressure advance
M117 PA 0.01
G1 X126.4906 Y143.94 E2.13799 F6000 ; Print pattern wall
G1 X105.2774 Y165.1532 E2.13799 F6000 ; Print pattern wall
G1 E-0.75 F3000 ; Retract
G1 Z1.35 F7200 ; Z hop
G0 X106.4895 Y122.7268 F7200 ; Move to start next pattern wall
G1 Z0.85 F7200 ; Z hop return
G1 E0.75 F1800 ; Un-retract
G1 X127.7027 Y143.94 E2.13799 F6000 ; Print pattern wall
G1 X106.4895 Y165.1532 E2.13799 F6000 ; Print pattern wall
G1 E-0.75 F3000 ; Retract
G1 Z1.35 F7200 ; Z hop
G0 X107.7016 Y122.7268 F7200 ; Move to start next pattern wall
G1 Z0.85 F7200 ; Z hop return
G1 E0.75 F1800 ; Un-retract
G1 X128.9148 Y143.94 E2.13799 F6000 ; Print pattern wall
G1 X107.7016 Y165.1532 E2.13799 F6000 ; Print pattern wall
G1 E-0.75 F3000 ; Retract
G1 Z1.35 F7200 ; Z hop
G0 X110.6016 Y122.7268 F7200 ; Move to next pattern
G1 Z0.85 F7200 ; Z hop return
G1 E0.75 F1800 ; Un-retract
SET_PRESSURE_ADVANCE ADVANCE=0.015 ; Set pressure advance
M117 PA 0.015
G1 X131.8148 Y143.94 E2.13799 F6000 ; Print pattern wall
G1 X110.6016 Y165.1532 E2.13799 F6000 ; Print pattern wall
G1 E-0.75 F3000 ; Retract
G1 Z1.35 F7200 ; Z hop
G0 X111.8137 Y122.7268 F7200 ; Move to start next pattern wall
G1 Z0.85 F7200 ; Z hop return
G1 E0.75 F1800 ; Un-retract
G1 X133.0269 Y143.94 E2.13799 F6000 ; Print pattern wall
G1 X111.8137 Y165.1532 E2.13799 F6000 ; Print pattern wall
G1 E-0.75 F3000 ; Retract
G1 Z1.35 F7200 ; Z hop
G0 X113.0258 Y122.7268 F7200 ; Move to start next pattern wall
G1 Z0.85 F7200 ; Z hop return
G1 E0.75 F1800 ; Un-retract
G1 X134.239 Y143.94 E2.13799 F6000 ; Print pattern wall
G1 X113.0258 Y165.1532 E2.13799 F6000 ; Print pattern wall
G1 E-0.75 F3000 ; Retract
G1 Z1.35 F7200 ; Z hop
G0 X115.9258 Y122.7268 F7200 ; Move to next pattern
G1 Z0.85 F7200 ; Z hop return
G1 E0.75 F1800 ; Un-retract
SET_PRESSURE_ADVANCE ADVANCE=0.02 ; Set pressure advance
M117 PA 0.02
G1 X137.139 Y143.94 E2.13799 F6000 ; Print pattern wall
G1 X115.9258 Y165.1532 E2.13799 F6000 ; Print pattern wall
G1 E-0.75 F3000 ; Retract
G1 Z1.35 F7200 ; Z hop
G0 X117.1379 Y122.7268 F7200 ; Move to start next pattern wall
G1 Z0.85 F7200 ; Z hop return
G1 E0.75 F1800 ; Un-retract
G1 X138.3511 Y143.94 E2.13799 F6000 ; Print pattern wall
G1 X117.1379 Y165.1532 E2.13799 F6000 ; Print pattern wall
G1 E-0.75 F3000 ; Retract
G1 Z1.35 F7200 ; Z hop
G0 X118.35 Y122.7268 F7200 ; Move to start next pattern wall
G1 Z0.85 F7200 ; Z hop return
G1 E0.75 F1800 ; Un-retract
G1 X139.5632 Y143.94 E2.13799 F6000 ; Print pattern wall
G1 X118.35 Y165.1532 E2.13799 F6000 ; Print pattern wall
G1 E-0.75 F3000 ; Retract
G1 Z1.35 F7200 ; Z hop
G0 X121.25 Y122.7268 F7200 ; Move to next pattern
G1 Z0.85 F7200 ; Z hop return
G1 E0.75 F1800 ; Un-retract
SET_PRESSURE_ADVANCE ADVANCE=0.025 ; Set pressure advance
M117 PA 0.025
G1 X142.4632 Y143.94 E2.13799 F6000 ; Print pattern wall
G1 X121.25 Y165.1532 E2.13799 F6000 ; Print pattern wall
G1 E-0.75 F3000 ; Retract
G1 Z1.35 F7200 ; Z hop
G0 X122.4621 Y122.7268 F7200 ; Move to start next pattern wall
G1 Z0.85 F7200 ; Z hop return
G1 E0.75 F1800 ; Un-retract
G1 X143.6753 Y143.94 E2.13799 F6000 ; Print pattern wall
G1 X122.4621 Y165.1532 E2.13799 F6000 ; Print pattern wall
G1 E-0.75 F3000 ; Retract
G1 Z1.35 F7200 ; Z hop
G0 X123.6742 Y122.7268 F7200 ; Move to start next pattern wall
G1 Z0.85 F7200 ; Z hop return
G1 E0.75 F1800 ; Un-retract
G1 X144.8874 Y143.94 E2.13799 F6000 ; Print pattern wall
G1 X123.6742 Y165.1532 E2.13799 F6000 ; Print pattern wall
G1 E-0.75 F3000 ; Retract
G1 Z1.35 F7200 ; Z hop
G0 X126.5742 Y122.7268 F7200 ; Move to next pattern
G1 Z0.85 F7200 ; Z hop return
G1 E0.75 F1800 ; Un-retract
SET_PRESSURE_ADVANCE ADVANCE=0.03 ; Set pressure advance
M117 PA 0.03
G1 X147.7874 Y143.94 E2.13799 F6000 ; Print pattern wall
G1 X126.5742 Y165.1532 E2.13799 F6000 ; Print pattern wall
G1 E-0.75 F3000 ; Retract
G1 Z1.35 F7200 ; Z hop
G0 X127.7863 Y122.7268 F7200 ; Move to start next pattern wall
G1 Z0.85 F7200 ; Z hop return
G1 E0.75 F1800 ; Un-retract
G1 X148.9995 Y143.94 E2.13799 F6000 ; Print pattern wall
G1 X127.7863 Y165.1532 E2.13799 F6000 ; Print pattern wall
G1 E-0.75 F3000 ; Retract
G1 Z1.35 F7200 ; Z hop
G0 X128.9984 Y122.7268 F7200 ; Move to start next pattern wall
G1 Z0.85 F7200 ; Z hop return
G1 E0.75 F1800 ; Un-retract
G1 X150.2116 Y143.94 E2.13799 F6000 ; Print pattern wall
G1 X128.9984 Y165.1532 E2.13799 F6000 ; Print pattern wall
G1 E-0.75 F3000 ; Retract
G1 Z1.35 F7200 ; Z hop
G0 X131.8984 Y122.7268 F7200 ; Move to next pattern
G1 Z0.85 F7200 ; Z hop return
G1 E0.75 F1800 ; Un-retract
SET_PRESSURE_ADVANCE ADVANCE=0.035 ; Set pressure advance
M117 PA 0.035
G1 X153.1116 Y143.94 E2.13799 F6000 ; Print pattern wall
G1 X131.8984 Y165.1532 E2.13799 F6000 ; Print pattern wall
G1 E-0.75 F3000 ; Retract
G1 Z1.35 F7200 ; Z hop
G0 X133.1105 Y122.7268 F7200 ; Move to start next pattern wall
G1 Z0.85 F7200 ; Z hop return
G1 E0.75 F1800 ; Un-retract
G1 X154.3237 Y143.94 E2.13799 F6000 ; Print pattern wall
G1 X133.1105 Y165.1532 E2.13799 F6000 ; Print pattern wall
G1 E-0.75 F3000 ; Retract
G1 Z1.35 F7200 ; Z hop
G0 X134.3226 Y122.7268 F7200 ; Move to start next pattern wall
G1 Z0.85 F7200 ; Z hop return
G1 E0.75 F1800 ; Un-retract
G1 X155.5358 Y143.94 E2.13799 F6000 ; Print pattern wall
G1 X134.3226 Y165.1532 E2.13799 F6000 ; Print pattern wall
G1 E-0.75 F3000 ; Retract
G1 Z1.35 F7200 ; Z hop
G0 X137.2226 Y122.7268 F7200 ; Move to next pattern
G1 Z0.85 F7200 ; Z hop return
G1 E0.75 F1800 ; Un-retract
SET_PRESSURE_ADVANCE ADVANCE=0.04 ; Set pressure advance
M117 PA 0.04
G1 X158.4358 Y143.94 E2.13799 F6000 ; Print pattern wall
G1 X137.2226 Y165.1532 E2.13799 F6000 ; Print pattern wall
G1 E-0.75 F3000 ; Retract
G1 Z1.35 F7200 ; Z hop
G0 X138.4346 Y122.7268 F7200 ; Move to start next pattern wall
G1 Z0.85 F7200 ; Z hop return
G1 E0.75 F1800 ; Un-retract
G1 X159.6478 Y143.94 E2.13799 F6000 ; Print pattern wall
G1 X138.4346 Y165.1532 E2.13799 F6000 ; Print pattern wall
G1 E-0.75 F3000 ; Retract
G1 Z1.35 F7200 ; Z hop
G0 X139.6467 Y122.7268 F7200 ; Move to start next pattern wall
G1 Z0.85 F7200 ; Z hop return
G1 E0.75 F1800 ; Un-retract
G1 X160.8599 Y143.94 E2.13799 F6000 ; Print pattern wall
G1 X139.6467 Y165.1532 E2.13799 F6000 ; Print pattern wall
G1 E-0.75 F3000 ; Retract
G1 Z1.35 F7200 ; Z hop
G0 X142.5467 Y122.7268 F7200 ; Move to next pattern
G1 Z0.85 F7200 ; Z hop return
G1 E0.75 F1800 ; Un-retract
SET_PRESSURE_ADVANCE ADVANCE=0.045 ; Set pressure advance
M117 PA 0.045
G1 X163.7599 Y143.94 E2.13799 F6000 ; Print pattern wall
G1 X142.5467 Y165.1532 E2.13799 F6000 ; Print pattern wall
G1 E-0.75 F3000 ; Retract
G1 Z1.35 F7200 ; Z hop
G0 X143.7588 Y122.7268 F7200 ; Move to start next pattern wall
G1 Z0.85 F7200 ; Z hop return
G1 E0.75 F1800 ; Un-retract
G1 X164.972 Y143.94 E2.13799 F6000 ; Print pattern wall
G1 X143.7588 Y165.1532 E2.13799 F6000 ; Print pattern wall
G1 E-0.75 F3000 ; Retract
G1 Z1.35 F7200 ; Z hop
G0 X144.9709 Y122.7268 F7200 ; Move to start next pattern wall
G1 Z0.85 F7200 ; Z hop return
G1 E0.75 F1800 ; Un-retract
G1 X166.1841 Y143.94 E2.13799 F6000 ; Print pattern wall
G1 X144.9709 Y165.1532 E2.13799 F6000 ; Print pattern wall
G1 E-0.75 F3000 ; Retract
G1 Z1.35 F7200 ; Z hop
G0 X147.8709 Y122.7268 F7200 ; Move to next pattern
G1 Z0.85 F7200 ; Z hop return
G1 E0.75 F1800 ; Un-retract
SET_PRESSURE_ADVANCE ADVANCE=0.05 ; Set pressure advance
M117 PA 0.05
G1 X169.0841 Y143.94 E2.13799 F6000 ; Print pattern wall
G1 X147.8709 Y165.1532 E2.13799 F6000 ; Print pattern wall
G1 E-0.75 F3000 ; Retract
G1 Z1.35 F7200 ; Z hop
G0 X149.083 Y122.7268 F7200 ; Move to start next pattern wall
G1 Z0.85 F7200 ; Z hop return
G1 E0.75 F1800 ; Un-retract
G1 X170.2962 Y143.94 E2.13799 F6000 ; Print pattern wall
G1 X149.083 Y165.1532 E2.13799 F6000 ; Print pattern wall
G1 E-0.75 F3000 ; Retract
G1 Z1.35 F7200 ; Z hop
G0 X150.2951 Y122.7268 F7200 ; Move to start next pattern wall
G1 Z0.85 F7200 ; Z hop return
G1 E0.75 F1800 ; Un-retract
G1 X171.5083 Y143.94 E2.13799 F6000 ; Print pattern wall
G1 X150.2951 Y165.1532 E2.13799 F6000 ; Print pattern wall
G1 E-0.75 F3000 ; Retract
G1 Z1.35 F7200 ; Z hop
G0 X153.1951 Y122.7268 F7200 ; Move to next pattern
G1 Z0.85 F7200 ; Z hop return
G1 E0.75 F1800 ; Un-retract
SET_PRESSURE_ADVANCE ADVANCE=0.055 ; Set pressure advance
M117 PA 0.055
G1 X174.4083 Y143.94 E2.13799 F6000 ; Print pattern wall
G1 X153.1951 Y165.1532 E2.13799 F6000 ; Print pattern wall
G1 E-0.75 F3000 ; Retract
G1 Z1.35 F7200 ; Z hop
G0 X154.4072 Y122.7268 F7200 ; Move to start next pattern wall
G1 Z0.85 F7200 ; Z hop return
G1 E0.75 F1800 ; Un-retract
G1 X175.6204 Y143.94 E2.13799 F6000 ; Print pattern wall
G1 X154.4072 Y165.1532 E2.13799 F6000 ; Print pattern wall
G1 E-0.75 F3000 ; Retract
G1 Z1.35 F7200 ; Z hop
G0 X155.6193 Y122.7268 F7200 ; Move to start next pattern wall
G1 Z0.85 F7200 ; Z hop return
G1 E0.75 F1800 ; Un-retract
G1 X176.8325 Y143.94 E2.13799 F6000 ; Print pattern wall
G1 X155.6193 Y165.1532 E2.13799 F6000 ; Print pattern wall
G1 E-0.75 F3000 ; Retract
G1 Z1.35 F7200 ; Z hop
G0 X158.5193 Y122.7268 F7200 ; Move to next pattern
G1 Z0.85 F7200 ; Z hop return
G1 E0.75 F1800 ; Un-retract
SET_PRESSURE_ADVANCE ADVANCE=0.06 ; Set pressure advance
M117 PA 0.06
G1 X179.7325 Y143.94 E2.13799 F6000 ; Print pattern wall
G1 X158.5193 Y165.1532 E2.13799 F6000 ; Print pattern wall
G1 E-0.75 F3000 ; Retract
G1 Z1.35 F7200 ; Z hop
G0 X159.7314 Y122.7268 F7200 ; Move to start next pattern wall
G1 Z0.85 F7200 ; Z hop return
G1 E0.75 F1800 ; Un-retract
G1 X180.9446 Y143.94 E2.13799 F6000 ; Print pattern wall
G1 X159.7314 Y165.1532 E2.13799 F6000 ; Print pattern wall
G1 E-0.75 F3000 ; Retract
G1 Z1.35 F7200 ; Z hop
G0 X160.9435 Y122.7268 F7200 ; Move to start next pattern wall
G1 Z0.85 F7200 ; Z hop return
G1 E0.75 F1800 ; Un-retract
G1 X182.1567 Y143.94 E2.13799 F6000 ; Print pattern wall
G1 X160.9435 Y165.1532 E2.13799 F6000 ; Print pattern wall
G1 E-0.75 F3000 ; Retract
G1 Z1.35 F7200 ; Z hop
G0 X163.8435 Y122.7268 F7200 ; Move to next pattern
G1 Z0.85 F7200 ; Z hop return
G1 E0.75 F1800 ; Un-retract
SET_PRESSURE_ADVANCE ADVANCE=0.065 ; Set pressure advance
M117 PA 0.065
G1 X185.0567 Y143.94 E2.13799 F6000 ; Print pattern wall
G1 X163.8435 Y165.1532 E2.13799 F6000 ; Print pattern wall
G1 E-0.75 F3000 ; Retract
G1 Z1.35 F7200 ; Z hop
G0 X165.0556 Y122.7268 F7200 ; Move to start next pattern wall
G1 Z0.85 F7200 ; Z hop return
G1 E0.75 F1800 ; Un-retract
G1 X186.2688 Y143.94 E2.13799 F6000 ; Print pattern wall
G1 X165.0556 Y165.1532 E2.13799 F6000 ; Print pattern wall
G1 E-0.75 F3000 ; Retract
G1 Z1.35 F7200 ; Z hop
G0 X166.2677 Y122.7268 F7200 ; Move to start next pattern wall
G1 Z0.85 F7200 ; Z hop return
G1 E0.75 F1800 ; Un-retract
G1 X187.4809 Y143.94 E2.13799 F6000 ; Print pattern wall
G1 X166.2677 Y165.1532 E2.13799 F6000 ; Print pattern wall
G1 E-0.75 F3000 ; Retract
G1 Z1.35 F7200 ; Z hop
G0 X169.1677 Y122.7268 F7200 ; Move to next pattern
G1 Z0.85 F7200 ; Z hop return
G1 E0.75 F1800 ; Un-retract
SET_PRESSURE_ADVANCE ADVANCE=0.07 ; Set pressure advance
M117 PA 0.07
G1 X190.3809 Y143.94 E2.13799 F6000 ; Print pattern wall
G1 X169.1677 Y165.1532 E2.13799 F6000 ; Print pattern wall
G1 E-0.75 F3000 ; Retract
G1 Z1.35 F7200 ; Z hop
G0 X170.3798 Y122.7268 F7200 ; Move to start next pattern wall
G1 Z0.85 F7200 ; Z hop return
G1 E0.75 F1800 ; Un-retract
G1 X191.593 Y143.94 E2.13799 F6000 ; Print pattern wall
G1 X170.3798 Y165.1532 E2.13799 F6000 ; Print pattern wall
G1 E-0.75 F3000 ; Retract
G1 Z1.35 F7200 ; Z hop
G0 X171.5919 Y122.7268 F7200 ; Move to start next pattern wall
G1 Z0.85 F7200 ; Z hop return
G1 E0.75 F1800 ; Un-retract
G1 X192.8051 Y143.94 E2.13799 F6000 ; Print pattern wall
G1 X171.5919 Y165.1532 E2.13799 F6000 ; Print pattern wall
G1 E-0.75 F3000 ; Retract
G1 Z1.35 F7200 ; Z hop
G0 X174.4919 Y122.7268 F7200 ; Move to next pattern
G1 Z0.85 F7200 ; Z hop return
G1 E0.75 F1800 ; Un-retract
SET_PRESSURE_ADVANCE ADVANCE=0.075 ; Set pressure advance
M117 PA 0.075
G1 X195.7051 Y143.94 E2.13799 F6000 ; Print pattern wall
G1 X174.4919 Y165.1532 E2.13799 F6000 ; Print pattern wall
G1 E-0.75 F3000 ; Retract
G1 Z1.35 F7200 ; Z hop
G0 X175.704 Y122.7268 F7200 ; Move to start next pattern wall
G1 Z0.85 F7200 ; Z hop return
G1 E0.75 F1800 ; Un-retract
G1 X196.9172 Y143.94 E2.13799 F6000 ; Print pattern wall
G1 X175.704 Y165.1532 E2.13799 F6000 ; Print pattern wall
G1 E-0.75 F3000 ; Retract
G1 Z1.35 F7200 ; Z hop
G0 X176.9161 Y122.7268 F7200 ; Move to start next pattern wall
G1 Z0.85 F7200 ; Z hop return
G1 E0.75 F1800 ; Un-retract
G1 X198.1293 Y143.94 E2.13799 F6000 ; Print pattern wall
G1 X176.9161 Y165.1532 E2.13799 F6000 ; Print pattern wall
G1 E-0.75 F3000 ; Retract
G1 Z1.35 F7200 ; Z hop
G0 X179.8161 Y122.7268 F7200 ; Move to next pattern
G1 Z0.85 F7200 ; Z hop return
G1 E0.75 F1800 ; Un-retract
SET_PRESSURE_ADVANCE ADVANCE=0.08 ; Set pressure advance
M117 PA 0.08
G1 X201.0293 Y143.94 E2.13799 F6000 ; Print pattern wall
G1 X179.8161 Y165.1532 E2.13799 F6000 ; Print pattern wall
G1 E-0.75 F3000 ; Retract
G1 Z1.35 F7200 ; Z hop
G0 X181.0281 Y122.7268 F7200 ; Move to start next pattern wall
G1 Z0.85 F7200 ; Z hop return
G1 E0.75 F1800 ; Un-retract
G1 X202.2413 Y143.94 E2.13799 F6000 ; Print pattern wall
G1 X181.0281 Y165.1532 E2.13799 F6000 ; Print pattern wall
G1 E-0.75 F3000 ; Retract
G1 Z1.35 F7200 ; Z hop
G0 X182.2402 Y122.7268 F7200 ; Move to start next pattern wall
G1 Z0.85 F7200 ; Z hop return
G1 E0.75 F1800 ; Un-retract
G1 X203.4534 Y143.94 E2.13799 F6000 ; Print pattern wall
G1 X182.2402 Y165.1532 E2.13799 F6000 ; Print pattern wall
SET_PRESSURE_ADVANCE ADVANCE=0 ; Set pressure advance back to start value
M117 PA 0
G1 E-0.75 F3000 ; Retract
G1 Z1.35 F7200 ; Z hop
G0 Z5.85 F7200 ; Z raise
M104 S0 ; Turn off hotend
M140 S0 ; Turn off bed
M107    ; Turn off fan
;
; End G-code
;
PRINT_END ; End macro. Change name to match yours
;
; FINISH
;
